\relax 
\@writefile{toc}{\contentsline {section}{\numberline {1}2D wave equation}{1}}
\newlabel{eq:wave}{{1}{1}}
\newlabel{eq:general}{{4}{1}}
\@writefile{toc}{\contentsline {subsection}{\numberline {1.1}Exact 1D wave}{7}}
\@writefile{lof}{\contentsline {figure}{\numberline {1}{\ignorespaces Exact 1D solution: $t=0.1$ s}}{7}}
\newlabel{fig:exact1D_t01}{{1}{7}}
\@writefile{lof}{\contentsline {figure}{\numberline {2}{\ignorespaces Exact 1D solution: $t=5$ s}}{7}}
\newlabel{fig:exact1D_t5}{{2}{7}}
\@writefile{toc}{\contentsline {subsection}{\numberline {1.2}Standing wave}{8}}
\@writefile{lof}{\contentsline {figure}{\numberline {3}{\ignorespaces The evolution of the standing wave. Notice how (a) is the same as (d), but multiplied by -1.}}{9}}
\@writefile{lof}{\contentsline {subfigure}{\numberline{(a)}{\ignorespaces {}}}{9}}
\@writefile{lof}{\contentsline {subfigure}{\numberline{(b)}{\ignorespaces {}}}{9}}
\@writefile{lof}{\contentsline {subfigure}{\numberline{(c)}{\ignorespaces {}}}{9}}
\@writefile{lof}{\contentsline {subfigure}{\numberline{(d)}{\ignorespaces {}}}{9}}
\@writefile{toc}{\contentsline {subsection}{\numberline {1.3}Effect of various hill shapes}{10}}
\@writefile{lof}{\contentsline {figure}{\numberline {4}{\ignorespaces  The waves at $t=10$, the shapes are identical at this point.}}{10}}
\newlabel{fig:t=10}{{4}{10}}
\@writefile{lof}{\contentsline {figure}{\numberline {5}{\ignorespaces The waves at t=18, the waves are passing the area where subsea hills are located. The undisturbed wave is also shown.}}{11}}
\newlabel{fig:t=18}{{5}{11}}
\@writefile{lof}{\contentsline {figure}{\numberline {6}{\ignorespaces The waves at t=25, the waves are passing the area where subsea hills are located. The undisturbed wave is also shown.}}{11}}
\newlabel{fig:t=25}{{6}{11}}
\@writefile{lof}{\contentsline {figure}{\numberline {7}{\ignorespaces The evolution of the pulse.}}{12}}
\@writefile{lof}{\contentsline {subfigure}{\numberline{(a)}{\ignorespaces {}}}{12}}
\@writefile{lof}{\contentsline {subfigure}{\numberline{(b)}{\ignorespaces {}}}{12}}
\@writefile{lof}{\contentsline {subfigure}{\numberline{(c)}{\ignorespaces {}}}{12}}
\@writefile{lof}{\contentsline {figure}{\numberline {8}{\ignorespaces Comparing the arithmetic and the harmonic mean. Slightly less noise with the harmonic mean.}}{13}}
\@writefile{lof}{\contentsline {subfigure}{\numberline{(a)}{\ignorespaces {Arithmetic mean}}}{13}}
\@writefile{lof}{\contentsline {subfigure}{\numberline{(b)}{\ignorespaces {Harmonic mean}}}{13}}
\@writefile{toc}{\contentsline {subsection}{\numberline {1.4}Open boundary}{14}}
\@writefile{lof}{\contentsline {figure}{\numberline {9}{\ignorespaces The evolution of the wave.}}{14}}
\@writefile{lof}{\contentsline {subfigure}{\numberline{(a)}{\ignorespaces {The wave is traveling right and passing the subsea hill at $x=7$}}}{14}}
\@writefile{lof}{\contentsline {subfigure}{\numberline{(b)}{\ignorespaces {The wave seems to have passed out of the domain}}}{14}}
\@writefile{lof}{\contentsline {subfigure}{\numberline{(c)}{\ignorespaces {The solution becomes unstable after about 30 seconds.}}}{14}}
\@writefile{lof}{\contentsline {figure}{\numberline {10}{\ignorespaces The evolution of the wave.}}{15}}
\@writefile{lof}{\contentsline {subfigure}{\numberline{(a)}{\ignorespaces {Subsea hill at $x=2$. The wave has traveled out of the domain and the solution becomes unstable at $t=25$}}}{15}}
\@writefile{lof}{\contentsline {subfigure}{\numberline{(b)}{\ignorespaces {Subsea hill at $x=5$. The wave has traveled out of the domain and the solution becomes unstable at $t=25$}}}{15}}
\@writefile{lof}{\contentsline {subfigure}{\numberline{(c)}{\ignorespaces {Subsea hill at $x=9$. The wave has traveled out of the domain and the solution shows sign of becoming unstable at $t=40$}}}{15}}
