0.0000000000000000E+00 0.0000000000000000E+00
1.0000000000000001E-01 0.0000000000000000E+00
2.0000000000000001E-01 0.0000000000000000E+00
3.0000000000000004E-01 0.0000000000000000E+00
4.0000000000000002E-01 0.0000000000000000E+00
5.0000000000000000E-01 0.0000000000000000E+00
6.0000000000000009E-01 0.0000000000000000E+00
7.0000000000000007E-01 0.0000000000000000E+00
8.0000000000000004E-01 0.0000000000000000E+00
9.0000000000000002E-01 0.0000000000000000E+00
1.0000000000000000E+00 0.0000000000000000E+00
1.1000000000000001E+00 0.0000000000000000E+00
1.2000000000000002E+00 0.0000000000000000E+00
1.3000000000000000E+00 0.0000000000000000E+00
1.4000000000000001E+00 0.0000000000000000E+00
1.5000000000000000E+00 0.0000000000000000E+00
1.6000000000000001E+00 0.0000000000000000E+00
1.7000000000000002E+00 0.0000000000000000E+00
1.8000000000000000E+00 0.0000000000000000E+00
1.9000000000000001E+00 0.0000000000000000E+00
2.0000000000000000E+00 0.0000000000000000E+00
2.1000000000000001E+00 0.0000000000000000E+00
2.2000000000000002E+00 0.0000000000000000E+00
2.3000000000000003E+00 0.0000000000000000E+00
2.4000000000000004E+00 0.0000000000000000E+00
2.5000000000000000E+00 0.0000000000000000E+00
2.6000000000000001E+00 0.0000000000000000E+00
2.7000000000000002E+00 0.0000000000000000E+00
2.8000000000000003E+00 0.0000000000000000E+00
2.9000000000000004E+00 0.0000000000000000E+00
3.0000000000000000E+00 0.0000000000000000E+00
3.1000000000000001E+00 0.0000000000000000E+00
3.2000000000000002E+00 0.0000000000000000E+00
3.3000000000000003E+00 0.0000000000000000E+00
3.4000000000000004E+00 0.0000000000000000E+00
3.5000000000000000E+00 0.0000000000000000E+00
3.6000000000000001E+00 0.0000000000000000E+00
3.7000000000000002E+00 5.0000000000000000E-01
3.8000000000000003E+00 5.0000000000000000E-01
3.9000000000000004E+00 5.0000000000000000E-01
4.0000000000000000E+00 5.0000000000000000E-01
4.1000000000000005E+00 5.0000000000000000E-01
4.2000000000000002E+00 5.0000000000000000E-01
4.2999999999999998E+00 5.0000000000000000E-01
4.4000000000000004E+00 5.0000000000000000E-01
4.5000000000000000E+00 5.0000000000000000E-01
4.6000000000000005E+00 5.0000000000000000E-01
4.7000000000000002E+00 5.0000000000000000E-01
4.8000000000000007E+00 5.0000000000000000E-01
4.9000000000000004E+00 5.0000000000000000E-01
5.0000000000000000E+00 5.0000000000000000E-01
5.1000000000000005E+00 5.0000000000000000E-01
5.2000000000000002E+00 5.0000000000000000E-01
5.3000000000000007E+00 5.0000000000000000E-01
5.4000000000000004E+00 5.0000000000000000E-01
5.5000000000000000E+00 5.0000000000000000E-01
5.6000000000000005E+00 0.0000000000000000E+00
5.7000000000000002E+00 0.0000000000000000E+00
5.8000000000000007E+00 0.0000000000000000E+00
5.9000000000000004E+00 0.0000000000000000E+00
6.0000000000000000E+00 0.0000000000000000E+00
6.1000000000000005E+00 0.0000000000000000E+00
6.2000000000000002E+00 0.0000000000000000E+00
6.3000000000000007E+00 0.0000000000000000E+00
6.4000000000000004E+00 0.0000000000000000E+00
6.5000000000000000E+00 0.0000000000000000E+00
6.6000000000000005E+00 0.0000000000000000E+00
6.7000000000000002E+00 0.0000000000000000E+00
6.8000000000000007E+00 0.0000000000000000E+00
6.9000000000000004E+00 0.0000000000000000E+00
7.0000000000000000E+00 0.0000000000000000E+00
7.1000000000000005E+00 0.0000000000000000E+00
7.2000000000000002E+00 0.0000000000000000E+00
7.3000000000000007E+00 0.0000000000000000E+00
7.4000000000000004E+00 0.0000000000000000E+00
7.5000000000000000E+00 0.0000000000000000E+00
7.6000000000000005E+00 0.0000000000000000E+00
7.7000000000000002E+00 0.0000000000000000E+00
7.8000000000000007E+00 0.0000000000000000E+00
7.9000000000000004E+00 0.0000000000000000E+00
8.0000000000000000E+00 0.0000000000000000E+00
8.0999999999999996E+00 0.0000000000000000E+00
8.2000000000000011E+00 0.0000000000000000E+00
8.3000000000000007E+00 0.0000000000000000E+00
8.4000000000000004E+00 0.0000000000000000E+00
8.5000000000000000E+00 0.0000000000000000E+00
8.5999999999999996E+00 0.0000000000000000E+00
8.7000000000000011E+00 0.0000000000000000E+00
8.8000000000000007E+00 0.0000000000000000E+00
8.9000000000000004E+00 0.0000000000000000E+00
9.0000000000000000E+00 0.0000000000000000E+00
9.0999999999999996E+00 0.0000000000000000E+00
9.2000000000000011E+00 0.0000000000000000E+00
9.3000000000000007E+00 0.0000000000000000E+00
9.4000000000000004E+00 0.0000000000000000E+00
9.5000000000000000E+00 0.0000000000000000E+00
9.6000000000000014E+00 0.0000000000000000E+00
9.7000000000000011E+00 0.0000000000000000E+00
9.8000000000000007E+00 0.0000000000000000E+00
9.9000000000000004E+00 0.0000000000000000E+00
1.0000000000000000E+01 0.0000000000000000E+00
