%!PS-Adobe-3.0 EPSF-3.0
%%Title: /home/olemarha/inf9620/Subsea/tsunami_t25.eps
%%Creator: matplotlib version 1.1.1rc, http://matplotlib.sourceforge.net/
%%CreationDate: Thu Nov 29 09:27:12 2012
%%Orientation: portrait
%%BoundingBox: 13 175 598 616
%%EndComments
%%BeginProlog
/mpldict 8 dict def
mpldict begin
/m { moveto } bind def
/l { lineto } bind def
/r { rlineto } bind def
/c { curveto } bind def
/cl { closepath } bind def
/box {
m
1 index 0 r
0 exch r
neg 0 r
cl
} bind def
/clipbox {
box
clip
newpath
} bind def
%!PS-Adobe-3.0 Resource-Font
%%Title: DejaVu Sans
%%Copyright: Copyright (c) 2003 by Bitstream, Inc. All Rights Reserved. Copyright (c) 2006 by Tavmjong Bah. All Rights Reserved. DejaVu changes are in public domain 
%%Creator: Converted from TrueType to type 3 by PPR
25 dict begin
/_d{bind def}bind def
/_m{moveto}_d
/_l{lineto}_d
/_cl{closepath eofill}_d
/_c{curveto}_d
/_sc{7 -1 roll{setcachedevice}{pop pop pop pop pop pop}ifelse}_d
/_e{exec}_d
/FontName /DejaVuSans def
/PaintType 0 def
/FontMatrix[.001 0 0 .001 0 0]def
/FontBBox[-1021 -415 1681 1167]def
/FontType 3 def
/Encoding [ /period /zero /one /two /three /four /five /six /eight /equal /G /N /P /a /e /i /l /n /o /s /t /u /x /minus ] def
/FontInfo 10 dict dup begin
/FamilyName (DejaVu Sans) def
/FullName (DejaVu Sans) def
/Notice (Copyright (c) 2003 by Bitstream, Inc. All Rights Reserved. Copyright (c) 2006 by Tavmjong Bah. All Rights Reserved. DejaVu changes are in public domain ) def
/Weight (Book) def
/Version (Version 2.33) def
/ItalicAngle 0.0 def
/isFixedPitch false def
/UnderlinePosition -130 def
/UnderlineThickness 90 def
end readonly def
/CharStrings 24 dict dup begin
/period{318 0 107 0 210 124 _sc
107 124 _m
210 124 _l
210 0 _l
107 0 _l
107 124 _l
_cl}_d
/zero{636 0 66 -13 570 742 _sc
318 664 _m
267 664 229 639 203 589 _c
177 539 165 464 165 364 _c
165 264 177 189 203 139 _c
229 89 267 64 318 64 _c
369 64 407 89 433 139 _c
458 189 471 264 471 364 _c
471 464 458 539 433 589 _c
407 639 369 664 318 664 _c
318 742 _m
399 742 461 709 505 645 _c
548 580 570 486 570 364 _c
570 241 548 147 505 83 _c
461 19 399 -13 318 -13 _c
236 -13 173 19 130 83 _c
87 147 66 241 66 364 _c
66 486 87 580 130 645 _c
173 709 236 742 318 742 _c
_cl}_d
/one{636 0 110 0 544 729 _sc
124 83 _m
285 83 _l
285 639 _l
110 604 _l
110 694 _l
284 729 _l
383 729 _l
383 83 _l
544 83 _l
544 0 _l
124 0 _l
124 83 _l
_cl}_d
/two{{636 0 73 0 536 742 _sc
192 83 _m
536 83 _l
536 0 _l
73 0 _l
73 83 _l
110 121 161 173 226 239 _c
290 304 331 346 348 365 _c
380 400 402 430 414 455 _c
426 479 433 504 433 528 _c
433 566 419 598 392 622 _c
365 646 330 659 286 659 _c
255 659 222 653 188 643 _c
154 632 117 616 78 594 _c
78 694 _l
118 710 155 722 189 730 _c
223 738 255 742 284 742 _c
359 742 419 723 464 685 _c
509 647 532 597 532 534 _c
532 504 526 475 515 449 _c
504 422 484 390 454 354 _c
446 344 420 317 376 272 _c
332 227 271 164 192 83 _c
_cl}_e}_d
/three{{636 0 76 -13 556 742 _sc
406 393 _m
453 383 490 362 516 330 _c
542 298 556 258 556 212 _c
556 140 531 84 482 45 _c
432 6 362 -13 271 -13 _c
240 -13 208 -10 176 -4 _c
144 1 110 10 76 22 _c
76 117 _l
103 101 133 89 166 81 _c
198 73 232 69 268 69 _c
330 69 377 81 409 105 _c
441 129 458 165 458 212 _c
458 254 443 288 413 312 _c
383 336 341 349 287 349 _c
202 349 _l
202 430 _l
291 430 _l
339 430 376 439 402 459 _c
428 478 441 506 441 543 _c
441 580 427 609 401 629 _c
374 649 336 659 287 659 _c
260 659 231 656 200 650 _c
169 644 135 635 98 623 _c
98 711 _l
135 721 170 729 203 734 _c
235 739 266 742 296 742 _c
}_e{370 742 429 725 473 691 _c
517 657 539 611 539 553 _c
539 513 527 479 504 451 _c
481 423 448 403 406 393 _c
_cl}_e}_d
/four{636 0 49 0 580 729 _sc
378 643 _m
129 254 _l
378 254 _l
378 643 _l
352 729 _m
476 729 _l
476 254 _l
580 254 _l
580 172 _l
476 172 _l
476 0 _l
378 0 _l
378 172 _l
49 172 _l
49 267 _l
352 729 _l
_cl}_d
/five{{636 0 77 -13 549 729 _sc
108 729 _m
495 729 _l
495 646 _l
198 646 _l
198 467 _l
212 472 227 476 241 478 _c
255 480 270 482 284 482 _c
365 482 429 459 477 415 _c
525 370 549 310 549 234 _c
549 155 524 94 475 51 _c
426 8 357 -13 269 -13 _c
238 -13 207 -10 175 -6 _c
143 -1 111 6 77 17 _c
77 116 _l
106 100 136 88 168 80 _c
199 72 232 69 267 69 _c
323 69 368 83 401 113 _c
433 143 450 183 450 234 _c
450 284 433 324 401 354 _c
368 384 323 399 267 399 _c
241 399 214 396 188 390 _c
162 384 135 375 108 363 _c
108 729 _l
_cl}_e}_d
/six{{636 0 70 -13 573 742 _sc
330 404 _m
286 404 251 388 225 358 _c
199 328 186 286 186 234 _c
186 181 199 139 225 109 _c
251 79 286 64 330 64 _c
374 64 409 79 435 109 _c
461 139 474 181 474 234 _c
474 286 461 328 435 358 _c
409 388 374 404 330 404 _c
526 713 _m
526 623 _l
501 635 476 644 451 650 _c
425 656 400 659 376 659 _c
310 659 260 637 226 593 _c
192 549 172 482 168 394 _c
187 422 211 444 240 459 _c
269 474 301 482 336 482 _c
409 482 467 459 509 415 _c
551 371 573 310 573 234 _c
573 159 550 99 506 54 _c
462 9 403 -13 330 -13 _c
246 -13 181 19 137 83 _c
92 147 70 241 70 364 _c
70 479 97 571 152 639 _c
206 707 280 742 372 742 _c
}_e{396 742 421 739 447 735 _c
472 730 498 723 526 713 _c
_cl}_e}_d
/eight{{636 0 68 -13 568 742 _sc
318 346 _m
271 346 234 333 207 308 _c
180 283 167 249 167 205 _c
167 161 180 126 207 101 _c
234 76 271 64 318 64 _c
364 64 401 76 428 102 _c
455 127 469 161 469 205 _c
469 249 455 283 429 308 _c
402 333 365 346 318 346 _c
219 388 _m
177 398 144 418 120 447 _c
96 476 85 511 85 553 _c
85 611 105 657 147 691 _c
188 725 245 742 318 742 _c
390 742 447 725 489 691 _c
530 657 551 611 551 553 _c
551 511 539 476 515 447 _c
491 418 459 398 417 388 _c
464 377 501 355 528 323 _c
554 291 568 251 568 205 _c
568 134 546 80 503 43 _c
459 5 398 -13 318 -13 _c
237 -13 175 5 132 43 _c
89 80 68 134 68 205 _c
68 251 81 291 108 323 _c
134 355 171 377 219 388 _c
}_e{183 544 _m
183 506 194 476 218 455 _c
242 434 275 424 318 424 _c
360 424 393 434 417 455 _c
441 476 453 506 453 544 _c
453 582 441 611 417 632 _c
393 653 360 664 318 664 _c
275 664 242 653 218 632 _c
194 611 183 582 183 544 _c
_cl}_e}_d
/equal{838 0 106 172 732 454 _sc
106 454 _m
732 454 _l
732 372 _l
106 372 _l
106 454 _l
106 255 _m
732 255 _l
732 172 _l
106 172 _l
106 255 _l
_cl}_d
/G{{775 0 56 -13 693 742 _sc
595 104 _m
595 300 _l
434 300 _l
434 381 _l
693 381 _l
693 68 _l
655 40 613 20 567 7 _c
521 -6 472 -13 420 -13 _c
306 -13 216 20 152 86 _c
88 152 56 245 56 364 _c
56 482 88 575 152 642 _c
216 708 306 742 420 742 _c
467 742 512 736 555 724 _c
598 712 638 695 674 673 _c
674 568 _l
637 598 598 621 557 637 _c
516 653 473 661 428 661 _c
338 661 271 636 227 586 _c
182 536 160 462 160 364 _c
160 265 182 191 227 141 _c
271 91 338 67 428 67 _c
462 67 493 70 521 76 _c
549 82 573 91 595 104 _c
_cl}_e}_d
/N{748 0 98 0 650 729 _sc
98 729 _m
231 729 _l
554 119 _l
554 729 _l
650 729 _l
650 0 _l
517 0 _l
194 610 _l
194 0 _l
98 0 _l
98 729 _l
_cl}_d
/P{603 0 98 0 569 729 _sc
197 648 _m
197 374 _l
321 374 _l
367 374 402 385 427 409 _c
452 433 465 467 465 511 _c
465 555 452 588 427 612 _c
402 636 367 648 321 648 _c
197 648 _l
98 729 _m
321 729 _l
402 729 464 710 506 673 _c
548 636 569 582 569 511 _c
569 439 548 384 506 348 _c
464 311 402 293 321 293 _c
197 293 _l
197 0 _l
98 0 _l
98 729 _l
_cl}_d
/a{{613 0 60 -13 522 560 _sc
343 275 _m
270 275 220 266 192 250 _c
164 233 150 205 150 165 _c
150 133 160 107 181 89 _c
202 70 231 61 267 61 _c
317 61 357 78 387 114 _c
417 149 432 196 432 255 _c
432 275 _l
343 275 _l
522 312 _m
522 0 _l
432 0 _l
432 83 _l
411 49 385 25 355 10 _c
325 -5 287 -13 243 -13 _c
187 -13 142 2 109 33 _c
76 64 60 106 60 159 _c
60 220 80 266 122 298 _c
163 329 224 345 306 345 _c
432 345 _l
432 354 _l
432 395 418 427 391 450 _c
364 472 326 484 277 484 _c
245 484 215 480 185 472 _c
155 464 127 453 100 439 _c
100 522 _l
}_e{132 534 164 544 195 550 _c
226 556 256 560 286 560 _c
365 560 424 539 463 498 _c
502 457 522 395 522 312 _c
_cl}_e}_d
/e{{615 0 55 -13 562 560 _sc
562 296 _m
562 252 _l
149 252 _l
153 190 171 142 205 110 _c
238 78 284 62 344 62 _c
378 62 412 66 444 74 _c
476 82 509 95 541 113 _c
541 28 _l
509 14 476 3 442 -3 _c
408 -9 373 -13 339 -13 _c
251 -13 182 12 131 62 _c
80 112 55 181 55 268 _c
55 357 79 428 127 481 _c
175 533 241 560 323 560 _c
397 560 455 536 498 489 _c
540 441 562 377 562 296 _c
472 322 _m
471 371 457 410 431 440 _c
404 469 368 484 324 484 _c
274 484 234 469 204 441 _c
174 413 156 373 152 322 _c
472 322 _l
_cl}_e}_d
/i{278 0 94 0 184 760 _sc
94 547 _m
184 547 _l
184 0 _l
94 0 _l
94 547 _l
94 760 _m
184 760 _l
184 646 _l
94 646 _l
94 760 _l
_cl}_d
/l{278 0 94 0 184 760 _sc
94 760 _m
184 760 _l
184 0 _l
94 0 _l
94 760 _l
_cl}_d
/n{634 0 91 0 549 560 _sc
549 330 _m
549 0 _l
459 0 _l
459 327 _l
459 379 448 417 428 443 _c
408 469 378 482 338 482 _c
289 482 251 466 223 435 _c
195 404 181 362 181 309 _c
181 0 _l
91 0 _l
91 547 _l
181 547 _l
181 462 _l
202 494 227 519 257 535 _c
286 551 320 560 358 560 _c
420 560 468 540 500 501 _c
532 462 549 405 549 330 _c
_cl}_d
/o{612 0 55 -13 557 560 _sc
306 484 _m
258 484 220 465 192 427 _c
164 389 150 338 150 273 _c
150 207 163 156 191 118 _c
219 80 257 62 306 62 _c
354 62 392 80 420 118 _c
448 156 462 207 462 273 _c
462 337 448 389 420 427 _c
392 465 354 484 306 484 _c
306 560 _m
384 560 445 534 490 484 _c
534 433 557 363 557 273 _c
557 183 534 113 490 63 _c
445 12 384 -13 306 -13 _c
227 -13 165 12 121 63 _c
77 113 55 183 55 273 _c
55 363 77 433 121 484 _c
165 534 227 560 306 560 _c
_cl}_d
/s{{521 0 54 -13 472 560 _sc
443 531 _m
443 446 _l
417 458 391 468 364 475 _c
336 481 308 485 279 485 _c
234 485 200 478 178 464 _c
156 450 145 430 145 403 _c
145 382 153 366 169 354 _c
185 342 217 330 265 320 _c
296 313 _l
360 299 405 279 432 255 _c
458 230 472 195 472 151 _c
472 100 452 60 412 31 _c
372 1 316 -13 246 -13 _c
216 -13 186 -10 154 -5 _c
122 0 89 8 54 20 _c
54 113 _l
87 95 120 82 152 74 _c
184 65 216 61 248 61 _c
290 61 323 68 346 82 _c
368 96 380 117 380 144 _c
380 168 371 187 355 200 _c
339 213 303 226 247 238 _c
216 245 _l
160 257 119 275 95 299 _c
70 323 58 356 58 399 _c
58 450 76 490 112 518 _c
148 546 200 560 268 560 _c
}_e{301 560 332 557 362 552 _c
391 547 418 540 443 531 _c
_cl}_e}_d
/t{392 0 27 0 368 702 _sc
183 702 _m
183 547 _l
368 547 _l
368 477 _l
183 477 _l
183 180 _l
183 135 189 106 201 94 _c
213 81 238 75 276 75 _c
368 75 _l
368 0 _l
276 0 _l
206 0 158 13 132 39 _c
106 65 93 112 93 180 _c
93 477 _l
27 477 _l
27 547 _l
93 547 _l
93 702 _l
183 702 _l
_cl}_d
/u{634 0 85 -13 543 560 _sc
85 216 _m
85 547 _l
175 547 _l
175 219 _l
175 167 185 129 205 103 _c
225 77 255 64 296 64 _c
344 64 383 79 411 110 _c
439 141 453 183 453 237 _c
453 547 _l
543 547 _l
543 0 _l
453 0 _l
453 84 _l
431 50 405 26 377 10 _c
348 -5 315 -13 277 -13 _c
214 -13 166 6 134 45 _c
101 83 85 140 85 216 _c
_cl}_d
/x{592 0 29 0 559 547 _sc
549 547 _m
351 281 _l
559 0 _l
453 0 _l
294 215 _l
135 0 _l
29 0 _l
241 286 _l
47 547 _l
153 547 _l
298 352 _l
443 547 _l
549 547 _l
_cl}_d
/minus{838 0 106 272 732 355 _sc
106 355 _m
732 355 _l
732 272 _l
106 272 _l
106 355 _l
_cl}_d
end readonly def

/BuildGlyph
 {exch begin
 CharStrings exch
 2 copy known not{pop /.notdef}if
 true 3 1 roll get exec
 end}_d

/BuildChar {
 1 index /Encoding get exch get
 1 index /BuildGlyph get exec
}_d

FontName currentdict end definefont pop
end
%%EndProlog
mpldict begin
13.5 175.5 translate
585 441 0 0 clipbox
gsave
0 0 m
585 0 l
585 441 l
0 441 l
cl
1.000 setgray
fill
grestore
gsave
73.125 44.1 m
526.5 44.1 l
526.5 396.9 l
73.125 396.9 l
cl
1.000 setgray
fill
grestore
1.000 setlinewidth
1 setlinejoin
2 setlinecap
[] 0 setdash
1.000 0.000 0.000 setrgbcolor
gsave
453.4 352.8 73.12 44.1 clipbox
73.125 139.125 m
75.3919 125.682 l
77.6587 138.306 l
79.9256 127.281 l
82.1925 136.012 l
84.4594 130.135 l
86.7262 132.781 l
88.9931 133.508 l
91.26 129.545 l
93.5269 136.308 l
95.7938 127.469 l
98.0606 137.424 l
100.328 127.45 l
102.594 136.356 l
104.861 129.419 l
107.128 133.849 l
109.395 131.956 l
111.662 131.854 l
113.929 132.888 l
116.196 132.327 l
118.463 130.97 l
120.729 135.363 l
122.996 127.491 l
125.263 138.387 l
127.53 125.818 l
129.797 138.09 l
132.064 128.185 l
134.331 134.192 l
138.864 130.77 l
141.131 133.899 l
143.398 131.869 l
145.665 130.856 l
147.932 135.421 l
150.199 128.638 l
152.466 134.829 l
154.733 132.403 l
156.999 128.984 l
159.266 138.103 l
161.533 125.817 l
163.8 137.405 l
166.067 129.826 l
168.334 132.406 l
170.601 132.906 l
172.868 133.013 l
175.134 129.245 l
177.401 136.82 l
179.668 128.774 l
181.935 132.289 l
184.202 136.672 l
186.469 125.288 l
188.736 138.62 l
191.002 129.394 l
193.269 131.604 l
195.536 134.225 l
197.803 131.964 l
200.07 130.42 l
202.337 134.025 l
204.604 134.029 l
206.871 126.259 l
209.138 139.545 l
211.404 128.734 l
213.671 129.821 l
215.938 138.365 l
218.205 127.645 l
220.472 132.936 l
222.739 133.515 l
225.006 133.147 l
227.273 129.03 l
229.539 133.666 l
231.806 136.717 l
234.073 124.349 l
236.34 136.696 l
238.607 135.565 l
240.874 125.274 l
243.141 135.893 l
245.408 133.737 l
247.674 130.929 l
249.941 130.347 l
252.208 133.345 l
254.475 137.225 l
256.742 125.178 l
259.009 132.4 l
261.276 140.386 l
263.543 125.86 l
265.809 130.235 l
268.076 137.185 l
270.343 132.102 l
272.61 131.262 l
274.877 128.424 l
277.144 135.581 l
279.411 138.221 l
281.678 123.748 l
283.944 130.199 l
286.211 141.437 l
288.478 130.553 l
290.745 127.579 l
293.012 132.251 l
295.279 133.644 l
297.546 138.022 l
299.812 129.859 l
302.079 122.664 l
304.346 137.565 l
306.613 141.307 l
308.88 127.291 l
311.147 126.849 l
313.414 132.241 l
315.681 134.028 l
317.947 139.675 l
320.214 133.503 l
322.481 120.088 l
324.748 128.457 l
327.015 142.916 l
329.282 137.926 l
331.549 130.268 l
333.816 128.633 l
336.083 123.632 l
338.349 128.176 l
340.616 144.557 l
342.883 145.044 l
345.15 128.861 l
347.417 122.416 l
349.684 124.91 l
351.951 124.557 l
354.218 132.409 l
356.484 149.129 l
358.751 151.075 l
361.018 135.557 l
363.285 124.611 l
365.552 120.858 l
367.819 111.782 l
370.086 106.024 l
372.353 119.089 l
374.619 140.657 l
376.886 153.482 l
379.153 164.286 l
381.42 185.716 l
383.687 208.587 l
385.954 218.654 l
388.221 223.162 l
390.488 237.076 l
392.754 256.339 l
395.021 266.176 l
397.288 267.34 l
399.555 274.542 l
401.822 291.864 l
404.089 306.644 l
406.356 309.85 l
408.623 309.529 l
410.889 318.035 l
413.156 333.997 l
415.423 344.767 l
417.69 343.905 l
419.957 339.111 l
422.224 341.652 l
424.491 352.421 l
426.758 361.502 l
429.024 359.972 l
431.291 349.402 l
433.558 339.457 l
435.825 337.79 l
438.092 343.099 l
440.359 347.127 l
442.626 342.306 l
444.893 327.722 l
447.159 309.112 l
449.426 294.165 l
451.693 287.376 l
453.96 287.887 l
456.227 290.842 l
458.494 290.533 l
460.761 283.185 l
463.028 268.108 l
465.294 247.233 l
469.828 200.957 l
472.095 181.016 l
474.362 165.083 l
476.629 153.285 l
478.896 145.112 l
481.163 139.778 l
483.429 136.483 l
485.696 134.546 l
487.963 133.46 l
490.23 132.877 l
492.497 132.577 l
497.031 132.358 l
508.365 132.301 l
526.5 132.3 l
526.5 132.3 l
stroke
grestore
0.000 setgray
gsave
453.4 352.8 73.12 44.1 clipbox
73.125 139.125 m
75.3919 125.682 l
77.6587 138.306 l
79.9256 127.281 l
82.1925 136.012 l
84.4594 130.135 l
86.7262 132.781 l
88.9931 133.508 l
91.26 129.545 l
93.5269 136.309 l
95.7938 127.469 l
98.0606 137.425 l
100.328 127.453 l
102.594 136.361 l
104.861 129.431 l
107.128 133.874 l
109.395 132.005 l
111.662 131.948 l
113.929 133.062 l
116.196 132.637 l
118.463 131.499 l
120.729 136.226 l
122.996 128.839 l
125.263 140.389 l
127.53 128.65 l
129.797 141.891 l
132.064 133.02 l
134.331 140.018 l
136.597 139.182 l
138.864 138.046 l
141.131 141.574 l
143.398 139.843 l
145.665 139.201 l
147.932 144.365 l
150.199 138.443 l
152.466 145.639 l
154.733 144.144 l
156.999 141.409 l
159.266 150.97 l
161.533 139.069 l
163.8 151.197 l
166.067 144.361 l
168.334 147.718 l
170.601 148.8 l
172.868 149.234 l
175.134 145.706 l
177.401 153.64 l
179.668 146.08 l
181.935 150.013 l
184.202 154.592 l
186.469 143.257 l
188.736 156.682 l
191.002 147.646 l
193.269 149.999 l
195.536 152.598 l
197.803 150.21 l
200.07 148.567 l
202.337 152.105 l
204.604 151.973 l
206.871 143.944 l
209.138 156.885 l
211.404 145.68 l
213.671 146.319 l
215.938 154.31 l
218.205 142.875 l
220.472 147.321 l
222.739 147.087 l
225.006 146.037 l
227.273 141.292 l
229.539 145.39 l
231.806 148.247 l
234.073 136.001 l
236.34 148.326 l
238.607 146.859 l
240.874 136.196 l
243.141 146.297 l
245.408 143.176 l
247.674 139.477 l
249.941 138.643 l
252.208 141.423 l
254.475 144.646 l
256.742 132.083 l
261.276 145.699 l
263.543 130.28 l
265.809 134.594 l
268.076 141.001 l
270.343 134.789 l
272.61 133.488 l
274.877 130.038 l
277.144 135.974 l
279.411 138.339 l
281.678 123.623 l
283.944 128.592 l
286.211 139.215 l
288.478 128.295 l
290.745 123.959 l
293.012 128.069 l
295.279 129.491 l
297.546 132.277 l
299.812 122.993 l
302.079 116.034 l
304.346 135.911 l
306.613 125.576 l
308.88 118.081 l
311.147 119.823 l
313.414 122.231 l
315.681 134.465 l
317.947 111.195 l
320.214 113.3 l
322.481 124.951 l
324.748 123.979 l
327.015 124.578 l
329.282 100.785 l
331.549 116.24 l
333.816 127.139 l
336.083 121.786 l
338.349 117.925 l
340.616 93.8962 l
342.883 106.038 l
345.15 123.757 l
347.417 122.107 l
349.684 126.937 l
351.951 107.464 l
354.218 84.0132 l
358.751 96.6207 l
361.018 104.654 l
363.285 135.243 l
365.552 163.592 l
367.819 175.39 l
370.086 193.393 l
372.353 220.278 l
374.619 234.823 l
376.886 238.306 l
379.153 250.693 l
381.42 272.785 l
383.687 287.307 l
385.954 289.697 l
388.221 293.89 l
390.488 309.19 l
392.754 326.012 l
395.021 333.913 l
397.288 332.9 l
399.555 331.081 l
401.822 336.395 l
404.089 348.048 l
406.356 357.72 l
408.623 358.224 l
410.889 350.306 l
413.156 341.441 l
415.423 338.776 l
417.69 343.119 l
419.957 348.802 l
422.224 348.596 l
424.491 339.147 l
429.024 306.236 l
431.291 294.73 l
433.558 290.635 l
435.825 291.951 l
438.092 294.111 l
440.359 292.467 l
442.626 284.21 l
444.893 269.052 l
447.159 248.771 l
451.693 203.996 l
453.96 184.33 l
456.227 168.263 l
458.494 156.033 l
460.761 147.288 l
463.028 141.377 l
465.294 137.582 l
467.561 135.258 l
469.828 133.897 l
472.095 133.132 l
474.362 132.719 l
478.896 132.396 l
485.696 132.308 l
526.5 132.3 l
526.5 132.3 l
stroke
grestore
0.000 0.000 1.000 setrgbcolor
gsave
453.4 352.8 73.12 44.1 clipbox
73.125 139.125 m
75.3919 125.682 l
77.6587 138.306 l
79.9256 127.281 l
82.1925 136.012 l
84.4594 130.135 l
86.7262 132.781 l
88.9931 133.508 l
91.26 129.545 l
93.5269 136.309 l
95.7938 127.471 l
98.0606 137.428 l
100.328 127.459 l
102.594 136.377 l
104.861 129.463 l
107.128 133.941 l
109.395 132.139 l
111.662 132.207 l
113.929 133.542 l
116.196 133.492 l
118.463 132.962 l
120.729 138.62 l
122.996 132.579 l
125.263 145.958 l
127.53 136.53 l
129.797 152.458 l
132.064 146.416 l
134.331 156.037 l
136.597 157.237 l
138.864 157.268 l
141.131 161.056 l
143.398 158.964 l
145.665 157.893 l
147.932 163.149 l
150.199 158.154 l
152.466 166.928 l
154.733 167.038 l
156.999 165.22 l
159.266 174.682 l
161.533 161.97 l
163.8 173.311 l
166.067 166.316 l
168.334 170.107 l
170.601 171.552 l
172.868 171.545 l
175.134 166.638 l
177.401 172.887 l
179.668 164.168 l
181.935 167.666 l
184.202 171.822 l
186.469 159.145 l
188.736 170.266 l
191.002 159.058 l
193.269 160.397 l
195.536 162.635 l
197.803 158.907 l
200.07 154.453 l
202.337 155.477 l
204.604 154.778 l
206.871 146.755 l
209.138 157.524 l
211.404 142.515 l
213.671 141.316 l
215.938 149.844 l
218.205 136.893 l
220.472 136.283 l
222.739 132.823 l
225.006 133.302 l
227.273 128.97 l
229.539 128.898 l
231.806 130.543 l
234.073 124.394 l
236.34 140.477 l
238.607 135.039 l
240.874 123.712 l
243.141 140.465 l
245.408 137.26 l
247.674 125.312 l
249.941 125.934 l
252.208 138.166 l
254.475 139.233 l
256.742 120.067 l
259.009 133.922 l
261.276 146.454 l
263.543 121.744 l
265.809 124.622 l
268.076 142.465 l
270.343 134.931 l
272.61 126.274 l
274.877 129.669 l
277.144 138.665 l
279.411 133.849 l
281.678 123.819 l
283.944 134.695 l
286.211 138.57 l
288.478 129.266 l
290.745 130.605 l
293.012 129.246 l
295.279 133.94 l
297.546 142.757 l
299.812 119.268 l
302.079 136.148 l
304.346 138.237 l
306.613 123.162 l
311.147 143.106 l
313.414 121.415 l
315.681 130.71 l
317.947 138.321 l
320.214 139.721 l
322.481 119.059 l
324.748 126.648 l
327.015 147.638 l
329.282 135.613 l
331.549 128.314 l
333.816 116.664 l
336.083 127.37 l
338.349 154.081 l
340.616 144.959 l
342.883 131.715 l
345.15 120.199 l
347.417 99.6804 l
349.684 110.546 l
351.951 139.112 l
354.218 153.804 l
356.484 180.402 l
358.751 214.743 l
361.018 225.224 l
363.285 232.52 l
365.552 256.514 l
367.819 270.468 l
370.086 269.071 l
372.353 282.464 l
374.619 310.077 l
376.886 322.508 l
379.153 319.636 l
381.42 326.41 l
383.687 344.52 l
385.954 352.18 l
388.221 343.305 l
390.488 335.541 l
392.754 339.225 l
395.021 345.412 l
397.288 349.719 l
399.555 347.553 l
401.822 337.796 l
406.356 308.572 l
408.623 298.149 l
410.889 293.64 l
413.156 293.794 l
415.423 295.343 l
417.69 294.596 l
419.957 288.863 l
422.224 277.191 l
424.491 260.331 l
426.758 240.173 l
431.291 198.866 l
433.558 181.202 l
435.825 166.739 l
438.092 155.592 l
440.359 147.454 l
442.626 141.8 l
444.893 138.046 l
447.159 135.658 l
449.426 134.199 l
451.693 133.34 l
453.96 132.852 l
456.227 132.584 l
460.761 132.369 l
469.828 132.303 l
526.5 132.3 l
526.5 132.3 l
stroke
grestore
0.500 setlinewidth
0 setlinecap
0.000 setgray
gsave
/o {
gsave
newpath
translate
0.5 setlinewidth
1 setlinejoin
0 setlinecap
0 0 m
0 4 l
gsave
0.000 setgray
fill
grestore
stroke
grestore
} bind def
73.125 44.1 o
grestore
gsave
/o {
gsave
newpath
translate
0.5 setlinewidth
1 setlinejoin
0 setlinecap
0 0 m
0 -4 l
gsave
0.000 setgray
fill
grestore
stroke
grestore
} bind def
73.125 396.9 o
grestore
/DejaVuSans findfont
12.000 scalefont
setfont
gsave
70.101562 31.021875 translate
0.000000 rotate
0.000000 0.171875 m /zero glyphshow
grestore
gsave
/o {
gsave
newpath
translate
0.5 setlinewidth
1 setlinejoin
0 setlinecap
0 0 m
0 4 l
gsave
0.000 setgray
fill
grestore
stroke
grestore
} bind def
163.8 44.1 o
grestore
gsave
/o {
gsave
newpath
translate
0.5 setlinewidth
1 setlinejoin
0 setlinecap
0 0 m
0 -4 l
gsave
0.000 setgray
fill
grestore
stroke
grestore
} bind def
163.8 396.9 o
grestore
gsave
156.995313 31.021875 translate
0.000000 rotate
0.000000 0.171875 m /two glyphshow
7.634766 0.171875 m /zero glyphshow
grestore
gsave
/o {
gsave
newpath
translate
0.5 setlinewidth
1 setlinejoin
0 setlinecap
0 0 m
0 4 l
gsave
0.000 setgray
fill
grestore
stroke
grestore
} bind def
254.475 44.1 o
grestore
gsave
/o {
gsave
newpath
translate
0.5 setlinewidth
1 setlinejoin
0 setlinecap
0 0 m
0 -4 l
gsave
0.000 setgray
fill
grestore
stroke
grestore
} bind def
254.475 396.9 o
grestore
gsave
247.529688 31.021875 translate
0.000000 rotate
0.000000 0.171875 m /four glyphshow
7.634766 0.171875 m /zero glyphshow
grestore
gsave
/o {
gsave
newpath
translate
0.5 setlinewidth
1 setlinejoin
0 setlinecap
0 0 m
0 4 l
gsave
0.000 setgray
fill
grestore
stroke
grestore
} bind def
345.15 44.1 o
grestore
gsave
/o {
gsave
newpath
translate
0.5 setlinewidth
1 setlinejoin
0 setlinecap
0 0 m
0 -4 l
gsave
0.000 setgray
fill
grestore
stroke
grestore
} bind def
345.15 396.9 o
grestore
gsave
338.329688 31.021875 translate
0.000000 rotate
0.000000 0.171875 m /six glyphshow
7.634766 0.171875 m /zero glyphshow
grestore
gsave
/o {
gsave
newpath
translate
0.5 setlinewidth
1 setlinejoin
0 setlinecap
0 0 m
0 4 l
gsave
0.000 setgray
fill
grestore
stroke
grestore
} bind def
435.825 44.1 o
grestore
gsave
/o {
gsave
newpath
translate
0.5 setlinewidth
1 setlinejoin
0 setlinecap
0 0 m
0 -4 l
gsave
0.000 setgray
fill
grestore
stroke
grestore
} bind def
435.825 396.9 o
grestore
gsave
428.989063 31.021875 translate
0.000000 rotate
0.000000 0.171875 m /eight glyphshow
7.634766 0.171875 m /zero glyphshow
grestore
gsave
/o {
gsave
newpath
translate
0.5 setlinewidth
1 setlinejoin
0 setlinecap
0 0 m
0 4 l
gsave
0.000 setgray
fill
grestore
stroke
grestore
} bind def
526.5 44.1 o
grestore
gsave
/o {
gsave
newpath
translate
0.5 setlinewidth
1 setlinejoin
0 setlinecap
0 0 m
0 -4 l
gsave
0.000 setgray
fill
grestore
stroke
grestore
} bind def
526.5 396.9 o
grestore
gsave
516.093750 31.021875 translate
0.000000 rotate
0.000000 0.171875 m /one glyphshow
7.634766 0.171875 m /zero glyphshow
15.269531 0.171875 m /zero glyphshow
grestore
gsave
296.632812 19.459375 translate
0.000000 rotate
0.000000 0.000000 m /x glyphshow
grestore
gsave
/o {
gsave
newpath
translate
0.5 setlinewidth
1 setlinejoin
0 setlinecap
0 0 m
4 0 l
gsave
0.000 setgray
fill
grestore
stroke
grestore
} bind def
73.125 44.1 o
grestore
gsave
/o {
gsave
newpath
translate
0.5 setlinewidth
1 setlinejoin
0 setlinecap
0 0 m
-4 0 l
gsave
0.000 setgray
fill
grestore
stroke
grestore
} bind def
526.5 44.1 o
grestore
gsave
42.437500 39.560937 translate
0.000000 rotate
0.000000 0.171875 m /minus glyphshow
10.054688 0.171875 m /zero glyphshow
17.689453 0.171875 m /period glyphshow
21.503906 0.171875 m /two glyphshow
grestore
gsave
/o {
gsave
newpath
translate
0.5 setlinewidth
1 setlinejoin
0 setlinecap
0 0 m
4 0 l
gsave
0.000 setgray
fill
grestore
stroke
grestore
} bind def
73.125 88.2 o
grestore
gsave
/o {
gsave
newpath
translate
0.5 setlinewidth
1 setlinejoin
0 setlinecap
0 0 m
-4 0 l
gsave
0.000 setgray
fill
grestore
stroke
grestore
} bind def
526.5 88.2 o
grestore
gsave
42.343750 83.660937 translate
0.000000 rotate
0.000000 0.171875 m /minus glyphshow
10.054688 0.171875 m /zero glyphshow
17.689453 0.171875 m /period glyphshow
21.503906 0.171875 m /one glyphshow
grestore
gsave
/o {
gsave
newpath
translate
0.5 setlinewidth
1 setlinejoin
0 setlinecap
0 0 m
4 0 l
gsave
0.000 setgray
fill
grestore
stroke
grestore
} bind def
73.125 132.3 o
grestore
gsave
/o {
gsave
newpath
translate
0.5 setlinewidth
1 setlinejoin
0 setlinecap
0 0 m
-4 0 l
gsave
0.000 setgray
fill
grestore
stroke
grestore
} bind def
526.5 132.3 o
grestore
gsave
51.625000 127.760938 translate
0.000000 rotate
0.000000 0.171875 m /zero glyphshow
7.634766 0.171875 m /period glyphshow
11.449219 0.171875 m /zero glyphshow
grestore
gsave
/o {
gsave
newpath
translate
0.5 setlinewidth
1 setlinejoin
0 setlinecap
0 0 m
4 0 l
gsave
0.000 setgray
fill
grestore
stroke
grestore
} bind def
73.125 176.4 o
grestore
gsave
/o {
gsave
newpath
translate
0.5 setlinewidth
1 setlinejoin
0 setlinecap
0 0 m
-4 0 l
gsave
0.000 setgray
fill
grestore
stroke
grestore
} bind def
526.5 176.4 o
grestore
gsave
51.937500 171.860938 translate
0.000000 rotate
0.000000 0.171875 m /zero glyphshow
7.634766 0.171875 m /period glyphshow
11.449219 0.171875 m /one glyphshow
grestore
gsave
/o {
gsave
newpath
translate
0.5 setlinewidth
1 setlinejoin
0 setlinecap
0 0 m
4 0 l
gsave
0.000 setgray
fill
grestore
stroke
grestore
} bind def
73.125 220.5 o
grestore
gsave
/o {
gsave
newpath
translate
0.5 setlinewidth
1 setlinejoin
0 setlinecap
0 0 m
-4 0 l
gsave
0.000 setgray
fill
grestore
stroke
grestore
} bind def
526.5 220.5 o
grestore
gsave
52.031250 215.960938 translate
0.000000 rotate
0.000000 0.171875 m /zero glyphshow
7.634766 0.171875 m /period glyphshow
11.449219 0.171875 m /two glyphshow
grestore
gsave
/o {
gsave
newpath
translate
0.5 setlinewidth
1 setlinejoin
0 setlinecap
0 0 m
4 0 l
gsave
0.000 setgray
fill
grestore
stroke
grestore
} bind def
73.125 264.6 o
grestore
gsave
/o {
gsave
newpath
translate
0.5 setlinewidth
1 setlinejoin
0 setlinecap
0 0 m
-4 0 l
gsave
0.000 setgray
fill
grestore
stroke
grestore
} bind def
526.5 264.6 o
grestore
gsave
51.796875 260.060938 translate
0.000000 rotate
0.000000 0.171875 m /zero glyphshow
7.634766 0.171875 m /period glyphshow
11.449219 0.171875 m /three glyphshow
grestore
gsave
/o {
gsave
newpath
translate
0.5 setlinewidth
1 setlinejoin
0 setlinecap
0 0 m
4 0 l
gsave
0.000 setgray
fill
grestore
stroke
grestore
} bind def
73.125 308.7 o
grestore
gsave
/o {
gsave
newpath
translate
0.5 setlinewidth
1 setlinejoin
0 setlinecap
0 0 m
-4 0 l
gsave
0.000 setgray
fill
grestore
stroke
grestore
} bind def
526.5 308.7 o
grestore
gsave
51.500000 304.160938 translate
0.000000 rotate
0.000000 0.171875 m /zero glyphshow
7.634766 0.171875 m /period glyphshow
11.449219 0.171875 m /four glyphshow
grestore
gsave
/o {
gsave
newpath
translate
0.5 setlinewidth
1 setlinejoin
0 setlinecap
0 0 m
4 0 l
gsave
0.000 setgray
fill
grestore
stroke
grestore
} bind def
73.125 352.8 o
grestore
gsave
/o {
gsave
newpath
translate
0.5 setlinewidth
1 setlinejoin
0 setlinecap
0 0 m
-4 0 l
gsave
0.000 setgray
fill
grestore
stroke
grestore
} bind def
526.5 352.8 o
grestore
gsave
51.875000 348.260938 translate
0.000000 rotate
0.000000 0.171875 m /zero glyphshow
7.634766 0.171875 m /period glyphshow
11.449219 0.171875 m /five glyphshow
grestore
gsave
/o {
gsave
newpath
translate
0.5 setlinewidth
1 setlinejoin
0 setlinecap
0 0 m
4 0 l
gsave
0.000 setgray
fill
grestore
stroke
grestore
} bind def
73.125 396.9 o
grestore
gsave
/o {
gsave
newpath
translate
0.5 setlinewidth
1 setlinejoin
0 setlinecap
0 0 m
-4 0 l
gsave
0.000 setgray
fill
grestore
stroke
grestore
} bind def
526.5 396.9 o
grestore
gsave
51.593750 392.360938 translate
0.000000 rotate
0.000000 0.171875 m /zero glyphshow
7.634766 0.171875 m /period glyphshow
11.449219 0.171875 m /six glyphshow
grestore
gsave
37.343750 217.750000 translate
90.000000 rotate
0.000000 0.171875 m /u glyphshow
grestore
1.000 setlinewidth
2 setlinecap
gsave
73.125 396.9 m
526.5 396.9 l
stroke
grestore
gsave
526.5 44.1 m
526.5 396.9 l
stroke
grestore
gsave
73.125 44.1 m
526.5 44.1 l
stroke
grestore
gsave
73.125 44.1 m
73.125 396.9 l
stroke
grestore
/DejaVuSans findfont
14.400 scalefont
setfont
gsave
282.648438 401.696875 translate
0.000000 rotate
0.000000 0.203125 m /t glyphshow
5.642410 0.203125 m /equal glyphshow
17.700180 0.203125 m /two glyphshow
26.855927 0.203125 m /five glyphshow
grestore
gsave
83.205 325.843 m
193.207 325.843 l
195.127 325.843 196.087 326.803 196.087 328.723 c
196.087 386.82 l
196.087 388.74 195.127 389.7 193.207 389.7 c
83.205 389.7 l
81.285 389.7 80.325 388.74 80.325 386.82 c
80.325 328.723 l
80.325 326.803 81.285 325.843 83.205 325.843 c
cl
gsave
1.000 setgray
fill
grestore
stroke
grestore
1.000 0.000 0.000 setrgbcolor
gsave
90.405 378.339 m
110.565 378.339 l
stroke
grestore
0.000 setgray
gsave
126.405000 373.096250 translate
0.000000 rotate
0.000000 0.203125 m /N glyphshow
10.764862 0.203125 m /o glyphshow
19.569275 0.203125 m /n glyphshow
28.689896 0.203125 m /e glyphshow
grestore
gsave
90.405 357.593 m
110.565 357.593 l
stroke
grestore
gsave
126.405000 352.349375 translate
0.000000 rotate
0.000000 0.203125 m /G glyphshow
11.151321 0.203125 m /a glyphshow
19.969788 0.203125 m /u glyphshow
29.090408 0.203125 m /s glyphshow
36.587860 0.203125 m /s glyphshow
44.085312 0.203125 m /i glyphshow
48.083481 0.203125 m /a glyphshow
56.901947 0.203125 m /n glyphshow
grestore
0.000 0.000 1.000 setrgbcolor
gsave
90.405 336.846 m
110.565 336.846 l
stroke
grestore
0.000 setgray
gsave
126.405000 331.602500 translate
0.000000 rotate
0.000000 0.203125 m /P glyphshow
8.427933 0.203125 m /u glyphshow
17.548553 0.203125 m /l glyphshow
21.546722 0.203125 m /s glyphshow
29.044174 0.203125 m /e glyphshow
grestore

end
showpage
