%!PS-Adobe-3.0 EPSF-3.0
%%Title: u_surf.eps
%%Creator: matplotlib version 1.1.1rc, http://matplotlib.sourceforge.net/
%%CreationDate: Thu Dec  6 21:09:53 2012
%%Orientation: portrait
%%BoundingBox: 13 175 598 616
%%EndComments
%%BeginProlog
/mpldict 8 dict def
mpldict begin
/m { moveto } bind def
/l { lineto } bind def
/r { rlineto } bind def
/c { curveto } bind def
/cl { closepath } bind def
/box {
m
1 index 0 r
0 exch r
neg 0 r
cl
} bind def
/clipbox {
box
clip
newpath
} bind def
%!PS-Adobe-3.0 Resource-Font
%%Title: DejaVu Sans
%%Copyright: Copyright (c) 2003 by Bitstream, Inc. All Rights Reserved. Copyright (c) 2006 by Tavmjong Bah. All Rights Reserved. DejaVu changes are in public domain 
%%Creator: Converted from TrueType to type 3 by PPR
25 dict begin
/_d{bind def}bind def
/_m{moveto}_d
/_l{lineto}_d
/_cl{closepath eofill}_d
/_c{curveto}_d
/_sc{7 -1 roll{setcachedevice}{pop pop pop pop pop pop}ifelse}_d
/_e{exec}_d
/FontName /DejaVuSans def
/PaintType 0 def
/FontMatrix[.001 0 0 .001 0 0]def
/FontBBox[-1021 -415 1681 1167]def
/FontType 3 def
/Encoding [ /space /period /zero /one /two /three /four /six /eight /f /l /o /p /r /s /t /u /minus ] def
/FontInfo 10 dict dup begin
/FamilyName (DejaVu Sans) def
/FullName (DejaVu Sans) def
/Notice (Copyright (c) 2003 by Bitstream, Inc. All Rights Reserved. Copyright (c) 2006 by Tavmjong Bah. All Rights Reserved. DejaVu changes are in public domain ) def
/Weight (Book) def
/Version (Version 2.33) def
/ItalicAngle 0.0 def
/isFixedPitch false def
/UnderlinePosition -130 def
/UnderlineThickness 90 def
end readonly def
/CharStrings 18 dict dup begin
/space{318 0 0 0 0 0 _sc
}_d
/period{318 0 107 0 210 124 _sc
107 124 _m
210 124 _l
210 0 _l
107 0 _l
107 124 _l
_cl}_d
/zero{636 0 66 -13 570 742 _sc
318 664 _m
267 664 229 639 203 589 _c
177 539 165 464 165 364 _c
165 264 177 189 203 139 _c
229 89 267 64 318 64 _c
369 64 407 89 433 139 _c
458 189 471 264 471 364 _c
471 464 458 539 433 589 _c
407 639 369 664 318 664 _c
318 742 _m
399 742 461 709 505 645 _c
548 580 570 486 570 364 _c
570 241 548 147 505 83 _c
461 19 399 -13 318 -13 _c
236 -13 173 19 130 83 _c
87 147 66 241 66 364 _c
66 486 87 580 130 645 _c
173 709 236 742 318 742 _c
_cl}_d
/one{636 0 110 0 544 729 _sc
124 83 _m
285 83 _l
285 639 _l
110 604 _l
110 694 _l
284 729 _l
383 729 _l
383 83 _l
544 83 _l
544 0 _l
124 0 _l
124 83 _l
_cl}_d
/two{{636 0 73 0 536 742 _sc
192 83 _m
536 83 _l
536 0 _l
73 0 _l
73 83 _l
110 121 161 173 226 239 _c
290 304 331 346 348 365 _c
380 400 402 430 414 455 _c
426 479 433 504 433 528 _c
433 566 419 598 392 622 _c
365 646 330 659 286 659 _c
255 659 222 653 188 643 _c
154 632 117 616 78 594 _c
78 694 _l
118 710 155 722 189 730 _c
223 738 255 742 284 742 _c
359 742 419 723 464 685 _c
509 647 532 597 532 534 _c
532 504 526 475 515 449 _c
504 422 484 390 454 354 _c
446 344 420 317 376 272 _c
332 227 271 164 192 83 _c
_cl}_e}_d
/three{{636 0 76 -13 556 742 _sc
406 393 _m
453 383 490 362 516 330 _c
542 298 556 258 556 212 _c
556 140 531 84 482 45 _c
432 6 362 -13 271 -13 _c
240 -13 208 -10 176 -4 _c
144 1 110 10 76 22 _c
76 117 _l
103 101 133 89 166 81 _c
198 73 232 69 268 69 _c
330 69 377 81 409 105 _c
441 129 458 165 458 212 _c
458 254 443 288 413 312 _c
383 336 341 349 287 349 _c
202 349 _l
202 430 _l
291 430 _l
339 430 376 439 402 459 _c
428 478 441 506 441 543 _c
441 580 427 609 401 629 _c
374 649 336 659 287 659 _c
260 659 231 656 200 650 _c
169 644 135 635 98 623 _c
98 711 _l
135 721 170 729 203 734 _c
235 739 266 742 296 742 _c
}_e{370 742 429 725 473 691 _c
517 657 539 611 539 553 _c
539 513 527 479 504 451 _c
481 423 448 403 406 393 _c
_cl}_e}_d
/four{636 0 49 0 580 729 _sc
378 643 _m
129 254 _l
378 254 _l
378 643 _l
352 729 _m
476 729 _l
476 254 _l
580 254 _l
580 172 _l
476 172 _l
476 0 _l
378 0 _l
378 172 _l
49 172 _l
49 267 _l
352 729 _l
_cl}_d
/six{{636 0 70 -13 573 742 _sc
330 404 _m
286 404 251 388 225 358 _c
199 328 186 286 186 234 _c
186 181 199 139 225 109 _c
251 79 286 64 330 64 _c
374 64 409 79 435 109 _c
461 139 474 181 474 234 _c
474 286 461 328 435 358 _c
409 388 374 404 330 404 _c
526 713 _m
526 623 _l
501 635 476 644 451 650 _c
425 656 400 659 376 659 _c
310 659 260 637 226 593 _c
192 549 172 482 168 394 _c
187 422 211 444 240 459 _c
269 474 301 482 336 482 _c
409 482 467 459 509 415 _c
551 371 573 310 573 234 _c
573 159 550 99 506 54 _c
462 9 403 -13 330 -13 _c
246 -13 181 19 137 83 _c
92 147 70 241 70 364 _c
70 479 97 571 152 639 _c
206 707 280 742 372 742 _c
}_e{396 742 421 739 447 735 _c
472 730 498 723 526 713 _c
_cl}_e}_d
/eight{{636 0 68 -13 568 742 _sc
318 346 _m
271 346 234 333 207 308 _c
180 283 167 249 167 205 _c
167 161 180 126 207 101 _c
234 76 271 64 318 64 _c
364 64 401 76 428 102 _c
455 127 469 161 469 205 _c
469 249 455 283 429 308 _c
402 333 365 346 318 346 _c
219 388 _m
177 398 144 418 120 447 _c
96 476 85 511 85 553 _c
85 611 105 657 147 691 _c
188 725 245 742 318 742 _c
390 742 447 725 489 691 _c
530 657 551 611 551 553 _c
551 511 539 476 515 447 _c
491 418 459 398 417 388 _c
464 377 501 355 528 323 _c
554 291 568 251 568 205 _c
568 134 546 80 503 43 _c
459 5 398 -13 318 -13 _c
237 -13 175 5 132 43 _c
89 80 68 134 68 205 _c
68 251 81 291 108 323 _c
134 355 171 377 219 388 _c
}_e{183 544 _m
183 506 194 476 218 455 _c
242 434 275 424 318 424 _c
360 424 393 434 417 455 _c
441 476 453 506 453 544 _c
453 582 441 611 417 632 _c
393 653 360 664 318 664 _c
275 664 242 653 218 632 _c
194 611 183 582 183 544 _c
_cl}_e}_d
/f{352 0 23 0 371 760 _sc
371 760 _m
371 685 _l
285 685 _l
253 685 230 678 218 665 _c
205 652 199 629 199 595 _c
199 547 _l
347 547 _l
347 477 _l
199 477 _l
199 0 _l
109 0 _l
109 477 _l
23 477 _l
23 547 _l
109 547 _l
109 585 _l
109 645 123 690 151 718 _c
179 746 224 760 286 760 _c
371 760 _l
_cl}_d
/l{278 0 94 0 184 760 _sc
94 760 _m
184 760 _l
184 0 _l
94 0 _l
94 760 _l
_cl}_d
/o{612 0 55 -13 557 560 _sc
306 484 _m
258 484 220 465 192 427 _c
164 389 150 338 150 273 _c
150 207 163 156 191 118 _c
219 80 257 62 306 62 _c
354 62 392 80 420 118 _c
448 156 462 207 462 273 _c
462 337 448 389 420 427 _c
392 465 354 484 306 484 _c
306 560 _m
384 560 445 534 490 484 _c
534 433 557 363 557 273 _c
557 183 534 113 490 63 _c
445 12 384 -13 306 -13 _c
227 -13 165 12 121 63 _c
77 113 55 183 55 273 _c
55 363 77 433 121 484 _c
165 534 227 560 306 560 _c
_cl}_d
/p{{635 0 91 -207 580 560 _sc
181 82 _m
181 -207 _l
91 -207 _l
91 547 _l
181 547 _l
181 464 _l
199 496 223 520 252 536 _c
281 552 316 560 356 560 _c
422 560 476 533 518 481 _c
559 428 580 359 580 273 _c
580 187 559 117 518 65 _c
476 13 422 -13 356 -13 _c
316 -13 281 -5 252 10 _c
223 25 199 49 181 82 _c
487 273 _m
487 339 473 390 446 428 _c
418 466 381 485 334 485 _c
286 485 249 466 222 428 _c
194 390 181 339 181 273 _c
181 207 194 155 222 117 _c
249 79 286 61 334 61 _c
381 61 418 79 446 117 _c
473 155 487 207 487 273 _c
_cl}_e}_d
/r{411 0 91 0 411 560 _sc
411 463 _m
401 469 390 473 378 476 _c
366 478 353 480 339 480 _c
288 480 249 463 222 430 _c
194 397 181 350 181 288 _c
181 0 _l
91 0 _l
91 547 _l
181 547 _l
181 462 _l
199 495 224 520 254 536 _c
284 552 321 560 365 560 _c
371 560 378 559 386 559 _c
393 558 401 557 411 555 _c
411 463 _l
_cl}_d
/s{{521 0 54 -13 472 560 _sc
443 531 _m
443 446 _l
417 458 391 468 364 475 _c
336 481 308 485 279 485 _c
234 485 200 478 178 464 _c
156 450 145 430 145 403 _c
145 382 153 366 169 354 _c
185 342 217 330 265 320 _c
296 313 _l
360 299 405 279 432 255 _c
458 230 472 195 472 151 _c
472 100 452 60 412 31 _c
372 1 316 -13 246 -13 _c
216 -13 186 -10 154 -5 _c
122 0 89 8 54 20 _c
54 113 _l
87 95 120 82 152 74 _c
184 65 216 61 248 61 _c
290 61 323 68 346 82 _c
368 96 380 117 380 144 _c
380 168 371 187 355 200 _c
339 213 303 226 247 238 _c
216 245 _l
160 257 119 275 95 299 _c
70 323 58 356 58 399 _c
58 450 76 490 112 518 _c
148 546 200 560 268 560 _c
}_e{301 560 332 557 362 552 _c
391 547 418 540 443 531 _c
_cl}_e}_d
/t{392 0 27 0 368 702 _sc
183 702 _m
183 547 _l
368 547 _l
368 477 _l
183 477 _l
183 180 _l
183 135 189 106 201 94 _c
213 81 238 75 276 75 _c
368 75 _l
368 0 _l
276 0 _l
206 0 158 13 132 39 _c
106 65 93 112 93 180 _c
93 477 _l
27 477 _l
27 547 _l
93 547 _l
93 702 _l
183 702 _l
_cl}_d
/u{634 0 85 -13 543 560 _sc
85 216 _m
85 547 _l
175 547 _l
175 219 _l
175 167 185 129 205 103 _c
225 77 255 64 296 64 _c
344 64 383 79 411 110 _c
439 141 453 183 453 237 _c
453 547 _l
543 547 _l
543 0 _l
453 0 _l
453 84 _l
431 50 405 26 377 10 _c
348 -5 315 -13 277 -13 _c
214 -13 166 6 134 45 _c
101 83 85 140 85 216 _c
_cl}_d
/minus{838 0 106 272 732 355 _sc
106 355 _m
732 355 _l
732 272 _l
106 272 _l
106 355 _l
_cl}_d
end readonly def

/BuildGlyph
 {exch begin
 CharStrings exch
 2 copy known not{pop /.notdef}if
 true 3 1 roll get exec
 end}_d

/BuildChar {
 1 index /Encoding get exch get
 1 index /BuildGlyph get exec
}_d

FontName currentdict end definefont pop
end
%%EndProlog
mpldict begin
13.5 175.5 translate
585 441 0 0 clipbox
gsave
0 0 m
585 0 l
585 441 l
0 441 l
cl
1.000 setgray
fill
grestore
gsave
73.125 44.1 m
435.825 44.1 l
435.825 396.9 l
73.125 396.9 l
cl
1.000 setgray
fill
grestore
1.000 setlinewidth
1 setlinejoin
2 setlinecap
[] 0 setdash
0.950 setgray
gsave
121.206 122.056 m
225.013 208.555 l
223.285 373.839 l
113.69 296.122 l
gsave
fill
grestore
stroke
grestore
0.900 setgray
gsave
225.013 208.555 m
393.17 160.197 l
400.206 330.465 l
223.285 373.839 l
gsave
fill
grestore
stroke
grestore
0.925 setgray
gsave
121.206 122.056 m
298.13 65.7353 l
393.17 160.197 l
225.013 208.555 l
gsave
fill
grestore
stroke
grestore
0.750 setlinewidth
0.000 setgray
gsave
121.206 122.056 m
298.13 65.7353 l
stroke
grestore
/p0_0 {
newpath
translate
124.59 120.979 m
228.239 207.627 l
226.672 373.009 l
} bind def
/p0_1 {
newpath
translate
157.381 110.541 m
259.487 198.641 l
259.493 364.963 l
} bind def
/p0_2 {
newpath
translate
190.745 99.9197 m
291.241 189.509 l
292.872 356.779 l
} bind def
/p0_3 {
newpath
translate
224.698 89.1115 m
323.513 180.229 l
326.825 348.455 l
} bind def
/p0_4 {
newpath
translate
259.254 78.1111 m
356.317 170.795 l
361.365 339.987 l
} bind def
/p0_5 {
newpath
translate
294.43 66.9133 m
389.665 161.205 l
396.509 331.371 l
} bind def
1.000 setlinewidth
0 setlinecap
0.900 setgray
gsave
0 0 p0_0
stroke
grestore
gsave
0 0 p0_1
stroke
grestore
gsave
0 0 p0_2
stroke
grestore
gsave
0 0 p0_3
stroke
grestore
gsave
0 0 p0_4
stroke
grestore
gsave
0 0 p0_5
stroke
grestore
2 setlinecap
0.000 setgray
gsave
125.483 121.726 m
122.801 119.484 l
stroke
grestore
/DejaVuSans findfont
12.000 scalefont
setfont
gsave
109.967202 97.402156 translate
0.000000 rotate
0.000000 0.171875 m /zero glyphshow
7.634766 0.171875 m /period glyphshow
11.449219 0.171875 m /zero glyphshow
grestore
gsave
158.261 111.3 m
155.618 109.019 l
stroke
grestore
gsave
142.958556 86.822542 translate
0.000000 rotate
0.000000 0.171875 m /zero glyphshow
7.634766 0.171875 m /period glyphshow
11.449219 0.171875 m /two glyphshow
grestore
gsave
191.612 100.692 m
189.009 98.3713 l
stroke
grestore
gsave
176.054891 76.057805 translate
0.000000 rotate
0.000000 0.171875 m /zero glyphshow
7.634766 0.171875 m /period glyphshow
11.449219 0.171875 m /four glyphshow
grestore
gsave
225.551 89.8979 m
222.989 87.5357 l
stroke
grestore
gsave
210.052650 65.103043 translate
0.000000 rotate
0.000000 0.171875 m /zero glyphshow
7.634766 0.171875 m /period glyphshow
11.449219 0.171875 m /six glyphshow
grestore
gsave
260.092 78.9115 m
257.574 76.5071 l
stroke
grestore
gsave
244.639440 53.953180 translate
0.000000 rotate
0.000000 0.171875 m /zero glyphshow
7.634766 0.171875 m /period glyphshow
11.449219 0.171875 m /eight glyphshow
grestore
gsave
295.253 67.7281 m
292.781 65.2804 l
stroke
grestore
gsave
280.058122 42.602956 translate
0.000000 rotate
0.000000 0.171875 m /one glyphshow
7.634766 0.171875 m /period glyphshow
11.449219 0.171875 m /zero glyphshow
grestore
0.750 setlinewidth
gsave
393.17 160.197 m
298.13 65.7353 l
stroke
grestore
/p1_0 {
newpath
translate
116.057 297.801 m
123.44 123.917 l
300.182 67.7742 l
} bind def
/p1_1 {
newpath
translate
138.393 313.64 m
144.534 141.494 l
319.543 87.0178 l
} bind def
/p1_2 {
newpath
translate
160.051 328.998 m
165.02 158.565 l
338.321 105.682 l
} bind def
/p1_3 {
newpath
translate
181.062 343.898 m
184.924 175.15 l
356.542 123.792 l
} bind def
/p1_4 {
newpath
translate
201.454 358.359 m
204.271 191.271 l
374.231 141.372 l
} bind def
/p1_5 {
newpath
translate
221.255 372.4 m
223.083 206.947 l
391.409 158.446 l
} bind def
1.000 setlinewidth
0 setlinecap
0.900 setgray
gsave
0 0 p1_0
stroke
grestore
gsave
0 0 p1_1
stroke
grestore
gsave
0 0 p1_2
stroke
grestore
gsave
0 0 p1_3
stroke
grestore
gsave
0 0 p1_4
stroke
grestore
gsave
0 0 p1_5
stroke
grestore
2 setlinecap
0.000 setgray
gsave
298.702 68.2442 m
303.144 66.8333 l
stroke
grestore
gsave
301.664175 45.912845 translate
0.000000 rotate
0.000000 0.171875 m /zero glyphshow
7.634766 0.171875 m /period glyphshow
11.449219 0.171875 m /zero glyphshow
grestore
gsave
318.079 87.4735 m
322.474 86.1054 l
stroke
grestore
gsave
321.064598 65.344150 translate
0.000000 rotate
0.000000 0.171875 m /zero glyphshow
7.634766 0.171875 m /period glyphshow
11.449219 0.171875 m /two glyphshow
grestore
gsave
336.873 106.124 m
341.222 104.797 l
stroke
grestore
gsave
339.418259 84.190397 translate
0.000000 rotate
0.000000 0.171875 m /zero glyphshow
7.634766 0.171875 m /period glyphshow
11.449219 0.171875 m /four glyphshow
grestore
gsave
355.109 124.221 m
359.413 122.933 l
stroke
grestore
gsave
357.532127 102.477618 translate
0.000000 rotate
0.000000 0.171875 m /zero glyphshow
7.634766 0.171875 m /period glyphshow
11.449219 0.171875 m /six glyphshow
grestore
gsave
372.812 141.789 m
377.072 140.538 l
stroke
grestore
gsave
375.102290 120.230324 translate
0.000000 rotate
0.000000 0.171875 m /zero glyphshow
7.634766 0.171875 m /period glyphshow
11.449219 0.171875 m /eight glyphshow
grestore
gsave
390.005 158.851 m
394.221 157.636 l
stroke
grestore
gsave
392.378131 137.471610 translate
0.000000 rotate
0.000000 0.171875 m /one glyphshow
7.634766 0.171875 m /period glyphshow
11.449219 0.171875 m /zero glyphshow
grestore
0.750 setlinewidth
gsave
393.17 160.197 m
400.206 330.465 l
stroke
grestore
/p2_0 {
newpath
translate
393.955 179.181 m
224.82 227.02 l
120.37 141.435 l
} bind def
/p2_1 {
newpath
translate
394.824 200.229 m
224.606 247.48 l
119.442 162.927 l
} bind def
/p2_2 {
newpath
translate
395.705 221.55 m
224.39 268.195 l
118.501 184.709 l
} bind def
/p2_3 {
newpath
translate
396.598 243.15 m
224.17 289.17 l
117.548 206.785 l
} bind def
/p2_4 {
newpath
translate
397.502 265.035 m
223.948 310.41 l
116.582 229.162 l
} bind def
/p2_5 {
newpath
translate
398.418 287.21 m
223.723 331.919 l
115.602 251.846 l
} bind def
/p2_6 {
newpath
translate
399.347 309.682 m
223.495 353.703 l
114.609 274.843 l
} bind def
1.000 setlinewidth
0 setlinecap
0.900 setgray
gsave
0 0 p2_0
stroke
grestore
gsave
0 0 p2_1
stroke
grestore
gsave
0 0 p2_2
stroke
grestore
gsave
0 0 p2_3
stroke
grestore
gsave
0 0 p2_4
stroke
grestore
gsave
0 0 p2_5
stroke
grestore
gsave
0 0 p2_6
stroke
grestore
2 setlinecap
0.000 setgray
gsave
392.543 179.58 m
396.78 178.382 l
stroke
grestore
gsave
395.299881 172.145961 translate
0.000000 rotate
0.000000 0.171875 m /minus glyphshow
10.054688 0.171875 m /zero glyphshow
17.689453 0.171875 m /period glyphshow
21.503906 0.171875 m /three glyphshow
grestore
gsave
393.403 200.623 m
397.669 199.439 l
stroke
grestore
gsave
396.380692 193.168723 translate
0.000000 rotate
0.000000 0.171875 m /minus glyphshow
10.054688 0.171875 m /zero glyphshow
17.689453 0.171875 m /period glyphshow
21.503906 0.171875 m /two glyphshow
grestore
gsave
394.275 221.939 m
398.569 220.77 l
stroke
grestore
gsave
397.309954 214.464466 translate
0.000000 rotate
0.000000 0.171875 m /minus glyphshow
10.054688 0.171875 m /zero glyphshow
17.689453 0.171875 m /period glyphshow
21.503906 0.171875 m /one glyphshow
grestore
gsave
395.158 243.534 m
399.481 242.38 l
stroke
grestore
gsave
402.939474 236.038542 translate
0.000000 rotate
0.000000 0.171875 m /zero glyphshow
7.634766 0.171875 m /period glyphshow
11.449219 0.171875 m /zero glyphshow
grestore
gsave
396.052 265.414 m
400.405 264.276 l
stroke
grestore
gsave
404.097628 257.896443 translate
0.000000 rotate
0.000000 0.171875 m /zero glyphshow
7.634766 0.171875 m /period glyphshow
11.449219 0.171875 m /one glyphshow
grestore
gsave
396.958 287.584 m
401.341 286.462 l
stroke
grestore
gsave
405.159676 280.043807 translate
0.000000 rotate
0.000000 0.171875 m /zero glyphshow
7.634766 0.171875 m /period glyphshow
11.449219 0.171875 m /two glyphshow
grestore
gsave
397.877 310.05 m
402.29 308.945 l
stroke
grestore
gsave
406.071194 302.486424 translate
0.000000 rotate
0.000000 0.171875 m /zero glyphshow
7.634766 0.171875 m /period glyphshow
11.449219 0.171875 m /three glyphshow
grestore
/p3_0 {
newpath
translate
316.928 150.526 m
361.552 180.006 l
368.094 173.935 l
323.69 142.51 l
316.928 150.526 l
cl
} bind def
/p3_1 {
newpath
translate
310.166 158.717 m
355.046 187.152 l
361.552 180.006 l
316.928 150.526 l
310.166 158.717 l
cl
} bind def
/p3_2 {
newpath
translate
323.69 142.51 m
368.094 173.935 l
374.682 168.999 l
330.454 134.644 l
323.69 142.51 l
cl
} bind def
/p3_3 {
newpath
translate
303.405 167.093 m
348.569 195.297 l
355.046 187.152 l
310.166 158.717 l
303.405 167.093 l
cl
} bind def
/p3_4 {
newpath
translate
330.454 134.644 m
374.682 168.999 l
381.324 165.244 l
337.22 126.894 l
330.454 134.644 l
cl
} bind def
/p3_5 {
newpath
translate
296.642 175.655 m
342.11 204.349 l
348.569 195.297 l
303.405 167.093 l
296.642 175.655 l
cl
} bind def
/p3_6 {
newpath
translate
337.22 126.894 m
381.324 165.244 l
388.028 162.697 l
343.987 119.208 l
337.22 126.894 l
cl
} bind def
/p3_7 {
newpath
translate
289.877 184.394 m
335.664 214.204 l
342.11 204.349 l
296.642 175.655 l
289.877 184.394 l
cl
} bind def
/p3_8 {
newpath
translate
283.108 193.291 m
329.221 224.744 l
335.664 214.204 l
289.877 184.394 l
283.108 193.291 l
cl
} bind def
/p3_9 {
newpath
translate
276.335 202.322 m
322.776 235.838 l
329.221 224.744 l
283.108 193.291 l
276.335 202.322 l
cl
} bind def
/p3_a {
newpath
translate
269.556 211.454 m
316.323 247.348 l
322.776 235.838 l
276.335 202.322 l
269.556 211.454 l
cl
} bind def
/p3_b {
newpath
translate
262.771 220.654 m
309.857 259.124 l
316.323 247.348 l
269.556 211.454 l
262.771 220.654 l
cl
} bind def
/p3_c {
newpath
translate
255.98 229.883 m
303.375 271.011 l
309.857 259.124 l
262.771 220.654 l
255.98 229.883 l
cl
} bind def
/p3_d {
newpath
translate
249.182 239.101 m
296.875 282.851 l
303.375 271.011 l
255.98 229.883 l
249.182 239.101 l
cl
} bind def
/p3_e {
newpath
translate
242.377 248.268 m
290.355 294.481 l
296.875 282.851 l
249.182 239.101 l
242.377 248.268 l
cl
} bind def
/p3_f {
newpath
translate
235.568 257.347 m
283.815 305.741 l
290.355 294.481 l
242.377 248.268 l
235.568 257.347 l
cl
} bind def
/p3_10 {
newpath
translate
228.753 266.306 m
277.258 316.475 l
283.815 305.741 l
235.568 257.347 l
228.753 266.306 l
cl
} bind def
/p3_11 {
newpath
translate
174.197 332.04 m
224.681 368.093 l
231.206 365.828 l
181.014 324.297 l
174.197 332.04 l
cl
} bind def
/p3_12 {
newpath
translate
221.935 275.114 m
270.685 326.533 l
277.258 316.475 l
228.753 266.306 l
221.935 275.114 l
cl
} bind def
/p3_13 {
newpath
translate
181.014 324.297 m
231.206 365.828 l
237.759 362.251 l
187.831 316.487 l
181.014 324.297 l
cl
} bind def
/p3_14 {
newpath
translate
215.114 283.751 m
264.101 335.773 l
270.685 326.533 l
221.935 275.114 l
215.114 283.751 l
cl
} bind def
/p3_15 {
newpath
translate
208.293 292.203 m
257.51 344.069 l
264.101 335.773 l
215.114 283.751 l
208.293 292.203 l
cl
} bind def
/p3_16 {
newpath
translate
187.831 316.487 m
237.759 362.251 l
244.333 357.393 l
194.65 308.556 l
187.831 316.487 l
cl
} bind def
/p3_17 {
newpath
translate
201.471 300.469 m
250.918 351.307 l
257.51 344.069 l
208.293 292.203 l
201.471 300.469 l
cl
} bind def
/p3_18 {
newpath
translate
194.65 308.556 m
244.333 357.393 l
250.918 351.307 l
201.471 300.469 l
194.65 308.556 l
cl
} bind def
/p3_19 {
newpath
translate
261.359 99.0506 m
310.166 158.717 l
316.928 150.526 l
268.363 91.3472 l
261.359 99.0506 l
cl
} bind def
/p3_1a {
newpath
translate
268.363 91.3472 m
316.928 150.526 l
323.69 142.51 l
275.373 84.7699 l
268.363 91.3472 l
cl
} bind def
/p3_1b {
newpath
translate
254.354 107.801 m
303.405 167.093 l
310.166 158.717 l
261.359 99.0506 l
254.354 107.801 l
cl
} bind def
/p3_1c {
newpath
translate
275.373 84.7699 m
323.69 142.51 l
330.454 134.644 l
282.398 79.3817 l
275.373 84.7699 l
cl
} bind def
/p3_1d {
newpath
translate
247.342 117.504 m
296.642 175.655 l
303.405 167.093 l
254.354 107.801 l
247.342 117.504 l
cl
} bind def
/p3_1e {
newpath
translate
282.398 79.3817 m
330.454 134.644 l
337.22 126.894 l
289.446 75.2293 l
282.398 79.3817 l
cl
} bind def
/p3_1f {
newpath
translate
240.317 128.05 m
289.877 184.394 l
296.642 175.655 l
247.342 117.504 l
240.317 128.05 l
cl
} bind def
/p3_20 {
newpath
translate
289.446 75.2293 m
337.22 126.894 l
343.987 119.208 l
296.525 72.3422 l
289.446 75.2293 l
cl
} bind def
/p3_21 {
newpath
translate
233.274 139.316 m
283.108 193.291 l
289.877 184.394 l
240.317 128.05 l
233.274 139.316 l
cl
} bind def
/p3_22 {
newpath
translate
226.211 151.167 m
276.335 202.322 l
283.108 193.291 l
233.274 139.316 l
226.211 151.167 l
cl
} bind def
/p3_23 {
newpath
translate
219.125 163.456 m
269.556 211.454 l
276.335 202.322 l
226.211 151.167 l
219.125 163.456 l
cl
} bind def
/p3_24 {
newpath
translate
212.016 176.029 m
262.771 220.654 l
269.556 211.454 l
219.125 163.456 l
212.016 176.029 l
cl
} bind def
/p3_25 {
newpath
translate
204.885 188.722 m
255.98 229.883 l
262.771 220.654 l
212.016 176.029 l
204.885 188.722 l
cl
} bind def
/p3_26 {
newpath
translate
197.735 201.367 m
249.182 239.101 l
255.98 229.883 l
204.885 188.722 l
197.735 201.367 l
cl
} bind def
/p3_27 {
newpath
translate
190.57 213.795 m
242.377 248.268 l
249.182 239.101 l
197.735 201.367 l
190.57 213.795 l
cl
} bind def
/p3_28 {
newpath
translate
183.395 225.837 m
235.568 257.347 l
242.377 248.268 l
190.57 213.795 l
183.395 225.837 l
cl
} bind def
/p3_29 {
newpath
translate
119.766 293.167 m
174.197 332.04 l
181.014 324.297 l
126.634 290.605 l
119.766 293.167 l
cl
} bind def
/p3_2a {
newpath
translate
176.217 237.327 m
228.753 266.306 l
235.568 257.347 l
183.395 225.837 l
176.217 237.327 l
cl
} bind def
/p3_2b {
newpath
translate
126.634 290.605 m
181.014 324.297 l
187.831 316.487 l
133.576 286.658 l
126.634 290.605 l
cl
} bind def
/p3_2c {
newpath
translate
169.043 248.107 m
221.935 275.114 l
228.753 266.306 l
176.217 237.327 l
169.043 248.107 l
cl
} bind def
/p3_2d {
newpath
translate
133.576 286.658 m
187.831 316.487 l
194.65 308.556 l
140.582 281.358 l
133.576 286.658 l
cl
} bind def
/p3_2e {
newpath
translate
161.883 258.027 m
215.114 283.751 l
221.935 275.114 l
169.043 248.107 l
161.883 258.027 l
cl
} bind def
/p3_2f {
newpath
translate
140.582 281.358 m
194.65 308.556 l
201.471 300.469 l
147.642 274.763 l
140.582 281.358 l
cl
} bind def
/p3_30 {
newpath
translate
154.746 266.953 m
208.293 292.203 l
215.114 283.751 l
161.883 258.027 l
154.746 266.953 l
cl
} bind def
/p3_31 {
newpath
translate
147.642 274.763 m
201.471 300.469 l
208.293 292.203 l
154.746 266.953 l
147.642 274.763 l
cl
} bind def
gsave
362.7 352.8 73.12 44.1 clipbox
0 0 p3_0
0.000 0.000 0.910 setrgbcolor
fill
grestore
gsave
362.7 352.8 73.12 44.1 clipbox
0 0 p3_1
0.000 0.002 1.000 setrgbcolor
fill
grestore
gsave
362.7 352.8 73.12 44.1 clipbox
0 0 p3_2
0.000 0.000 0.767 setrgbcolor
fill
grestore
gsave
362.7 352.8 73.12 44.1 clipbox
0 0 p3_3
0.000 0.159 1.000 setrgbcolor
fill
grestore
gsave
362.7 352.8 73.12 44.1 clipbox
0 0 p3_4
0.000 0.000 0.625 setrgbcolor
fill
grestore
gsave
362.7 352.8 73.12 44.1 clipbox
0 0 p3_5
0.000 0.331 1.000 setrgbcolor
fill
grestore
gsave
362.7 352.8 73.12 44.1 clipbox
0 0 p3_6
0.000 0.000 0.518 setrgbcolor
fill
grestore
gsave
362.7 352.8 73.12 44.1 clipbox
0 0 p3_7
0.000 0.504 1.000 setrgbcolor
fill
grestore
gsave
362.7 352.8 73.12 44.1 clipbox
0 0 p3_8
0.000 0.692 1.000 setrgbcolor
fill
grestore
gsave
362.7 352.8 73.12 44.1 clipbox
0 0 p3_9
0.000 0.896 0.971 setrgbcolor
fill
grestore
gsave
362.7 352.8 73.12 44.1 clipbox
0 0 p3_a
0.161 1.000 0.806 setrgbcolor
fill
grestore
gsave
362.7 352.8 73.12 44.1 clipbox
0 0 p3_b
0.326 1.000 0.642 setrgbcolor
fill
grestore
gsave
362.7 352.8 73.12 44.1 clipbox
0 0 p3_c
0.503 1.000 0.465 setrgbcolor
fill
grestore
gsave
362.7 352.8 73.12 44.1 clipbox
0 0 p3_d
0.667 1.000 0.300 setrgbcolor
fill
grestore
gsave
362.7 352.8 73.12 44.1 clipbox
0 0 p3_e
0.832 1.000 0.136 setrgbcolor
fill
grestore
gsave
362.7 352.8 73.12 44.1 clipbox
0 0 p3_f
0.996 0.930 0.000 setrgbcolor
fill
grestore
gsave
362.7 352.8 73.12 44.1 clipbox
0 0 p3_10
1.000 0.741 0.000 setrgbcolor
fill
grestore
gsave
362.7 352.8 73.12 44.1 clipbox
0 0 p3_11
0.500 0.000 0.000 setrgbcolor
fill
grestore
gsave
362.7 352.8 73.12 44.1 clipbox
0 0 p3_12
1.000 0.567 0.000 setrgbcolor
fill
grestore
gsave
362.7 352.8 73.12 44.1 clipbox
0 0 p3_13
0.607 0.000 0.000 setrgbcolor
fill
grestore
gsave
362.7 352.8 73.12 44.1 clipbox
0 0 p3_14
1.000 0.407 0.000 setrgbcolor
fill
grestore
gsave
362.7 352.8 73.12 44.1 clipbox
0 0 p3_15
1.000 0.248 0.000 setrgbcolor
fill
grestore
gsave
362.7 352.8 73.12 44.1 clipbox
0 0 p3_16
0.732 0.000 0.000 setrgbcolor
fill
grestore
gsave
362.7 352.8 73.12 44.1 clipbox
0 0 p3_17
1.000 0.102 0.000 setrgbcolor
fill
grestore
gsave
362.7 352.8 73.12 44.1 clipbox
0 0 p3_18
0.874 0.000 0.000 setrgbcolor
fill
grestore
gsave
362.7 352.8 73.12 44.1 clipbox
0 0 p3_19
0.000 0.000 0.981 setrgbcolor
fill
grestore
gsave
362.7 352.8 73.12 44.1 clipbox
0 0 p3_1a
0.000 0.000 0.839 setrgbcolor
fill
grestore
gsave
362.7 352.8 73.12 44.1 clipbox
0 0 p3_1b
0.000 0.080 1.000 setrgbcolor
fill
grestore
gsave
362.7 352.8 73.12 44.1 clipbox
0 0 p3_1c
0.000 0.000 0.696 setrgbcolor
fill
grestore
gsave
362.7 352.8 73.12 44.1 clipbox
0 0 p3_1d
0.000 0.253 1.000 setrgbcolor
fill
grestore
gsave
362.7 352.8 73.12 44.1 clipbox
0 0 p3_1e
0.000 0.000 0.589 setrgbcolor
fill
grestore
gsave
362.7 352.8 73.12 44.1 clipbox
0 0 p3_1f
0.000 0.441 1.000 setrgbcolor
fill
grestore
gsave
362.7 352.8 73.12 44.1 clipbox
0 0 p3_20
0.000 0.000 0.500 setrgbcolor
fill
grestore
gsave
362.7 352.8 73.12 44.1 clipbox
0 0 p3_21
0.000 0.645 1.000 setrgbcolor
fill
grestore
gsave
362.7 352.8 73.12 44.1 clipbox
0 0 p3_22
0.000 0.849 1.000 setrgbcolor
fill
grestore
gsave
362.7 352.8 73.12 44.1 clipbox
0 0 p3_23
0.136 1.000 0.832 setrgbcolor
fill
grestore
gsave
362.7 352.8 73.12 44.1 clipbox
0 0 p3_24
0.326 1.000 0.642 setrgbcolor
fill
grestore
gsave
362.7 352.8 73.12 44.1 clipbox
0 0 p3_25
0.503 1.000 0.465 setrgbcolor
fill
grestore
gsave
362.7 352.8 73.12 44.1 clipbox
0 0 p3_26
0.680 1.000 0.288 setrgbcolor
fill
grestore
gsave
362.7 352.8 73.12 44.1 clipbox
0 0 p3_27
0.870 1.000 0.098 setrgbcolor
fill
grestore
gsave
362.7 352.8 73.12 44.1 clipbox
0 0 p3_28
1.000 0.887 0.000 setrgbcolor
fill
grestore
gsave
362.7 352.8 73.12 44.1 clipbox
0 0 p3_29
0.500 0.000 0.000 setrgbcolor
fill
grestore
gsave
362.7 352.8 73.12 44.1 clipbox
0 0 p3_2a
1.000 0.683 0.000 setrgbcolor
fill
grestore
gsave
362.7 352.8 73.12 44.1 clipbox
0 0 p3_2b
0.571 0.000 0.000 setrgbcolor
fill
grestore
gsave
362.7 352.8 73.12 44.1 clipbox
0 0 p3_2c
1.000 0.509 0.000 setrgbcolor
fill
grestore
gsave
362.7 352.8 73.12 44.1 clipbox
0 0 p3_2d
0.678 0.000 0.000 setrgbcolor
fill
grestore
gsave
362.7 352.8 73.12 44.1 clipbox
0 0 p3_2e
1.000 0.335 0.000 setrgbcolor
fill
grestore
gsave
362.7 352.8 73.12 44.1 clipbox
0 0 p3_2f
0.803 0.000 0.000 setrgbcolor
fill
grestore
gsave
362.7 352.8 73.12 44.1 clipbox
0 0 p3_30
1.000 0.190 0.000 setrgbcolor
fill
grestore
gsave
362.7 352.8 73.12 44.1 clipbox
0 0 p3_31
0.963 0.044 0.000 setrgbcolor
fill
grestore
/DejaVuSans findfont
14.400 scalefont
setfont
gsave
209.209375 370.769750 translate
0.000000 rotate
0.000000 2.906250 m /s glyphshow
7.497452 2.906250 m /u glyphshow
16.618073 2.906250 m /r glyphshow
22.534531 2.906250 m /f glyphshow
27.600754 2.906250 m /space glyphshow
32.175110 2.906250 m /p glyphshow
41.309784 2.906250 m /l glyphshow
45.307953 2.906250 m /o glyphshow
54.112366 2.906250 m /t glyphshow
59.754776 2.906250 m /space glyphshow
64.329132 2.906250 m /o glyphshow
73.133545 2.906250 m /f glyphshow
78.199768 2.906250 m /space glyphshow
82.774124 2.906250 m /u glyphshow
grestore
0.010 setlinewidth
1.000 setgray
gsave
23.52 352.8 458.5 44.1 clipbox
458.494 44.1 m
458.494 45.4781 l
458.494 395.522 l
458.494 396.9 l
482.014 396.9 l
482.014 395.522 l
482.014 45.4781 l
482.014 44.1 l
458.494 44.1 l
cl
gsave
fill
grestore
stroke
grestore
/p4_0 {
newpath
translate
458.494 44.1 m
482.014 44.1 l
482.014 45.4781 l
458.494 45.4781 l
458.494 44.1 l
} bind def
/p4_1 {
newpath
translate
458.494 45.4781 m
482.014 45.4781 l
482.014 46.8562 l
458.494 46.8562 l
458.494 45.4781 l
} bind def
/p4_2 {
newpath
translate
458.494 46.8562 m
482.014 46.8562 l
482.014 48.2344 l
458.494 48.2344 l
458.494 46.8562 l
} bind def
/p4_3 {
newpath
translate
458.494 48.2344 m
482.014 48.2344 l
482.014 49.6125 l
458.494 49.6125 l
458.494 48.2344 l
} bind def
/p4_4 {
newpath
translate
458.494 49.6125 m
482.014 49.6125 l
482.014 50.9906 l
458.494 50.9906 l
458.494 49.6125 l
} bind def
/p4_5 {
newpath
translate
458.494 50.9906 m
482.014 50.9906 l
482.014 52.3687 l
458.494 52.3687 l
458.494 50.9906 l
} bind def
/p4_6 {
newpath
translate
458.494 52.3687 m
482.014 52.3687 l
482.014 53.7469 l
458.494 53.7469 l
458.494 52.3687 l
} bind def
/p4_7 {
newpath
translate
458.494 53.7469 m
482.014 53.7469 l
482.014 55.125 l
458.494 55.125 l
458.494 53.7469 l
} bind def
/p4_8 {
newpath
translate
458.494 55.125 m
482.014 55.125 l
482.014 56.5031 l
458.494 56.5031 l
458.494 55.125 l
} bind def
/p4_9 {
newpath
translate
458.494 56.5031 m
482.014 56.5031 l
482.014 57.8812 l
458.494 57.8812 l
458.494 56.5031 l
} bind def
/p4_a {
newpath
translate
458.494 57.8812 m
482.014 57.8812 l
482.014 59.2594 l
458.494 59.2594 l
458.494 57.8812 l
} bind def
/p4_b {
newpath
translate
458.494 59.2594 m
482.014 59.2594 l
482.014 60.6375 l
458.494 60.6375 l
458.494 59.2594 l
} bind def
/p4_c {
newpath
translate
458.494 60.6375 m
482.014 60.6375 l
482.014 62.0156 l
458.494 62.0156 l
458.494 60.6375 l
} bind def
/p4_d {
newpath
translate
458.494 62.0156 m
482.014 62.0156 l
482.014 63.3937 l
458.494 63.3937 l
458.494 62.0156 l
} bind def
/p4_e {
newpath
translate
458.494 63.3937 m
482.014 63.3937 l
482.014 64.7719 l
458.494 64.7719 l
458.494 63.3937 l
} bind def
/p4_f {
newpath
translate
458.494 64.7719 m
482.014 64.7719 l
482.014 66.15 l
458.494 66.15 l
458.494 64.7719 l
} bind def
/p4_10 {
newpath
translate
458.494 66.15 m
482.014 66.15 l
482.014 67.5281 l
458.494 67.5281 l
458.494 66.15 l
} bind def
/p4_11 {
newpath
translate
458.494 67.5281 m
482.014 67.5281 l
482.014 68.9062 l
458.494 68.9062 l
458.494 67.5281 l
} bind def
/p4_12 {
newpath
translate
458.494 68.9062 m
482.014 68.9062 l
482.014 70.2844 l
458.494 70.2844 l
458.494 68.9062 l
} bind def
/p4_13 {
newpath
translate
458.494 70.2844 m
482.014 70.2844 l
482.014 71.6625 l
458.494 71.6625 l
458.494 70.2844 l
} bind def
/p4_14 {
newpath
translate
458.494 71.6625 m
482.014 71.6625 l
482.014 73.0406 l
458.494 73.0406 l
458.494 71.6625 l
} bind def
/p4_15 {
newpath
translate
458.494 73.0406 m
482.014 73.0406 l
482.014 74.4187 l
458.494 74.4187 l
458.494 73.0406 l
} bind def
/p4_16 {
newpath
translate
458.494 74.4187 m
482.014 74.4187 l
482.014 75.7969 l
458.494 75.7969 l
458.494 74.4187 l
} bind def
/p4_17 {
newpath
translate
458.494 75.7969 m
482.014 75.7969 l
482.014 77.175 l
458.494 77.175 l
458.494 75.7969 l
} bind def
/p4_18 {
newpath
translate
458.494 77.175 m
482.014 77.175 l
482.014 78.5531 l
458.494 78.5531 l
458.494 77.175 l
} bind def
/p4_19 {
newpath
translate
458.494 78.5531 m
482.014 78.5531 l
482.014 79.9312 l
458.494 79.9312 l
458.494 78.5531 l
} bind def
/p4_1a {
newpath
translate
458.494 79.9312 m
482.014 79.9312 l
482.014 81.3094 l
458.494 81.3094 l
458.494 79.9312 l
} bind def
/p4_1b {
newpath
translate
458.494 81.3094 m
482.014 81.3094 l
482.014 82.6875 l
458.494 82.6875 l
458.494 81.3094 l
} bind def
/p4_1c {
newpath
translate
458.494 82.6875 m
482.014 82.6875 l
482.014 84.0656 l
458.494 84.0656 l
458.494 82.6875 l
} bind def
/p4_1d {
newpath
translate
458.494 84.0656 m
482.014 84.0656 l
482.014 85.4437 l
458.494 85.4437 l
458.494 84.0656 l
} bind def
/p4_1e {
newpath
translate
458.494 85.4437 m
482.014 85.4437 l
482.014 86.8219 l
458.494 86.8219 l
458.494 85.4437 l
} bind def
/p4_1f {
newpath
translate
458.494 86.8219 m
482.014 86.8219 l
482.014 88.2 l
458.494 88.2 l
458.494 86.8219 l
} bind def
/p4_20 {
newpath
translate
458.494 88.2 m
482.014 88.2 l
482.014 89.5781 l
458.494 89.5781 l
458.494 88.2 l
} bind def
/p4_21 {
newpath
translate
458.494 89.5781 m
482.014 89.5781 l
482.014 90.9562 l
458.494 90.9562 l
458.494 89.5781 l
} bind def
/p4_22 {
newpath
translate
458.494 90.9562 m
482.014 90.9562 l
482.014 92.3344 l
458.494 92.3344 l
458.494 90.9562 l
} bind def
/p4_23 {
newpath
translate
458.494 92.3344 m
482.014 92.3344 l
482.014 93.7125 l
458.494 93.7125 l
458.494 92.3344 l
} bind def
/p4_24 {
newpath
translate
458.494 93.7125 m
482.014 93.7125 l
482.014 95.0906 l
458.494 95.0906 l
458.494 93.7125 l
} bind def
/p4_25 {
newpath
translate
458.494 95.0906 m
482.014 95.0906 l
482.014 96.4688 l
458.494 96.4688 l
458.494 95.0906 l
} bind def
/p4_26 {
newpath
translate
458.494 96.4688 m
482.014 96.4688 l
482.014 97.8469 l
458.494 97.8469 l
458.494 96.4688 l
} bind def
/p4_27 {
newpath
translate
458.494 97.8469 m
482.014 97.8469 l
482.014 99.225 l
458.494 99.225 l
458.494 97.8469 l
} bind def
/p4_28 {
newpath
translate
458.494 99.225 m
482.014 99.225 l
482.014 100.603 l
458.494 100.603 l
458.494 99.225 l
} bind def
/p4_29 {
newpath
translate
458.494 100.603 m
482.014 100.603 l
482.014 101.981 l
458.494 101.981 l
458.494 100.603 l
} bind def
/p4_2a {
newpath
translate
458.494 101.981 m
482.014 101.981 l
482.014 103.359 l
458.494 103.359 l
458.494 101.981 l
} bind def
/p4_2b {
newpath
translate
458.494 103.359 m
482.014 103.359 l
482.014 104.737 l
458.494 104.737 l
458.494 103.359 l
} bind def
/p4_2c {
newpath
translate
458.494 104.737 m
482.014 104.737 l
482.014 106.116 l
458.494 106.116 l
458.494 104.737 l
} bind def
/p4_2d {
newpath
translate
458.494 106.116 m
482.014 106.116 l
482.014 107.494 l
458.494 107.494 l
458.494 106.116 l
} bind def
/p4_2e {
newpath
translate
458.494 107.494 m
482.014 107.494 l
482.014 108.872 l
458.494 108.872 l
458.494 107.494 l
} bind def
/p4_2f {
newpath
translate
458.494 108.872 m
482.014 108.872 l
482.014 110.25 l
458.494 110.25 l
458.494 108.872 l
} bind def
/p4_30 {
newpath
translate
458.494 110.25 m
482.014 110.25 l
482.014 111.628 l
458.494 111.628 l
458.494 110.25 l
} bind def
/p4_31 {
newpath
translate
458.494 111.628 m
482.014 111.628 l
482.014 113.006 l
458.494 113.006 l
458.494 111.628 l
} bind def
/p4_32 {
newpath
translate
458.494 113.006 m
482.014 113.006 l
482.014 114.384 l
458.494 114.384 l
458.494 113.006 l
} bind def
/p4_33 {
newpath
translate
458.494 114.384 m
482.014 114.384 l
482.014 115.762 l
458.494 115.762 l
458.494 114.384 l
} bind def
/p4_34 {
newpath
translate
458.494 115.762 m
482.014 115.762 l
482.014 117.141 l
458.494 117.141 l
458.494 115.762 l
} bind def
/p4_35 {
newpath
translate
458.494 117.141 m
482.014 117.141 l
482.014 118.519 l
458.494 118.519 l
458.494 117.141 l
} bind def
/p4_36 {
newpath
translate
458.494 118.519 m
482.014 118.519 l
482.014 119.897 l
458.494 119.897 l
458.494 118.519 l
} bind def
/p4_37 {
newpath
translate
458.494 119.897 m
482.014 119.897 l
482.014 121.275 l
458.494 121.275 l
458.494 119.897 l
} bind def
/p4_38 {
newpath
translate
458.494 121.275 m
482.014 121.275 l
482.014 122.653 l
458.494 122.653 l
458.494 121.275 l
} bind def
/p4_39 {
newpath
translate
458.494 122.653 m
482.014 122.653 l
482.014 124.031 l
458.494 124.031 l
458.494 122.653 l
} bind def
/p4_3a {
newpath
translate
458.494 124.031 m
482.014 124.031 l
482.014 125.409 l
458.494 125.409 l
458.494 124.031 l
} bind def
/p4_3b {
newpath
translate
458.494 125.409 m
482.014 125.409 l
482.014 126.787 l
458.494 126.787 l
458.494 125.409 l
} bind def
/p4_3c {
newpath
translate
458.494 126.787 m
482.014 126.787 l
482.014 128.166 l
458.494 128.166 l
458.494 126.787 l
} bind def
/p4_3d {
newpath
translate
458.494 128.166 m
482.014 128.166 l
482.014 129.544 l
458.494 129.544 l
458.494 128.166 l
} bind def
/p4_3e {
newpath
translate
458.494 129.544 m
482.014 129.544 l
482.014 130.922 l
458.494 130.922 l
458.494 129.544 l
} bind def
/p4_3f {
newpath
translate
458.494 130.922 m
482.014 130.922 l
482.014 132.3 l
458.494 132.3 l
458.494 130.922 l
} bind def
/p4_40 {
newpath
translate
458.494 132.3 m
482.014 132.3 l
482.014 133.678 l
458.494 133.678 l
458.494 132.3 l
} bind def
/p4_41 {
newpath
translate
458.494 133.678 m
482.014 133.678 l
482.014 135.056 l
458.494 135.056 l
458.494 133.678 l
} bind def
/p4_42 {
newpath
translate
458.494 135.056 m
482.014 135.056 l
482.014 136.434 l
458.494 136.434 l
458.494 135.056 l
} bind def
/p4_43 {
newpath
translate
458.494 136.434 m
482.014 136.434 l
482.014 137.812 l
458.494 137.812 l
458.494 136.434 l
} bind def
/p4_44 {
newpath
translate
458.494 137.812 m
482.014 137.812 l
482.014 139.191 l
458.494 139.191 l
458.494 137.812 l
} bind def
/p4_45 {
newpath
translate
458.494 139.191 m
482.014 139.191 l
482.014 140.569 l
458.494 140.569 l
458.494 139.191 l
} bind def
/p4_46 {
newpath
translate
458.494 140.569 m
482.014 140.569 l
482.014 141.947 l
458.494 141.947 l
458.494 140.569 l
} bind def
/p4_47 {
newpath
translate
458.494 141.947 m
482.014 141.947 l
482.014 143.325 l
458.494 143.325 l
458.494 141.947 l
} bind def
/p4_48 {
newpath
translate
458.494 143.325 m
482.014 143.325 l
482.014 144.703 l
458.494 144.703 l
458.494 143.325 l
} bind def
/p4_49 {
newpath
translate
458.494 144.703 m
482.014 144.703 l
482.014 146.081 l
458.494 146.081 l
458.494 144.703 l
} bind def
/p4_4a {
newpath
translate
458.494 146.081 m
482.014 146.081 l
482.014 147.459 l
458.494 147.459 l
458.494 146.081 l
} bind def
/p4_4b {
newpath
translate
458.494 147.459 m
482.014 147.459 l
482.014 148.838 l
458.494 148.838 l
458.494 147.459 l
} bind def
/p4_4c {
newpath
translate
458.494 148.838 m
482.014 148.838 l
482.014 150.216 l
458.494 150.216 l
458.494 148.838 l
} bind def
/p4_4d {
newpath
translate
458.494 150.216 m
482.014 150.216 l
482.014 151.594 l
458.494 151.594 l
458.494 150.216 l
} bind def
/p4_4e {
newpath
translate
458.494 151.594 m
482.014 151.594 l
482.014 152.972 l
458.494 152.972 l
458.494 151.594 l
} bind def
/p4_4f {
newpath
translate
458.494 152.972 m
482.014 152.972 l
482.014 154.35 l
458.494 154.35 l
458.494 152.972 l
} bind def
/p4_50 {
newpath
translate
458.494 154.35 m
482.014 154.35 l
482.014 155.728 l
458.494 155.728 l
458.494 154.35 l
} bind def
/p4_51 {
newpath
translate
458.494 155.728 m
482.014 155.728 l
482.014 157.106 l
458.494 157.106 l
458.494 155.728 l
} bind def
/p4_52 {
newpath
translate
458.494 157.106 m
482.014 157.106 l
482.014 158.484 l
458.494 158.484 l
458.494 157.106 l
} bind def
/p4_53 {
newpath
translate
458.494 158.484 m
482.014 158.484 l
482.014 159.863 l
458.494 159.863 l
458.494 158.484 l
} bind def
/p4_54 {
newpath
translate
458.494 159.863 m
482.014 159.863 l
482.014 161.241 l
458.494 161.241 l
458.494 159.863 l
} bind def
/p4_55 {
newpath
translate
458.494 161.241 m
482.014 161.241 l
482.014 162.619 l
458.494 162.619 l
458.494 161.241 l
} bind def
/p4_56 {
newpath
translate
458.494 162.619 m
482.014 162.619 l
482.014 163.997 l
458.494 163.997 l
458.494 162.619 l
} bind def
/p4_57 {
newpath
translate
458.494 163.997 m
482.014 163.997 l
482.014 165.375 l
458.494 165.375 l
458.494 163.997 l
} bind def
/p4_58 {
newpath
translate
458.494 165.375 m
482.014 165.375 l
482.014 166.753 l
458.494 166.753 l
458.494 165.375 l
} bind def
/p4_59 {
newpath
translate
458.494 166.753 m
482.014 166.753 l
482.014 168.131 l
458.494 168.131 l
458.494 166.753 l
} bind def
/p4_5a {
newpath
translate
458.494 168.131 m
482.014 168.131 l
482.014 169.509 l
458.494 169.509 l
458.494 168.131 l
} bind def
/p4_5b {
newpath
translate
458.494 169.509 m
482.014 169.509 l
482.014 170.888 l
458.494 170.888 l
458.494 169.509 l
} bind def
/p4_5c {
newpath
translate
458.494 170.888 m
482.014 170.888 l
482.014 172.266 l
458.494 172.266 l
458.494 170.888 l
} bind def
/p4_5d {
newpath
translate
458.494 172.266 m
482.014 172.266 l
482.014 173.644 l
458.494 173.644 l
458.494 172.266 l
} bind def
/p4_5e {
newpath
translate
458.494 173.644 m
482.014 173.644 l
482.014 175.022 l
458.494 175.022 l
458.494 173.644 l
} bind def
/p4_5f {
newpath
translate
458.494 175.022 m
482.014 175.022 l
482.014 176.4 l
458.494 176.4 l
458.494 175.022 l
} bind def
/p4_60 {
newpath
translate
458.494 176.4 m
482.014 176.4 l
482.014 177.778 l
458.494 177.778 l
458.494 176.4 l
} bind def
/p4_61 {
newpath
translate
458.494 177.778 m
482.014 177.778 l
482.014 179.156 l
458.494 179.156 l
458.494 177.778 l
} bind def
/p4_62 {
newpath
translate
458.494 179.156 m
482.014 179.156 l
482.014 180.534 l
458.494 180.534 l
458.494 179.156 l
} bind def
/p4_63 {
newpath
translate
458.494 180.534 m
482.014 180.534 l
482.014 181.913 l
458.494 181.913 l
458.494 180.534 l
} bind def
/p4_64 {
newpath
translate
458.494 181.913 m
482.014 181.913 l
482.014 183.291 l
458.494 183.291 l
458.494 181.913 l
} bind def
/p4_65 {
newpath
translate
458.494 183.291 m
482.014 183.291 l
482.014 184.669 l
458.494 184.669 l
458.494 183.291 l
} bind def
/p4_66 {
newpath
translate
458.494 184.669 m
482.014 184.669 l
482.014 186.047 l
458.494 186.047 l
458.494 184.669 l
} bind def
/p4_67 {
newpath
translate
458.494 186.047 m
482.014 186.047 l
482.014 187.425 l
458.494 187.425 l
458.494 186.047 l
} bind def
/p4_68 {
newpath
translate
458.494 187.425 m
482.014 187.425 l
482.014 188.803 l
458.494 188.803 l
458.494 187.425 l
} bind def
/p4_69 {
newpath
translate
458.494 188.803 m
482.014 188.803 l
482.014 190.181 l
458.494 190.181 l
458.494 188.803 l
} bind def
/p4_6a {
newpath
translate
458.494 190.181 m
482.014 190.181 l
482.014 191.559 l
458.494 191.559 l
458.494 190.181 l
} bind def
/p4_6b {
newpath
translate
458.494 191.559 m
482.014 191.559 l
482.014 192.938 l
458.494 192.938 l
458.494 191.559 l
} bind def
/p4_6c {
newpath
translate
458.494 192.938 m
482.014 192.938 l
482.014 194.316 l
458.494 194.316 l
458.494 192.938 l
} bind def
/p4_6d {
newpath
translate
458.494 194.316 m
482.014 194.316 l
482.014 195.694 l
458.494 195.694 l
458.494 194.316 l
} bind def
/p4_6e {
newpath
translate
458.494 195.694 m
482.014 195.694 l
482.014 197.072 l
458.494 197.072 l
458.494 195.694 l
} bind def
/p4_6f {
newpath
translate
458.494 197.072 m
482.014 197.072 l
482.014 198.45 l
458.494 198.45 l
458.494 197.072 l
} bind def
/p4_70 {
newpath
translate
458.494 198.45 m
482.014 198.45 l
482.014 199.828 l
458.494 199.828 l
458.494 198.45 l
} bind def
/p4_71 {
newpath
translate
458.494 199.828 m
482.014 199.828 l
482.014 201.206 l
458.494 201.206 l
458.494 199.828 l
} bind def
/p4_72 {
newpath
translate
458.494 201.206 m
482.014 201.206 l
482.014 202.584 l
458.494 202.584 l
458.494 201.206 l
} bind def
/p4_73 {
newpath
translate
458.494 202.584 m
482.014 202.584 l
482.014 203.963 l
458.494 203.963 l
458.494 202.584 l
} bind def
/p4_74 {
newpath
translate
458.494 203.963 m
482.014 203.963 l
482.014 205.341 l
458.494 205.341 l
458.494 203.963 l
} bind def
/p4_75 {
newpath
translate
458.494 205.341 m
482.014 205.341 l
482.014 206.719 l
458.494 206.719 l
458.494 205.341 l
} bind def
/p4_76 {
newpath
translate
458.494 206.719 m
482.014 206.719 l
482.014 208.097 l
458.494 208.097 l
458.494 206.719 l
} bind def
/p4_77 {
newpath
translate
458.494 208.097 m
482.014 208.097 l
482.014 209.475 l
458.494 209.475 l
458.494 208.097 l
} bind def
/p4_78 {
newpath
translate
458.494 209.475 m
482.014 209.475 l
482.014 210.853 l
458.494 210.853 l
458.494 209.475 l
} bind def
/p4_79 {
newpath
translate
458.494 210.853 m
482.014 210.853 l
482.014 212.231 l
458.494 212.231 l
458.494 210.853 l
} bind def
/p4_7a {
newpath
translate
458.494 212.231 m
482.014 212.231 l
482.014 213.609 l
458.494 213.609 l
458.494 212.231 l
} bind def
/p4_7b {
newpath
translate
458.494 213.609 m
482.014 213.609 l
482.014 214.988 l
458.494 214.988 l
458.494 213.609 l
} bind def
/p4_7c {
newpath
translate
458.494 214.988 m
482.014 214.988 l
482.014 216.366 l
458.494 216.366 l
458.494 214.988 l
} bind def
/p4_7d {
newpath
translate
458.494 216.366 m
482.014 216.366 l
482.014 217.744 l
458.494 217.744 l
458.494 216.366 l
} bind def
/p4_7e {
newpath
translate
458.494 217.744 m
482.014 217.744 l
482.014 219.122 l
458.494 219.122 l
458.494 217.744 l
} bind def
/p4_7f {
newpath
translate
458.494 219.122 m
482.014 219.122 l
482.014 220.5 l
458.494 220.5 l
458.494 219.122 l
} bind def
/p4_80 {
newpath
translate
458.494 220.5 m
482.014 220.5 l
482.014 221.878 l
458.494 221.878 l
458.494 220.5 l
} bind def
/p4_81 {
newpath
translate
458.494 221.878 m
482.014 221.878 l
482.014 223.256 l
458.494 223.256 l
458.494 221.878 l
} bind def
/p4_82 {
newpath
translate
458.494 223.256 m
482.014 223.256 l
482.014 224.634 l
458.494 224.634 l
458.494 223.256 l
} bind def
/p4_83 {
newpath
translate
458.494 224.634 m
482.014 224.634 l
482.014 226.013 l
458.494 226.013 l
458.494 224.634 l
} bind def
/p4_84 {
newpath
translate
458.494 226.013 m
482.014 226.013 l
482.014 227.391 l
458.494 227.391 l
458.494 226.013 l
} bind def
/p4_85 {
newpath
translate
458.494 227.391 m
482.014 227.391 l
482.014 228.769 l
458.494 228.769 l
458.494 227.391 l
} bind def
/p4_86 {
newpath
translate
458.494 228.769 m
482.014 228.769 l
482.014 230.147 l
458.494 230.147 l
458.494 228.769 l
} bind def
/p4_87 {
newpath
translate
458.494 230.147 m
482.014 230.147 l
482.014 231.525 l
458.494 231.525 l
458.494 230.147 l
} bind def
/p4_88 {
newpath
translate
458.494 231.525 m
482.014 231.525 l
482.014 232.903 l
458.494 232.903 l
458.494 231.525 l
} bind def
/p4_89 {
newpath
translate
458.494 232.903 m
482.014 232.903 l
482.014 234.281 l
458.494 234.281 l
458.494 232.903 l
} bind def
/p4_8a {
newpath
translate
458.494 234.281 m
482.014 234.281 l
482.014 235.659 l
458.494 235.659 l
458.494 234.281 l
} bind def
/p4_8b {
newpath
translate
458.494 235.659 m
482.014 235.659 l
482.014 237.038 l
458.494 237.038 l
458.494 235.659 l
} bind def
/p4_8c {
newpath
translate
458.494 237.038 m
482.014 237.038 l
482.014 238.416 l
458.494 238.416 l
458.494 237.038 l
} bind def
/p4_8d {
newpath
translate
458.494 238.416 m
482.014 238.416 l
482.014 239.794 l
458.494 239.794 l
458.494 238.416 l
} bind def
/p4_8e {
newpath
translate
458.494 239.794 m
482.014 239.794 l
482.014 241.172 l
458.494 241.172 l
458.494 239.794 l
} bind def
/p4_8f {
newpath
translate
458.494 241.172 m
482.014 241.172 l
482.014 242.55 l
458.494 242.55 l
458.494 241.172 l
} bind def
/p4_90 {
newpath
translate
458.494 242.55 m
482.014 242.55 l
482.014 243.928 l
458.494 243.928 l
458.494 242.55 l
} bind def
/p4_91 {
newpath
translate
458.494 243.928 m
482.014 243.928 l
482.014 245.306 l
458.494 245.306 l
458.494 243.928 l
} bind def
/p4_92 {
newpath
translate
458.494 245.306 m
482.014 245.306 l
482.014 246.684 l
458.494 246.684 l
458.494 245.306 l
} bind def
/p4_93 {
newpath
translate
458.494 246.684 m
482.014 246.684 l
482.014 248.063 l
458.494 248.063 l
458.494 246.684 l
} bind def
/p4_94 {
newpath
translate
458.494 248.063 m
482.014 248.063 l
482.014 249.441 l
458.494 249.441 l
458.494 248.063 l
} bind def
/p4_95 {
newpath
translate
458.494 249.441 m
482.014 249.441 l
482.014 250.819 l
458.494 250.819 l
458.494 249.441 l
} bind def
/p4_96 {
newpath
translate
458.494 250.819 m
482.014 250.819 l
482.014 252.197 l
458.494 252.197 l
458.494 250.819 l
} bind def
/p4_97 {
newpath
translate
458.494 252.197 m
482.014 252.197 l
482.014 253.575 l
458.494 253.575 l
458.494 252.197 l
} bind def
/p4_98 {
newpath
translate
458.494 253.575 m
482.014 253.575 l
482.014 254.953 l
458.494 254.953 l
458.494 253.575 l
} bind def
/p4_99 {
newpath
translate
458.494 254.953 m
482.014 254.953 l
482.014 256.331 l
458.494 256.331 l
458.494 254.953 l
} bind def
/p4_9a {
newpath
translate
458.494 256.331 m
482.014 256.331 l
482.014 257.709 l
458.494 257.709 l
458.494 256.331 l
} bind def
/p4_9b {
newpath
translate
458.494 257.709 m
482.014 257.709 l
482.014 259.088 l
458.494 259.088 l
458.494 257.709 l
} bind def
/p4_9c {
newpath
translate
458.494 259.088 m
482.014 259.088 l
482.014 260.466 l
458.494 260.466 l
458.494 259.088 l
} bind def
/p4_9d {
newpath
translate
458.494 260.466 m
482.014 260.466 l
482.014 261.844 l
458.494 261.844 l
458.494 260.466 l
} bind def
/p4_9e {
newpath
translate
458.494 261.844 m
482.014 261.844 l
482.014 263.222 l
458.494 263.222 l
458.494 261.844 l
} bind def
/p4_9f {
newpath
translate
458.494 263.222 m
482.014 263.222 l
482.014 264.6 l
458.494 264.6 l
458.494 263.222 l
} bind def
/p4_a0 {
newpath
translate
458.494 264.6 m
482.014 264.6 l
482.014 265.978 l
458.494 265.978 l
458.494 264.6 l
} bind def
/p4_a1 {
newpath
translate
458.494 265.978 m
482.014 265.978 l
482.014 267.356 l
458.494 267.356 l
458.494 265.978 l
} bind def
/p4_a2 {
newpath
translate
458.494 267.356 m
482.014 267.356 l
482.014 268.734 l
458.494 268.734 l
458.494 267.356 l
} bind def
/p4_a3 {
newpath
translate
458.494 268.734 m
482.014 268.734 l
482.014 270.113 l
458.494 270.113 l
458.494 268.734 l
} bind def
/p4_a4 {
newpath
translate
458.494 270.113 m
482.014 270.113 l
482.014 271.491 l
458.494 271.491 l
458.494 270.113 l
} bind def
/p4_a5 {
newpath
translate
458.494 271.491 m
482.014 271.491 l
482.014 272.869 l
458.494 272.869 l
458.494 271.491 l
} bind def
/p4_a6 {
newpath
translate
458.494 272.869 m
482.014 272.869 l
482.014 274.247 l
458.494 274.247 l
458.494 272.869 l
} bind def
/p4_a7 {
newpath
translate
458.494 274.247 m
482.014 274.247 l
482.014 275.625 l
458.494 275.625 l
458.494 274.247 l
} bind def
/p4_a8 {
newpath
translate
458.494 275.625 m
482.014 275.625 l
482.014 277.003 l
458.494 277.003 l
458.494 275.625 l
} bind def
/p4_a9 {
newpath
translate
458.494 277.003 m
482.014 277.003 l
482.014 278.381 l
458.494 278.381 l
458.494 277.003 l
} bind def
/p4_aa {
newpath
translate
458.494 278.381 m
482.014 278.381 l
482.014 279.759 l
458.494 279.759 l
458.494 278.381 l
} bind def
/p4_ab {
newpath
translate
458.494 279.759 m
482.014 279.759 l
482.014 281.138 l
458.494 281.138 l
458.494 279.759 l
} bind def
/p4_ac {
newpath
translate
458.494 281.138 m
482.014 281.138 l
482.014 282.516 l
458.494 282.516 l
458.494 281.138 l
} bind def
/p4_ad {
newpath
translate
458.494 282.516 m
482.014 282.516 l
482.014 283.894 l
458.494 283.894 l
458.494 282.516 l
} bind def
/p4_ae {
newpath
translate
458.494 283.894 m
482.014 283.894 l
482.014 285.272 l
458.494 285.272 l
458.494 283.894 l
} bind def
/p4_af {
newpath
translate
458.494 285.272 m
482.014 285.272 l
482.014 286.65 l
458.494 286.65 l
458.494 285.272 l
} bind def
/p4_b0 {
newpath
translate
458.494 286.65 m
482.014 286.65 l
482.014 288.028 l
458.494 288.028 l
458.494 286.65 l
} bind def
/p4_b1 {
newpath
translate
458.494 288.028 m
482.014 288.028 l
482.014 289.406 l
458.494 289.406 l
458.494 288.028 l
} bind def
/p4_b2 {
newpath
translate
458.494 289.406 m
482.014 289.406 l
482.014 290.784 l
458.494 290.784 l
458.494 289.406 l
} bind def
/p4_b3 {
newpath
translate
458.494 290.784 m
482.014 290.784 l
482.014 292.163 l
458.494 292.163 l
458.494 290.784 l
} bind def
/p4_b4 {
newpath
translate
458.494 292.163 m
482.014 292.163 l
482.014 293.541 l
458.494 293.541 l
458.494 292.163 l
} bind def
/p4_b5 {
newpath
translate
458.494 293.541 m
482.014 293.541 l
482.014 294.919 l
458.494 294.919 l
458.494 293.541 l
} bind def
/p4_b6 {
newpath
translate
458.494 294.919 m
482.014 294.919 l
482.014 296.297 l
458.494 296.297 l
458.494 294.919 l
} bind def
/p4_b7 {
newpath
translate
458.494 296.297 m
482.014 296.297 l
482.014 297.675 l
458.494 297.675 l
458.494 296.297 l
} bind def
/p4_b8 {
newpath
translate
458.494 297.675 m
482.014 297.675 l
482.014 299.053 l
458.494 299.053 l
458.494 297.675 l
} bind def
/p4_b9 {
newpath
translate
458.494 299.053 m
482.014 299.053 l
482.014 300.431 l
458.494 300.431 l
458.494 299.053 l
} bind def
/p4_ba {
newpath
translate
458.494 300.431 m
482.014 300.431 l
482.014 301.809 l
458.494 301.809 l
458.494 300.431 l
} bind def
/p4_bb {
newpath
translate
458.494 301.809 m
482.014 301.809 l
482.014 303.188 l
458.494 303.188 l
458.494 301.809 l
} bind def
/p4_bc {
newpath
translate
458.494 303.188 m
482.014 303.188 l
482.014 304.566 l
458.494 304.566 l
458.494 303.188 l
} bind def
/p4_bd {
newpath
translate
458.494 304.566 m
482.014 304.566 l
482.014 305.944 l
458.494 305.944 l
458.494 304.566 l
} bind def
/p4_be {
newpath
translate
458.494 305.944 m
482.014 305.944 l
482.014 307.322 l
458.494 307.322 l
458.494 305.944 l
} bind def
/p4_bf {
newpath
translate
458.494 307.322 m
482.014 307.322 l
482.014 308.7 l
458.494 308.7 l
458.494 307.322 l
} bind def
/p4_c0 {
newpath
translate
458.494 308.7 m
482.014 308.7 l
482.014 310.078 l
458.494 310.078 l
458.494 308.7 l
} bind def
/p4_c1 {
newpath
translate
458.494 310.078 m
482.014 310.078 l
482.014 311.456 l
458.494 311.456 l
458.494 310.078 l
} bind def
/p4_c2 {
newpath
translate
458.494 311.456 m
482.014 311.456 l
482.014 312.834 l
458.494 312.834 l
458.494 311.456 l
} bind def
/p4_c3 {
newpath
translate
458.494 312.834 m
482.014 312.834 l
482.014 314.213 l
458.494 314.213 l
458.494 312.834 l
} bind def
/p4_c4 {
newpath
translate
458.494 314.213 m
482.014 314.213 l
482.014 315.591 l
458.494 315.591 l
458.494 314.213 l
} bind def
/p4_c5 {
newpath
translate
458.494 315.591 m
482.014 315.591 l
482.014 316.969 l
458.494 316.969 l
458.494 315.591 l
} bind def
/p4_c6 {
newpath
translate
458.494 316.969 m
482.014 316.969 l
482.014 318.347 l
458.494 318.347 l
458.494 316.969 l
} bind def
/p4_c7 {
newpath
translate
458.494 318.347 m
482.014 318.347 l
482.014 319.725 l
458.494 319.725 l
458.494 318.347 l
} bind def
/p4_c8 {
newpath
translate
458.494 319.725 m
482.014 319.725 l
482.014 321.103 l
458.494 321.103 l
458.494 319.725 l
} bind def
/p4_c9 {
newpath
translate
458.494 321.103 m
482.014 321.103 l
482.014 322.481 l
458.494 322.481 l
458.494 321.103 l
} bind def
/p4_ca {
newpath
translate
458.494 322.481 m
482.014 322.481 l
482.014 323.859 l
458.494 323.859 l
458.494 322.481 l
} bind def
/p4_cb {
newpath
translate
458.494 323.859 m
482.014 323.859 l
482.014 325.238 l
458.494 325.238 l
458.494 323.859 l
} bind def
/p4_cc {
newpath
translate
458.494 325.238 m
482.014 325.238 l
482.014 326.616 l
458.494 326.616 l
458.494 325.238 l
} bind def
/p4_cd {
newpath
translate
458.494 326.616 m
482.014 326.616 l
482.014 327.994 l
458.494 327.994 l
458.494 326.616 l
} bind def
/p4_ce {
newpath
translate
458.494 327.994 m
482.014 327.994 l
482.014 329.372 l
458.494 329.372 l
458.494 327.994 l
} bind def
/p4_cf {
newpath
translate
458.494 329.372 m
482.014 329.372 l
482.014 330.75 l
458.494 330.75 l
458.494 329.372 l
} bind def
/p4_d0 {
newpath
translate
458.494 330.75 m
482.014 330.75 l
482.014 332.128 l
458.494 332.128 l
458.494 330.75 l
} bind def
/p4_d1 {
newpath
translate
458.494 332.128 m
482.014 332.128 l
482.014 333.506 l
458.494 333.506 l
458.494 332.128 l
} bind def
/p4_d2 {
newpath
translate
458.494 333.506 m
482.014 333.506 l
482.014 334.884 l
458.494 334.884 l
458.494 333.506 l
} bind def
/p4_d3 {
newpath
translate
458.494 334.884 m
482.014 334.884 l
482.014 336.263 l
458.494 336.263 l
458.494 334.884 l
} bind def
/p4_d4 {
newpath
translate
458.494 336.263 m
482.014 336.263 l
482.014 337.641 l
458.494 337.641 l
458.494 336.263 l
} bind def
/p4_d5 {
newpath
translate
458.494 337.641 m
482.014 337.641 l
482.014 339.019 l
458.494 339.019 l
458.494 337.641 l
} bind def
/p4_d6 {
newpath
translate
458.494 339.019 m
482.014 339.019 l
482.014 340.397 l
458.494 340.397 l
458.494 339.019 l
} bind def
/p4_d7 {
newpath
translate
458.494 340.397 m
482.014 340.397 l
482.014 341.775 l
458.494 341.775 l
458.494 340.397 l
} bind def
/p4_d8 {
newpath
translate
458.494 341.775 m
482.014 341.775 l
482.014 343.153 l
458.494 343.153 l
458.494 341.775 l
} bind def
/p4_d9 {
newpath
translate
458.494 343.153 m
482.014 343.153 l
482.014 344.531 l
458.494 344.531 l
458.494 343.153 l
} bind def
/p4_da {
newpath
translate
458.494 344.531 m
482.014 344.531 l
482.014 345.909 l
458.494 345.909 l
458.494 344.531 l
} bind def
/p4_db {
newpath
translate
458.494 345.909 m
482.014 345.909 l
482.014 347.288 l
458.494 347.288 l
458.494 345.909 l
} bind def
/p4_dc {
newpath
translate
458.494 347.288 m
482.014 347.288 l
482.014 348.666 l
458.494 348.666 l
458.494 347.288 l
} bind def
/p4_dd {
newpath
translate
458.494 348.666 m
482.014 348.666 l
482.014 350.044 l
458.494 350.044 l
458.494 348.666 l
} bind def
/p4_de {
newpath
translate
458.494 350.044 m
482.014 350.044 l
482.014 351.422 l
458.494 351.422 l
458.494 350.044 l
} bind def
/p4_df {
newpath
translate
458.494 351.422 m
482.014 351.422 l
482.014 352.8 l
458.494 352.8 l
458.494 351.422 l
} bind def
/p4_e0 {
newpath
translate
458.494 352.8 m
482.014 352.8 l
482.014 354.178 l
458.494 354.178 l
458.494 352.8 l
} bind def
/p4_e1 {
newpath
translate
458.494 354.178 m
482.014 354.178 l
482.014 355.556 l
458.494 355.556 l
458.494 354.178 l
} bind def
/p4_e2 {
newpath
translate
458.494 355.556 m
482.014 355.556 l
482.014 356.934 l
458.494 356.934 l
458.494 355.556 l
} bind def
/p4_e3 {
newpath
translate
458.494 356.934 m
482.014 356.934 l
482.014 358.312 l
458.494 358.312 l
458.494 356.934 l
} bind def
/p4_e4 {
newpath
translate
458.494 358.312 m
482.014 358.312 l
482.014 359.691 l
458.494 359.691 l
458.494 358.312 l
} bind def
/p4_e5 {
newpath
translate
458.494 359.691 m
482.014 359.691 l
482.014 361.069 l
458.494 361.069 l
458.494 359.691 l
} bind def
/p4_e6 {
newpath
translate
458.494 361.069 m
482.014 361.069 l
482.014 362.447 l
458.494 362.447 l
458.494 361.069 l
} bind def
/p4_e7 {
newpath
translate
458.494 362.447 m
482.014 362.447 l
482.014 363.825 l
458.494 363.825 l
458.494 362.447 l
} bind def
/p4_e8 {
newpath
translate
458.494 363.825 m
482.014 363.825 l
482.014 365.203 l
458.494 365.203 l
458.494 363.825 l
} bind def
/p4_e9 {
newpath
translate
458.494 365.203 m
482.014 365.203 l
482.014 366.581 l
458.494 366.581 l
458.494 365.203 l
} bind def
/p4_ea {
newpath
translate
458.494 366.581 m
482.014 366.581 l
482.014 367.959 l
458.494 367.959 l
458.494 366.581 l
} bind def
/p4_eb {
newpath
translate
458.494 367.959 m
482.014 367.959 l
482.014 369.338 l
458.494 369.338 l
458.494 367.959 l
} bind def
/p4_ec {
newpath
translate
458.494 369.338 m
482.014 369.338 l
482.014 370.716 l
458.494 370.716 l
458.494 369.338 l
} bind def
/p4_ed {
newpath
translate
458.494 370.716 m
482.014 370.716 l
482.014 372.094 l
458.494 372.094 l
458.494 370.716 l
} bind def
/p4_ee {
newpath
translate
458.494 372.094 m
482.014 372.094 l
482.014 373.472 l
458.494 373.472 l
458.494 372.094 l
} bind def
/p4_ef {
newpath
translate
458.494 373.472 m
482.014 373.472 l
482.014 374.85 l
458.494 374.85 l
458.494 373.472 l
} bind def
/p4_f0 {
newpath
translate
458.494 374.85 m
482.014 374.85 l
482.014 376.228 l
458.494 376.228 l
458.494 374.85 l
} bind def
/p4_f1 {
newpath
translate
458.494 376.228 m
482.014 376.228 l
482.014 377.606 l
458.494 377.606 l
458.494 376.228 l
} bind def
/p4_f2 {
newpath
translate
458.494 377.606 m
482.014 377.606 l
482.014 378.984 l
458.494 378.984 l
458.494 377.606 l
} bind def
/p4_f3 {
newpath
translate
458.494 378.984 m
482.014 378.984 l
482.014 380.363 l
458.494 380.363 l
458.494 378.984 l
} bind def
/p4_f4 {
newpath
translate
458.494 380.363 m
482.014 380.363 l
482.014 381.741 l
458.494 381.741 l
458.494 380.363 l
} bind def
/p4_f5 {
newpath
translate
458.494 381.741 m
482.014 381.741 l
482.014 383.119 l
458.494 383.119 l
458.494 381.741 l
} bind def
/p4_f6 {
newpath
translate
458.494 383.119 m
482.014 383.119 l
482.014 384.497 l
458.494 384.497 l
458.494 383.119 l
} bind def
/p4_f7 {
newpath
translate
458.494 384.497 m
482.014 384.497 l
482.014 385.875 l
458.494 385.875 l
458.494 384.497 l
} bind def
/p4_f8 {
newpath
translate
458.494 385.875 m
482.014 385.875 l
482.014 387.253 l
458.494 387.253 l
458.494 385.875 l
} bind def
/p4_f9 {
newpath
translate
458.494 387.253 m
482.014 387.253 l
482.014 388.631 l
458.494 388.631 l
458.494 387.253 l
} bind def
/p4_fa {
newpath
translate
458.494 388.631 m
482.014 388.631 l
482.014 390.009 l
458.494 390.009 l
458.494 388.631 l
} bind def
/p4_fb {
newpath
translate
458.494 390.009 m
482.014 390.009 l
482.014 391.388 l
458.494 391.388 l
458.494 390.009 l
} bind def
/p4_fc {
newpath
translate
458.494 391.388 m
482.014 391.388 l
482.014 392.766 l
458.494 392.766 l
458.494 391.388 l
} bind def
/p4_fd {
newpath
translate
458.494 392.766 m
482.014 392.766 l
482.014 394.144 l
458.494 394.144 l
458.494 392.766 l
} bind def
/p4_fe {
newpath
translate
458.494 394.144 m
482.014 394.144 l
482.014 395.522 l
458.494 395.522 l
458.494 394.144 l
} bind def
/p4_ff {
newpath
translate
458.494 395.522 m
482.014 395.522 l
482.014 396.9 l
458.494 396.9 l
458.494 395.522 l
} bind def
1.000 setlinewidth
0 setlinecap
0.000 0.000 0.500 setrgbcolor
gsave
23.52 352.8 458.5 44.1 clipbox
0 0 p4_0
gsave
fill
grestore
stroke
grestore
0.000 0.000 0.518 setrgbcolor
gsave
23.52 352.8 458.5 44.1 clipbox
0 0 p4_1
gsave
fill
grestore
stroke
grestore
0.000 0.000 0.536 setrgbcolor
gsave
23.52 352.8 458.5 44.1 clipbox
0 0 p4_2
gsave
fill
grestore
stroke
grestore
0.000 0.000 0.553 setrgbcolor
gsave
23.52 352.8 458.5 44.1 clipbox
0 0 p4_3
gsave
fill
grestore
stroke
grestore
0.000 0.000 0.571 setrgbcolor
gsave
23.52 352.8 458.5 44.1 clipbox
0 0 p4_4
gsave
fill
grestore
stroke
grestore
0.000 0.000 0.589 setrgbcolor
gsave
23.52 352.8 458.5 44.1 clipbox
0 0 p4_5
gsave
fill
grestore
stroke
grestore
0.000 0.000 0.607 setrgbcolor
gsave
23.52 352.8 458.5 44.1 clipbox
0 0 p4_6
gsave
fill
grestore
stroke
grestore
0.000 0.000 0.625 setrgbcolor
gsave
23.52 352.8 458.5 44.1 clipbox
0 0 p4_7
gsave
fill
grestore
stroke
grestore
0.000 0.000 0.643 setrgbcolor
gsave
23.52 352.8 458.5 44.1 clipbox
0 0 p4_8
gsave
fill
grestore
stroke
grestore
0.000 0.000 0.660 setrgbcolor
gsave
23.52 352.8 458.5 44.1 clipbox
0 0 p4_9
gsave
fill
grestore
stroke
grestore
0.000 0.000 0.678 setrgbcolor
gsave
23.52 352.8 458.5 44.1 clipbox
0 0 p4_a
gsave
fill
grestore
stroke
grestore
0.000 0.000 0.696 setrgbcolor
gsave
23.52 352.8 458.5 44.1 clipbox
0 0 p4_b
gsave
fill
grestore
stroke
grestore
0.000 0.000 0.714 setrgbcolor
gsave
23.52 352.8 458.5 44.1 clipbox
0 0 p4_c
gsave
fill
grestore
stroke
grestore
0.000 0.000 0.732 setrgbcolor
gsave
23.52 352.8 458.5 44.1 clipbox
0 0 p4_d
gsave
fill
grestore
stroke
grestore
0.000 0.000 0.750 setrgbcolor
gsave
23.52 352.8 458.5 44.1 clipbox
0 0 p4_e
gsave
fill
grestore
stroke
grestore
0.000 0.000 0.767 setrgbcolor
gsave
23.52 352.8 458.5 44.1 clipbox
0 0 p4_f
gsave
fill
grestore
stroke
grestore
0.000 0.000 0.785 setrgbcolor
gsave
23.52 352.8 458.5 44.1 clipbox
0 0 p4_10
gsave
fill
grestore
stroke
grestore
0.000 0.000 0.803 setrgbcolor
gsave
23.52 352.8 458.5 44.1 clipbox
0 0 p4_11
gsave
fill
grestore
stroke
grestore
0.000 0.000 0.821 setrgbcolor
gsave
23.52 352.8 458.5 44.1 clipbox
0 0 p4_12
gsave
fill
grestore
stroke
grestore
0.000 0.000 0.839 setrgbcolor
gsave
23.52 352.8 458.5 44.1 clipbox
0 0 p4_13
gsave
fill
grestore
stroke
grestore
0.000 0.000 0.857 setrgbcolor
gsave
23.52 352.8 458.5 44.1 clipbox
0 0 p4_14
gsave
fill
grestore
stroke
grestore
0.000 0.000 0.874 setrgbcolor
gsave
23.52 352.8 458.5 44.1 clipbox
0 0 p4_15
gsave
fill
grestore
stroke
grestore
0.000 0.000 0.892 setrgbcolor
gsave
23.52 352.8 458.5 44.1 clipbox
0 0 p4_16
gsave
fill
grestore
stroke
grestore
0.000 0.000 0.910 setrgbcolor
gsave
23.52 352.8 458.5 44.1 clipbox
0 0 p4_17
gsave
fill
grestore
stroke
grestore
0.000 0.000 0.928 setrgbcolor
gsave
23.52 352.8 458.5 44.1 clipbox
0 0 p4_18
gsave
fill
grestore
stroke
grestore
0.000 0.000 0.946 setrgbcolor
gsave
23.52 352.8 458.5 44.1 clipbox
0 0 p4_19
gsave
fill
grestore
stroke
grestore
0.000 0.000 0.963 setrgbcolor
gsave
23.52 352.8 458.5 44.1 clipbox
0 0 p4_1a
gsave
fill
grestore
stroke
grestore
0.000 0.000 0.981 setrgbcolor
gsave
23.52 352.8 458.5 44.1 clipbox
0 0 p4_1b
gsave
fill
grestore
stroke
grestore
0.000 0.000 0.999 setrgbcolor
gsave
23.52 352.8 458.5 44.1 clipbox
0 0 p4_1c
gsave
fill
grestore
stroke
grestore
0.000 0.000 1.000 setrgbcolor
gsave
23.52 352.8 458.5 44.1 clipbox
0 0 p4_1d
gsave
fill
grestore
stroke
grestore
gsave
23.52 352.8 458.5 44.1 clipbox
0 0 p4_1e
gsave
fill
grestore
stroke
grestore
gsave
23.52 352.8 458.5 44.1 clipbox
0 0 p4_1f
gsave
fill
grestore
stroke
grestore
0.000 0.002 1.000 setrgbcolor
gsave
23.52 352.8 458.5 44.1 clipbox
0 0 p4_20
gsave
fill
grestore
stroke
grestore
0.000 0.018 1.000 setrgbcolor
gsave
23.52 352.8 458.5 44.1 clipbox
0 0 p4_21
gsave
fill
grestore
stroke
grestore
0.000 0.033 1.000 setrgbcolor
gsave
23.52 352.8 458.5 44.1 clipbox
0 0 p4_22
gsave
fill
grestore
stroke
grestore
0.000 0.049 1.000 setrgbcolor
gsave
23.52 352.8 458.5 44.1 clipbox
0 0 p4_23
gsave
fill
grestore
stroke
grestore
0.000 0.065 1.000 setrgbcolor
gsave
23.52 352.8 458.5 44.1 clipbox
0 0 p4_24
gsave
fill
grestore
stroke
grestore
0.000 0.080 1.000 setrgbcolor
gsave
23.52 352.8 458.5 44.1 clipbox
0 0 p4_25
gsave
fill
grestore
stroke
grestore
0.000 0.096 1.000 setrgbcolor
gsave
23.52 352.8 458.5 44.1 clipbox
0 0 p4_26
gsave
fill
grestore
stroke
grestore
0.000 0.112 1.000 setrgbcolor
gsave
23.52 352.8 458.5 44.1 clipbox
0 0 p4_27
gsave
fill
grestore
stroke
grestore
0.000 0.127 1.000 setrgbcolor
gsave
23.52 352.8 458.5 44.1 clipbox
0 0 p4_28
gsave
fill
grestore
stroke
grestore
0.000 0.143 1.000 setrgbcolor
gsave
23.52 352.8 458.5 44.1 clipbox
0 0 p4_29
gsave
fill
grestore
stroke
grestore
0.000 0.159 1.000 setrgbcolor
gsave
23.52 352.8 458.5 44.1 clipbox
0 0 p4_2a
gsave
fill
grestore
stroke
grestore
0.000 0.175 1.000 setrgbcolor
gsave
23.52 352.8 458.5 44.1 clipbox
0 0 p4_2b
gsave
fill
grestore
stroke
grestore
0.000 0.190 1.000 setrgbcolor
gsave
23.52 352.8 458.5 44.1 clipbox
0 0 p4_2c
gsave
fill
grestore
stroke
grestore
0.000 0.206 1.000 setrgbcolor
gsave
23.52 352.8 458.5 44.1 clipbox
0 0 p4_2d
gsave
fill
grestore
stroke
grestore
0.000 0.222 1.000 setrgbcolor
gsave
23.52 352.8 458.5 44.1 clipbox
0 0 p4_2e
gsave
fill
grestore
stroke
grestore
0.000 0.237 1.000 setrgbcolor
gsave
23.52 352.8 458.5 44.1 clipbox
0 0 p4_2f
gsave
fill
grestore
stroke
grestore
0.000 0.253 1.000 setrgbcolor
gsave
23.52 352.8 458.5 44.1 clipbox
0 0 p4_30
gsave
fill
grestore
stroke
grestore
0.000 0.269 1.000 setrgbcolor
gsave
23.52 352.8 458.5 44.1 clipbox
0 0 p4_31
gsave
fill
grestore
stroke
grestore
0.000 0.284 1.000 setrgbcolor
gsave
23.52 352.8 458.5 44.1 clipbox
0 0 p4_32
gsave
fill
grestore
stroke
grestore
0.000 0.300 1.000 setrgbcolor
gsave
23.52 352.8 458.5 44.1 clipbox
0 0 p4_33
gsave
fill
grestore
stroke
grestore
0.000 0.316 1.000 setrgbcolor
gsave
23.52 352.8 458.5 44.1 clipbox
0 0 p4_34
gsave
fill
grestore
stroke
grestore
0.000 0.331 1.000 setrgbcolor
gsave
23.52 352.8 458.5 44.1 clipbox
0 0 p4_35
gsave
fill
grestore
stroke
grestore
0.000 0.347 1.000 setrgbcolor
gsave
23.52 352.8 458.5 44.1 clipbox
0 0 p4_36
gsave
fill
grestore
stroke
grestore
0.000 0.363 1.000 setrgbcolor
gsave
23.52 352.8 458.5 44.1 clipbox
0 0 p4_37
gsave
fill
grestore
stroke
grestore
0.000 0.378 1.000 setrgbcolor
gsave
23.52 352.8 458.5 44.1 clipbox
0 0 p4_38
gsave
fill
grestore
stroke
grestore
0.000 0.394 1.000 setrgbcolor
gsave
23.52 352.8 458.5 44.1 clipbox
0 0 p4_39
gsave
fill
grestore
stroke
grestore
0.000 0.410 1.000 setrgbcolor
gsave
23.52 352.8 458.5 44.1 clipbox
0 0 p4_3a
gsave
fill
grestore
stroke
grestore
0.000 0.425 1.000 setrgbcolor
gsave
23.52 352.8 458.5 44.1 clipbox
0 0 p4_3b
gsave
fill
grestore
stroke
grestore
0.000 0.441 1.000 setrgbcolor
gsave
23.52 352.8 458.5 44.1 clipbox
0 0 p4_3c
gsave
fill
grestore
stroke
grestore
0.000 0.457 1.000 setrgbcolor
gsave
23.52 352.8 458.5 44.1 clipbox
0 0 p4_3d
gsave
fill
grestore
stroke
grestore
0.000 0.473 1.000 setrgbcolor
gsave
23.52 352.8 458.5 44.1 clipbox
0 0 p4_3e
gsave
fill
grestore
stroke
grestore
0.000 0.488 1.000 setrgbcolor
gsave
23.52 352.8 458.5 44.1 clipbox
0 0 p4_3f
gsave
fill
grestore
stroke
grestore
0.000 0.504 1.000 setrgbcolor
gsave
23.52 352.8 458.5 44.1 clipbox
0 0 p4_40
gsave
fill
grestore
stroke
grestore
0.000 0.520 1.000 setrgbcolor
gsave
23.52 352.8 458.5 44.1 clipbox
0 0 p4_41
gsave
fill
grestore
stroke
grestore
0.000 0.535 1.000 setrgbcolor
gsave
23.52 352.8 458.5 44.1 clipbox
0 0 p4_42
gsave
fill
grestore
stroke
grestore
0.000 0.551 1.000 setrgbcolor
gsave
23.52 352.8 458.5 44.1 clipbox
0 0 p4_43
gsave
fill
grestore
stroke
grestore
0.000 0.567 1.000 setrgbcolor
gsave
23.52 352.8 458.5 44.1 clipbox
0 0 p4_44
gsave
fill
grestore
stroke
grestore
0.000 0.582 1.000 setrgbcolor
gsave
23.52 352.8 458.5 44.1 clipbox
0 0 p4_45
gsave
fill
grestore
stroke
grestore
0.000 0.598 1.000 setrgbcolor
gsave
23.52 352.8 458.5 44.1 clipbox
0 0 p4_46
gsave
fill
grestore
stroke
grestore
0.000 0.614 1.000 setrgbcolor
gsave
23.52 352.8 458.5 44.1 clipbox
0 0 p4_47
gsave
fill
grestore
stroke
grestore
0.000 0.629 1.000 setrgbcolor
gsave
23.52 352.8 458.5 44.1 clipbox
0 0 p4_48
gsave
fill
grestore
stroke
grestore
0.000 0.645 1.000 setrgbcolor
gsave
23.52 352.8 458.5 44.1 clipbox
0 0 p4_49
gsave
fill
grestore
stroke
grestore
0.000 0.661 1.000 setrgbcolor
gsave
23.52 352.8 458.5 44.1 clipbox
0 0 p4_4a
gsave
fill
grestore
stroke
grestore
0.000 0.676 1.000 setrgbcolor
gsave
23.52 352.8 458.5 44.1 clipbox
0 0 p4_4b
gsave
fill
grestore
stroke
grestore
0.000 0.692 1.000 setrgbcolor
gsave
23.52 352.8 458.5 44.1 clipbox
0 0 p4_4c
gsave
fill
grestore
stroke
grestore
0.000 0.708 1.000 setrgbcolor
gsave
23.52 352.8 458.5 44.1 clipbox
0 0 p4_4d
gsave
fill
grestore
stroke
grestore
0.000 0.724 1.000 setrgbcolor
gsave
23.52 352.8 458.5 44.1 clipbox
0 0 p4_4e
gsave
fill
grestore
stroke
grestore
0.000 0.739 1.000 setrgbcolor
gsave
23.52 352.8 458.5 44.1 clipbox
0 0 p4_4f
gsave
fill
grestore
stroke
grestore
0.000 0.755 1.000 setrgbcolor
gsave
23.52 352.8 458.5 44.1 clipbox
0 0 p4_50
gsave
fill
grestore
stroke
grestore
0.000 0.771 1.000 setrgbcolor
gsave
23.52 352.8 458.5 44.1 clipbox
0 0 p4_51
gsave
fill
grestore
stroke
grestore
0.000 0.786 1.000 setrgbcolor
gsave
23.52 352.8 458.5 44.1 clipbox
0 0 p4_52
gsave
fill
grestore
stroke
grestore
0.000 0.802 1.000 setrgbcolor
gsave
23.52 352.8 458.5 44.1 clipbox
0 0 p4_53
gsave
fill
grestore
stroke
grestore
0.000 0.818 1.000 setrgbcolor
gsave
23.52 352.8 458.5 44.1 clipbox
0 0 p4_54
gsave
fill
grestore
stroke
grestore
0.000 0.833 1.000 setrgbcolor
gsave
23.52 352.8 458.5 44.1 clipbox
0 0 p4_55
gsave
fill
grestore
stroke
grestore
0.000 0.849 1.000 setrgbcolor
gsave
23.52 352.8 458.5 44.1 clipbox
0 0 p4_56
gsave
fill
grestore
stroke
grestore
0.000 0.865 0.996 setrgbcolor
gsave
23.52 352.8 458.5 44.1 clipbox
0 0 p4_57
gsave
fill
grestore
stroke
grestore
0.000 0.880 0.984 setrgbcolor
gsave
23.52 352.8 458.5 44.1 clipbox
0 0 p4_58
gsave
fill
grestore
stroke
grestore
0.000 0.896 0.971 setrgbcolor
gsave
23.52 352.8 458.5 44.1 clipbox
0 0 p4_59
gsave
fill
grestore
stroke
grestore
0.009 0.912 0.958 setrgbcolor
gsave
23.52 352.8 458.5 44.1 clipbox
0 0 p4_5a
gsave
fill
grestore
stroke
grestore
0.022 0.927 0.946 setrgbcolor
gsave
23.52 352.8 458.5 44.1 clipbox
0 0 p4_5b
gsave
fill
grestore
stroke
grestore
0.035 0.943 0.933 setrgbcolor
gsave
23.52 352.8 458.5 44.1 clipbox
0 0 p4_5c
gsave
fill
grestore
stroke
grestore
0.047 0.959 0.920 setrgbcolor
gsave
23.52 352.8 458.5 44.1 clipbox
0 0 p4_5d
gsave
fill
grestore
stroke
grestore
0.060 0.975 0.908 setrgbcolor
gsave
23.52 352.8 458.5 44.1 clipbox
0 0 p4_5e
gsave
fill
grestore
stroke
grestore
0.073 0.990 0.895 setrgbcolor
gsave
23.52 352.8 458.5 44.1 clipbox
0 0 p4_5f
gsave
fill
grestore
stroke
grestore
0.085 1.000 0.882 setrgbcolor
gsave
23.52 352.8 458.5 44.1 clipbox
0 0 p4_60
gsave
fill
grestore
stroke
grestore
0.098 1.000 0.870 setrgbcolor
gsave
23.52 352.8 458.5 44.1 clipbox
0 0 p4_61
gsave
fill
grestore
stroke
grestore
0.111 1.000 0.857 setrgbcolor
gsave
23.52 352.8 458.5 44.1 clipbox
0 0 p4_62
gsave
fill
grestore
stroke
grestore
0.123 1.000 0.844 setrgbcolor
gsave
23.52 352.8 458.5 44.1 clipbox
0 0 p4_63
gsave
fill
grestore
stroke
grestore
0.136 1.000 0.832 setrgbcolor
gsave
23.52 352.8 458.5 44.1 clipbox
0 0 p4_64
gsave
fill
grestore
stroke
grestore
0.149 1.000 0.819 setrgbcolor
gsave
23.52 352.8 458.5 44.1 clipbox
0 0 p4_65
gsave
fill
grestore
stroke
grestore
0.161 1.000 0.806 setrgbcolor
gsave
23.52 352.8 458.5 44.1 clipbox
0 0 p4_66
gsave
fill
grestore
stroke
grestore
0.174 1.000 0.794 setrgbcolor
gsave
23.52 352.8 458.5 44.1 clipbox
0 0 p4_67
gsave
fill
grestore
stroke
grestore
0.187 1.000 0.781 setrgbcolor
gsave
23.52 352.8 458.5 44.1 clipbox
0 0 p4_68
gsave
fill
grestore
stroke
grestore
0.199 1.000 0.769 setrgbcolor
gsave
23.52 352.8 458.5 44.1 clipbox
0 0 p4_69
gsave
fill
grestore
stroke
grestore
0.212 1.000 0.756 setrgbcolor
gsave
23.52 352.8 458.5 44.1 clipbox
0 0 p4_6a
gsave
fill
grestore
stroke
grestore
0.225 1.000 0.743 setrgbcolor
gsave
23.52 352.8 458.5 44.1 clipbox
0 0 p4_6b
gsave
fill
grestore
stroke
grestore
0.237 1.000 0.731 setrgbcolor
gsave
23.52 352.8 458.5 44.1 clipbox
0 0 p4_6c
gsave
fill
grestore
stroke
grestore
0.250 1.000 0.718 setrgbcolor
gsave
23.52 352.8 458.5 44.1 clipbox
0 0 p4_6d
gsave
fill
grestore
stroke
grestore
0.262 1.000 0.705 setrgbcolor
gsave
23.52 352.8 458.5 44.1 clipbox
0 0 p4_6e
gsave
fill
grestore
stroke
grestore
0.275 1.000 0.693 setrgbcolor
gsave
23.52 352.8 458.5 44.1 clipbox
0 0 p4_6f
gsave
fill
grestore
stroke
grestore
0.288 1.000 0.680 setrgbcolor
gsave
23.52 352.8 458.5 44.1 clipbox
0 0 p4_70
gsave
fill
grestore
stroke
grestore
0.300 1.000 0.667 setrgbcolor
gsave
23.52 352.8 458.5 44.1 clipbox
0 0 p4_71
gsave
fill
grestore
stroke
grestore
0.313 1.000 0.655 setrgbcolor
gsave
23.52 352.8 458.5 44.1 clipbox
0 0 p4_72
gsave
fill
grestore
stroke
grestore
0.326 1.000 0.642 setrgbcolor
gsave
23.52 352.8 458.5 44.1 clipbox
0 0 p4_73
gsave
fill
grestore
stroke
grestore
0.338 1.000 0.629 setrgbcolor
gsave
23.52 352.8 458.5 44.1 clipbox
0 0 p4_74
gsave
fill
grestore
stroke
grestore
0.351 1.000 0.617 setrgbcolor
gsave
23.52 352.8 458.5 44.1 clipbox
0 0 p4_75
gsave
fill
grestore
stroke
grestore
0.364 1.000 0.604 setrgbcolor
gsave
23.52 352.8 458.5 44.1 clipbox
0 0 p4_76
gsave
fill
grestore
stroke
grestore
0.376 1.000 0.591 setrgbcolor
gsave
23.52 352.8 458.5 44.1 clipbox
0 0 p4_77
gsave
fill
grestore
stroke
grestore
0.389 1.000 0.579 setrgbcolor
gsave
23.52 352.8 458.5 44.1 clipbox
0 0 p4_78
gsave
fill
grestore
stroke
grestore
0.402 1.000 0.566 setrgbcolor
gsave
23.52 352.8 458.5 44.1 clipbox
0 0 p4_79
gsave
fill
grestore
stroke
grestore
0.414 1.000 0.553 setrgbcolor
gsave
23.52 352.8 458.5 44.1 clipbox
0 0 p4_7a
gsave
fill
grestore
stroke
grestore
0.427 1.000 0.541 setrgbcolor
gsave
23.52 352.8 458.5 44.1 clipbox
0 0 p4_7b
gsave
fill
grestore
stroke
grestore
0.440 1.000 0.528 setrgbcolor
gsave
23.52 352.8 458.5 44.1 clipbox
0 0 p4_7c
gsave
fill
grestore
stroke
grestore
0.452 1.000 0.515 setrgbcolor
gsave
23.52 352.8 458.5 44.1 clipbox
0 0 p4_7d
gsave
fill
grestore
stroke
grestore
0.465 1.000 0.503 setrgbcolor
gsave
23.52 352.8 458.5 44.1 clipbox
0 0 p4_7e
gsave
fill
grestore
stroke
grestore
0.478 1.000 0.490 setrgbcolor
gsave
23.52 352.8 458.5 44.1 clipbox
0 0 p4_7f
gsave
fill
grestore
stroke
grestore
0.490 1.000 0.478 setrgbcolor
gsave
23.52 352.8 458.5 44.1 clipbox
0 0 p4_80
gsave
fill
grestore
stroke
grestore
0.503 1.000 0.465 setrgbcolor
gsave
23.52 352.8 458.5 44.1 clipbox
0 0 p4_81
gsave
fill
grestore
stroke
grestore
0.515 1.000 0.452 setrgbcolor
gsave
23.52 352.8 458.5 44.1 clipbox
0 0 p4_82
gsave
fill
grestore
stroke
grestore
0.528 1.000 0.440 setrgbcolor
gsave
23.52 352.8 458.5 44.1 clipbox
0 0 p4_83
gsave
fill
grestore
stroke
grestore
0.541 1.000 0.427 setrgbcolor
gsave
23.52 352.8 458.5 44.1 clipbox
0 0 p4_84
gsave
fill
grestore
stroke
grestore
0.553 1.000 0.414 setrgbcolor
gsave
23.52 352.8 458.5 44.1 clipbox
0 0 p4_85
gsave
fill
grestore
stroke
grestore
0.566 1.000 0.402 setrgbcolor
gsave
23.52 352.8 458.5 44.1 clipbox
0 0 p4_86
gsave
fill
grestore
stroke
grestore
0.579 1.000 0.389 setrgbcolor
gsave
23.52 352.8 458.5 44.1 clipbox
0 0 p4_87
gsave
fill
grestore
stroke
grestore
0.591 1.000 0.376 setrgbcolor
gsave
23.52 352.8 458.5 44.1 clipbox
0 0 p4_88
gsave
fill
grestore
stroke
grestore
0.604 1.000 0.364 setrgbcolor
gsave
23.52 352.8 458.5 44.1 clipbox
0 0 p4_89
gsave
fill
grestore
stroke
grestore
0.617 1.000 0.351 setrgbcolor
gsave
23.52 352.8 458.5 44.1 clipbox
0 0 p4_8a
gsave
fill
grestore
stroke
grestore
0.629 1.000 0.338 setrgbcolor
gsave
23.52 352.8 458.5 44.1 clipbox
0 0 p4_8b
gsave
fill
grestore
stroke
grestore
0.642 1.000 0.326 setrgbcolor
gsave
23.52 352.8 458.5 44.1 clipbox
0 0 p4_8c
gsave
fill
grestore
stroke
grestore
0.655 1.000 0.313 setrgbcolor
gsave
23.52 352.8 458.5 44.1 clipbox
0 0 p4_8d
gsave
fill
grestore
stroke
grestore
0.667 1.000 0.300 setrgbcolor
gsave
23.52 352.8 458.5 44.1 clipbox
0 0 p4_8e
gsave
fill
grestore
stroke
grestore
0.680 1.000 0.288 setrgbcolor
gsave
23.52 352.8 458.5 44.1 clipbox
0 0 p4_8f
gsave
fill
grestore
stroke
grestore
0.693 1.000 0.275 setrgbcolor
gsave
23.52 352.8 458.5 44.1 clipbox
0 0 p4_90
gsave
fill
grestore
stroke
grestore
0.705 1.000 0.262 setrgbcolor
gsave
23.52 352.8 458.5 44.1 clipbox
0 0 p4_91
gsave
fill
grestore
stroke
grestore
0.718 1.000 0.250 setrgbcolor
gsave
23.52 352.8 458.5 44.1 clipbox
0 0 p4_92
gsave
fill
grestore
stroke
grestore
0.731 1.000 0.237 setrgbcolor
gsave
23.52 352.8 458.5 44.1 clipbox
0 0 p4_93
gsave
fill
grestore
stroke
grestore
0.743 1.000 0.225 setrgbcolor
gsave
23.52 352.8 458.5 44.1 clipbox
0 0 p4_94
gsave
fill
grestore
stroke
grestore
0.756 1.000 0.212 setrgbcolor
gsave
23.52 352.8 458.5 44.1 clipbox
0 0 p4_95
gsave
fill
grestore
stroke
grestore
0.769 1.000 0.199 setrgbcolor
gsave
23.52 352.8 458.5 44.1 clipbox
0 0 p4_96
gsave
fill
grestore
stroke
grestore
0.781 1.000 0.187 setrgbcolor
gsave
23.52 352.8 458.5 44.1 clipbox
0 0 p4_97
gsave
fill
grestore
stroke
grestore
0.794 1.000 0.174 setrgbcolor
gsave
23.52 352.8 458.5 44.1 clipbox
0 0 p4_98
gsave
fill
grestore
stroke
grestore
0.806 1.000 0.161 setrgbcolor
gsave
23.52 352.8 458.5 44.1 clipbox
0 0 p4_99
gsave
fill
grestore
stroke
grestore
0.819 1.000 0.149 setrgbcolor
gsave
23.52 352.8 458.5 44.1 clipbox
0 0 p4_9a
gsave
fill
grestore
stroke
grestore
0.832 1.000 0.136 setrgbcolor
gsave
23.52 352.8 458.5 44.1 clipbox
0 0 p4_9b
gsave
fill
grestore
stroke
grestore
0.844 1.000 0.123 setrgbcolor
gsave
23.52 352.8 458.5 44.1 clipbox
0 0 p4_9c
gsave
fill
grestore
stroke
grestore
0.857 1.000 0.111 setrgbcolor
gsave
23.52 352.8 458.5 44.1 clipbox
0 0 p4_9d
gsave
fill
grestore
stroke
grestore
0.870 1.000 0.098 setrgbcolor
gsave
23.52 352.8 458.5 44.1 clipbox
0 0 p4_9e
gsave
fill
grestore
stroke
grestore
0.882 1.000 0.085 setrgbcolor
gsave
23.52 352.8 458.5 44.1 clipbox
0 0 p4_9f
gsave
fill
grestore
stroke
grestore
0.895 1.000 0.073 setrgbcolor
gsave
23.52 352.8 458.5 44.1 clipbox
0 0 p4_a0
gsave
fill
grestore
stroke
grestore
0.908 1.000 0.060 setrgbcolor
gsave
23.52 352.8 458.5 44.1 clipbox
0 0 p4_a1
gsave
fill
grestore
stroke
grestore
0.920 1.000 0.047 setrgbcolor
gsave
23.52 352.8 458.5 44.1 clipbox
0 0 p4_a2
gsave
fill
grestore
stroke
grestore
0.933 1.000 0.035 setrgbcolor
gsave
23.52 352.8 458.5 44.1 clipbox
0 0 p4_a3
gsave
fill
grestore
stroke
grestore
0.946 0.988 0.022 setrgbcolor
gsave
23.52 352.8 458.5 44.1 clipbox
0 0 p4_a4
gsave
fill
grestore
stroke
grestore
0.958 0.974 0.009 setrgbcolor
gsave
23.52 352.8 458.5 44.1 clipbox
0 0 p4_a5
gsave
fill
grestore
stroke
grestore
0.971 0.959 0.000 setrgbcolor
gsave
23.52 352.8 458.5 44.1 clipbox
0 0 p4_a6
gsave
fill
grestore
stroke
grestore
0.984 0.945 0.000 setrgbcolor
gsave
23.52 352.8 458.5 44.1 clipbox
0 0 p4_a7
gsave
fill
grestore
stroke
grestore
0.996 0.930 0.000 setrgbcolor
gsave
23.52 352.8 458.5 44.1 clipbox
0 0 p4_a8
gsave
fill
grestore
stroke
grestore
1.000 0.916 0.000 setrgbcolor
gsave
23.52 352.8 458.5 44.1 clipbox
0 0 p4_a9
gsave
fill
grestore
stroke
grestore
1.000 0.901 0.000 setrgbcolor
gsave
23.52 352.8 458.5 44.1 clipbox
0 0 p4_aa
gsave
fill
grestore
stroke
grestore
1.000 0.887 0.000 setrgbcolor
gsave
23.52 352.8 458.5 44.1 clipbox
0 0 p4_ab
gsave
fill
grestore
stroke
grestore
1.000 0.872 0.000 setrgbcolor
gsave
23.52 352.8 458.5 44.1 clipbox
0 0 p4_ac
gsave
fill
grestore
stroke
grestore
1.000 0.858 0.000 setrgbcolor
gsave
23.52 352.8 458.5 44.1 clipbox
0 0 p4_ad
gsave
fill
grestore
stroke
grestore
1.000 0.843 0.000 setrgbcolor
gsave
23.52 352.8 458.5 44.1 clipbox
0 0 p4_ae
gsave
fill
grestore
stroke
grestore
1.000 0.829 0.000 setrgbcolor
gsave
23.52 352.8 458.5 44.1 clipbox
0 0 p4_af
gsave
fill
grestore
stroke
grestore
1.000 0.814 0.000 setrgbcolor
gsave
23.52 352.8 458.5 44.1 clipbox
0 0 p4_b0
gsave
fill
grestore
stroke
grestore
1.000 0.800 0.000 setrgbcolor
gsave
23.52 352.8 458.5 44.1 clipbox
0 0 p4_b1
gsave
fill
grestore
stroke
grestore
1.000 0.785 0.000 setrgbcolor
gsave
23.52 352.8 458.5 44.1 clipbox
0 0 p4_b2
gsave
fill
grestore
stroke
grestore
1.000 0.771 0.000 setrgbcolor
gsave
23.52 352.8 458.5 44.1 clipbox
0 0 p4_b3
gsave
fill
grestore
stroke
grestore
1.000 0.756 0.000 setrgbcolor
gsave
23.52 352.8 458.5 44.1 clipbox
0 0 p4_b4
gsave
fill
grestore
stroke
grestore
1.000 0.741 0.000 setrgbcolor
gsave
23.52 352.8 458.5 44.1 clipbox
0 0 p4_b5
gsave
fill
grestore
stroke
grestore
1.000 0.727 0.000 setrgbcolor
gsave
23.52 352.8 458.5 44.1 clipbox
0 0 p4_b6
gsave
fill
grestore
stroke
grestore
1.000 0.712 0.000 setrgbcolor
gsave
23.52 352.8 458.5 44.1 clipbox
0 0 p4_b7
gsave
fill
grestore
stroke
grestore
1.000 0.698 0.000 setrgbcolor
gsave
23.52 352.8 458.5 44.1 clipbox
0 0 p4_b8
gsave
fill
grestore
stroke
grestore
1.000 0.683 0.000 setrgbcolor
gsave
23.52 352.8 458.5 44.1 clipbox
0 0 p4_b9
gsave
fill
grestore
stroke
grestore
1.000 0.669 0.000 setrgbcolor
gsave
23.52 352.8 458.5 44.1 clipbox
0 0 p4_ba
gsave
fill
grestore
stroke
grestore
1.000 0.654 0.000 setrgbcolor
gsave
23.52 352.8 458.5 44.1 clipbox
0 0 p4_bb
gsave
fill
grestore
stroke
grestore
1.000 0.640 0.000 setrgbcolor
gsave
23.52 352.8 458.5 44.1 clipbox
0 0 p4_bc
gsave
fill
grestore
stroke
grestore
1.000 0.625 0.000 setrgbcolor
gsave
23.52 352.8 458.5 44.1 clipbox
0 0 p4_bd
gsave
fill
grestore
stroke
grestore
1.000 0.611 0.000 setrgbcolor
gsave
23.52 352.8 458.5 44.1 clipbox
0 0 p4_be
gsave
fill
grestore
stroke
grestore
1.000 0.596 0.000 setrgbcolor
gsave
23.52 352.8 458.5 44.1 clipbox
0 0 p4_bf
gsave
fill
grestore
stroke
grestore
1.000 0.582 0.000 setrgbcolor
gsave
23.52 352.8 458.5 44.1 clipbox
0 0 p4_c0
gsave
fill
grestore
stroke
grestore
1.000 0.567 0.000 setrgbcolor
gsave
23.52 352.8 458.5 44.1 clipbox
0 0 p4_c1
gsave
fill
grestore
stroke
grestore
1.000 0.553 0.000 setrgbcolor
gsave
23.52 352.8 458.5 44.1 clipbox
0 0 p4_c2
gsave
fill
grestore
stroke
grestore
1.000 0.538 0.000 setrgbcolor
gsave
23.52 352.8 458.5 44.1 clipbox
0 0 p4_c3
gsave
fill
grestore
stroke
grestore
1.000 0.524 0.000 setrgbcolor
gsave
23.52 352.8 458.5 44.1 clipbox
0 0 p4_c4
gsave
fill
grestore
stroke
grestore
1.000 0.509 0.000 setrgbcolor
gsave
23.52 352.8 458.5 44.1 clipbox
0 0 p4_c5
gsave
fill
grestore
stroke
grestore
1.000 0.495 0.000 setrgbcolor
gsave
23.52 352.8 458.5 44.1 clipbox
0 0 p4_c6
gsave
fill
grestore
stroke
grestore
1.000 0.480 0.000 setrgbcolor
gsave
23.52 352.8 458.5 44.1 clipbox
0 0 p4_c7
gsave
fill
grestore
stroke
grestore
1.000 0.466 0.000 setrgbcolor
gsave
23.52 352.8 458.5 44.1 clipbox
0 0 p4_c8
gsave
fill
grestore
stroke
grestore
1.000 0.451 0.000 setrgbcolor
gsave
23.52 352.8 458.5 44.1 clipbox
0 0 p4_c9
gsave
fill
grestore
stroke
grestore
1.000 0.436 0.000 setrgbcolor
gsave
23.52 352.8 458.5 44.1 clipbox
0 0 p4_ca
gsave
fill
grestore
stroke
grestore
1.000 0.422 0.000 setrgbcolor
gsave
23.52 352.8 458.5 44.1 clipbox
0 0 p4_cb
gsave
fill
grestore
stroke
grestore
1.000 0.407 0.000 setrgbcolor
gsave
23.52 352.8 458.5 44.1 clipbox
0 0 p4_cc
gsave
fill
grestore
stroke
grestore
1.000 0.393 0.000 setrgbcolor
gsave
23.52 352.8 458.5 44.1 clipbox
0 0 p4_cd
gsave
fill
grestore
stroke
grestore
1.000 0.378 0.000 setrgbcolor
gsave
23.52 352.8 458.5 44.1 clipbox
0 0 p4_ce
gsave
fill
grestore
stroke
grestore
1.000 0.364 0.000 setrgbcolor
gsave
23.52 352.8 458.5 44.1 clipbox
0 0 p4_cf
gsave
fill
grestore
stroke
grestore
1.000 0.349 0.000 setrgbcolor
gsave
23.52 352.8 458.5 44.1 clipbox
0 0 p4_d0
gsave
fill
grestore
stroke
grestore
1.000 0.335 0.000 setrgbcolor
gsave
23.52 352.8 458.5 44.1 clipbox
0 0 p4_d1
gsave
fill
grestore
stroke
grestore
1.000 0.320 0.000 setrgbcolor
gsave
23.52 352.8 458.5 44.1 clipbox
0 0 p4_d2
gsave
fill
grestore
stroke
grestore
1.000 0.306 0.000 setrgbcolor
gsave
23.52 352.8 458.5 44.1 clipbox
0 0 p4_d3
gsave
fill
grestore
stroke
grestore
1.000 0.291 0.000 setrgbcolor
gsave
23.52 352.8 458.5 44.1 clipbox
0 0 p4_d4
gsave
fill
grestore
stroke
grestore
1.000 0.277 0.000 setrgbcolor
gsave
23.52 352.8 458.5 44.1 clipbox
0 0 p4_d5
gsave
fill
grestore
stroke
grestore
1.000 0.262 0.000 setrgbcolor
gsave
23.52 352.8 458.5 44.1 clipbox
0 0 p4_d6
gsave
fill
grestore
stroke
grestore
1.000 0.248 0.000 setrgbcolor
gsave
23.52 352.8 458.5 44.1 clipbox
0 0 p4_d7
gsave
fill
grestore
stroke
grestore
1.000 0.233 0.000 setrgbcolor
gsave
23.52 352.8 458.5 44.1 clipbox
0 0 p4_d8
gsave
fill
grestore
stroke
grestore
1.000 0.219 0.000 setrgbcolor
gsave
23.52 352.8 458.5 44.1 clipbox
0 0 p4_d9
gsave
fill
grestore
stroke
grestore
1.000 0.204 0.000 setrgbcolor
gsave
23.52 352.8 458.5 44.1 clipbox
0 0 p4_da
gsave
fill
grestore
stroke
grestore
1.000 0.190 0.000 setrgbcolor
gsave
23.52 352.8 458.5 44.1 clipbox
0 0 p4_db
gsave
fill
grestore
stroke
grestore
1.000 0.175 0.000 setrgbcolor
gsave
23.52 352.8 458.5 44.1 clipbox
0 0 p4_dc
gsave
fill
grestore
stroke
grestore
1.000 0.160 0.000 setrgbcolor
gsave
23.52 352.8 458.5 44.1 clipbox
0 0 p4_dd
gsave
fill
grestore
stroke
grestore
1.000 0.146 0.000 setrgbcolor
gsave
23.52 352.8 458.5 44.1 clipbox
0 0 p4_de
gsave
fill
grestore
stroke
grestore
1.000 0.131 0.000 setrgbcolor
gsave
23.52 352.8 458.5 44.1 clipbox
0 0 p4_df
gsave
fill
grestore
stroke
grestore
1.000 0.117 0.000 setrgbcolor
gsave
23.52 352.8 458.5 44.1 clipbox
0 0 p4_e0
gsave
fill
grestore
stroke
grestore
1.000 0.102 0.000 setrgbcolor
gsave
23.52 352.8 458.5 44.1 clipbox
0 0 p4_e1
gsave
fill
grestore
stroke
grestore
1.000 0.088 0.000 setrgbcolor
gsave
23.52 352.8 458.5 44.1 clipbox
0 0 p4_e2
gsave
fill
grestore
stroke
grestore
0.999 0.073 0.000 setrgbcolor
gsave
23.52 352.8 458.5 44.1 clipbox
0 0 p4_e3
gsave
fill
grestore
stroke
grestore
0.981 0.059 0.000 setrgbcolor
gsave
23.52 352.8 458.5 44.1 clipbox
0 0 p4_e4
gsave
fill
grestore
stroke
grestore
0.963 0.044 0.000 setrgbcolor
gsave
23.52 352.8 458.5 44.1 clipbox
0 0 p4_e5
gsave
fill
grestore
stroke
grestore
0.946 0.030 0.000 setrgbcolor
gsave
23.52 352.8 458.5 44.1 clipbox
0 0 p4_e6
gsave
fill
grestore
stroke
grestore
0.928 0.015 0.000 setrgbcolor
gsave
23.52 352.8 458.5 44.1 clipbox
0 0 p4_e7
gsave
fill
grestore
stroke
grestore
0.910 0.001 0.000 setrgbcolor
gsave
23.52 352.8 458.5 44.1 clipbox
0 0 p4_e8
gsave
fill
grestore
stroke
grestore
0.892 0.000 0.000 setrgbcolor
gsave
23.52 352.8 458.5 44.1 clipbox
0 0 p4_e9
gsave
fill
grestore
stroke
grestore
0.874 0.000 0.000 setrgbcolor
gsave
23.52 352.8 458.5 44.1 clipbox
0 0 p4_ea
gsave
fill
grestore
stroke
grestore
0.857 0.000 0.000 setrgbcolor
gsave
23.52 352.8 458.5 44.1 clipbox
0 0 p4_eb
gsave
fill
grestore
stroke
grestore
0.839 0.000 0.000 setrgbcolor
gsave
23.52 352.8 458.5 44.1 clipbox
0 0 p4_ec
gsave
fill
grestore
stroke
grestore
0.821 0.000 0.000 setrgbcolor
gsave
23.52 352.8 458.5 44.1 clipbox
0 0 p4_ed
gsave
fill
grestore
stroke
grestore
0.803 0.000 0.000 setrgbcolor
gsave
23.52 352.8 458.5 44.1 clipbox
0 0 p4_ee
gsave
fill
grestore
stroke
grestore
0.785 0.000 0.000 setrgbcolor
gsave
23.52 352.8 458.5 44.1 clipbox
0 0 p4_ef
gsave
fill
grestore
stroke
grestore
0.767 0.000 0.000 setrgbcolor
gsave
23.52 352.8 458.5 44.1 clipbox
0 0 p4_f0
gsave
fill
grestore
stroke
grestore
0.750 0.000 0.000 setrgbcolor
gsave
23.52 352.8 458.5 44.1 clipbox
0 0 p4_f1
gsave
fill
grestore
stroke
grestore
0.732 0.000 0.000 setrgbcolor
gsave
23.52 352.8 458.5 44.1 clipbox
0 0 p4_f2
gsave
fill
grestore
stroke
grestore
0.714 0.000 0.000 setrgbcolor
gsave
23.52 352.8 458.5 44.1 clipbox
0 0 p4_f3
gsave
fill
grestore
stroke
grestore
0.696 0.000 0.000 setrgbcolor
gsave
23.52 352.8 458.5 44.1 clipbox
0 0 p4_f4
gsave
fill
grestore
stroke
grestore
0.678 0.000 0.000 setrgbcolor
gsave
23.52 352.8 458.5 44.1 clipbox
0 0 p4_f5
gsave
fill
grestore
stroke
grestore
0.660 0.000 0.000 setrgbcolor
gsave
23.52 352.8 458.5 44.1 clipbox
0 0 p4_f6
gsave
fill
grestore
stroke
grestore
0.643 0.000 0.000 setrgbcolor
gsave
23.52 352.8 458.5 44.1 clipbox
0 0 p4_f7
gsave
fill
grestore
stroke
grestore
0.625 0.000 0.000 setrgbcolor
gsave
23.52 352.8 458.5 44.1 clipbox
0 0 p4_f8
gsave
fill
grestore
stroke
grestore
0.607 0.000 0.000 setrgbcolor
gsave
23.52 352.8 458.5 44.1 clipbox
0 0 p4_f9
gsave
fill
grestore
stroke
grestore
0.589 0.000 0.000 setrgbcolor
gsave
23.52 352.8 458.5 44.1 clipbox
0 0 p4_fa
gsave
fill
grestore
stroke
grestore
0.571 0.000 0.000 setrgbcolor
gsave
23.52 352.8 458.5 44.1 clipbox
0 0 p4_fb
gsave
fill
grestore
stroke
grestore
0.553 0.000 0.000 setrgbcolor
gsave
23.52 352.8 458.5 44.1 clipbox
0 0 p4_fc
gsave
fill
grestore
stroke
grestore
0.536 0.000 0.000 setrgbcolor
gsave
23.52 352.8 458.5 44.1 clipbox
0 0 p4_fd
gsave
fill
grestore
stroke
grestore
0.518 0.000 0.000 setrgbcolor
gsave
23.52 352.8 458.5 44.1 clipbox
0 0 p4_fe
gsave
fill
grestore
stroke
grestore
0.500 0.000 0.000 setrgbcolor
gsave
23.52 352.8 458.5 44.1 clipbox
0 0 p4_ff
gsave
fill
grestore
stroke
grestore
2 setlinecap
0.000 setgray
gsave
458.494 44.1 m
458.494 45.4781 l
458.494 395.522 l
458.494 396.9 l
482.014 396.9 l
482.014 395.522 l
482.014 45.4781 l
482.014 44.1 l
458.494 44.1 l
stroke
grestore
0.500 setlinewidth
0 setlinecap
gsave
/o {
gsave
newpath
translate
0.5 setlinewidth
1 setlinejoin
0 setlinecap
0 0 m
-4 0 l
gsave
0.000 setgray
fill
grestore
stroke
grestore
} bind def
482.014 67.5859 o
grestore
/DejaVuSans findfont
12.000 scalefont
setfont
gsave
486.013750 63.046879 translate
0.000000 rotate
0.000000 0.171875 m /minus glyphshow
10.054688 0.171875 m /zero glyphshow
17.689453 0.171875 m /period glyphshow
21.503906 0.171875 m /three glyphshow
29.138672 0.171875 m /two glyphshow
grestore
gsave
/o {
gsave
newpath
translate
0.5 setlinewidth
1 setlinejoin
0 setlinecap
0 0 m
-4 0 l
gsave
0.000 setgray
fill
grestore
stroke
grestore
} bind def
482.014 105.779 o
grestore
gsave
486.013750 101.240039 translate
0.000000 rotate
0.000000 0.171875 m /minus glyphshow
10.054688 0.171875 m /zero glyphshow
17.689453 0.171875 m /period glyphshow
21.503906 0.171875 m /two glyphshow
29.138672 0.171875 m /four glyphshow
grestore
gsave
/o {
gsave
newpath
translate
0.5 setlinewidth
1 setlinejoin
0 setlinecap
0 0 m
-4 0 l
gsave
0.000 setgray
fill
grestore
stroke
grestore
} bind def
482.014 143.972 o
grestore
gsave
486.013750 139.433198 translate
0.000000 rotate
0.000000 0.171875 m /minus glyphshow
10.054688 0.171875 m /zero glyphshow
17.689453 0.171875 m /period glyphshow
21.503906 0.171875 m /one glyphshow
29.138672 0.171875 m /six glyphshow
grestore
gsave
/o {
gsave
newpath
translate
0.5 setlinewidth
1 setlinejoin
0 setlinecap
0 0 m
-4 0 l
gsave
0.000 setgray
fill
grestore
stroke
grestore
} bind def
482.014 182.165 o
grestore
gsave
486.013750 177.626358 translate
0.000000 rotate
0.000000 0.171875 m /minus glyphshow
10.054688 0.171875 m /zero glyphshow
17.689453 0.171875 m /period glyphshow
21.503906 0.171875 m /zero glyphshow
29.138672 0.171875 m /eight glyphshow
grestore
gsave
/o {
gsave
newpath
translate
0.5 setlinewidth
1 setlinejoin
0 setlinecap
0 0 m
-4 0 l
gsave
0.000 setgray
fill
grestore
stroke
grestore
} bind def
482.014 220.359 o
grestore
gsave
486.013750 215.819517 translate
0.000000 rotate
0.000000 0.171875 m /zero glyphshow
7.634766 0.171875 m /period glyphshow
11.449219 0.171875 m /zero glyphshow
19.083984 0.171875 m /zero glyphshow
grestore
gsave
/o {
gsave
newpath
translate
0.5 setlinewidth
1 setlinejoin
0 setlinecap
0 0 m
-4 0 l
gsave
0.000 setgray
fill
grestore
stroke
grestore
} bind def
482.014 258.552 o
grestore
gsave
486.013750 254.012677 translate
0.000000 rotate
0.000000 0.171875 m /zero glyphshow
7.634766 0.171875 m /period glyphshow
11.449219 0.171875 m /zero glyphshow
19.083984 0.171875 m /eight glyphshow
grestore
gsave
/o {
gsave
newpath
translate
0.5 setlinewidth
1 setlinejoin
0 setlinecap
0 0 m
-4 0 l
gsave
0.000 setgray
fill
grestore
stroke
grestore
} bind def
482.014 296.745 o
grestore
gsave
486.013750 292.205836 translate
0.000000 rotate
0.000000 0.171875 m /zero glyphshow
7.634766 0.171875 m /period glyphshow
11.449219 0.171875 m /one glyphshow
19.083984 0.171875 m /six glyphshow
grestore
gsave
/o {
gsave
newpath
translate
0.5 setlinewidth
1 setlinejoin
0 setlinecap
0 0 m
-4 0 l
gsave
0.000 setgray
fill
grestore
stroke
grestore
} bind def
482.014 334.938 o
grestore
gsave
486.013750 330.398996 translate
0.000000 rotate
0.000000 0.171875 m /zero glyphshow
7.634766 0.171875 m /period glyphshow
11.449219 0.171875 m /two glyphshow
19.083984 0.171875 m /four glyphshow
grestore
gsave
/o {
gsave
newpath
translate
0.5 setlinewidth
1 setlinejoin
0 setlinecap
0 0 m
-4 0 l
gsave
0.000 setgray
fill
grestore
stroke
grestore
} bind def
482.014 373.131 o
grestore
gsave
486.013750 368.592156 translate
0.000000 rotate
0.000000 0.171875 m /zero glyphshow
7.634766 0.171875 m /period glyphshow
11.449219 0.171875 m /three glyphshow
19.083984 0.171875 m /two glyphshow
grestore

end
showpage
