\relax 
\newlabel{eq:nonlinear}{{1}{1}}
\@writefile{toc}{\contentsline {section}{\numberline {1}a}{1}}
\@writefile{toc}{\contentsline {section}{\numberline {2}c}{2}}
\@writefile{toc}{\contentsline {section}{\numberline {3}d}{2}}
\newlabel{tab:d}{{3}{2}}
\@writefile{lof}{\contentsline {figure}{\numberline {1}{\ignorespaces Solution at t=0.1}}{2}}
\newlabel{fig:d}{{1}{2}}
\@writefile{toc}{\contentsline {section}{\numberline {4}e}{2}}
\@writefile{lof}{\contentsline {figure}{\numberline {2}{\ignorespaces Comparing the exact solution with the FEM solution.}}{3}}
\@writefile{lof}{\contentsline {subfigure}{\numberline{(a)}{\ignorespaces {}}}{3}}
\@writefile{lof}{\contentsline {subfigure}{\numberline{(b)}{\ignorespaces {}}}{3}}
\@writefile{lof}{\contentsline {subfigure}{\numberline{(c)}{\ignorespaces {}}}{3}}
\@writefile{lof}{\contentsline {subfigure}{\numberline{(d)}{\ignorespaces {}}}{3}}
\@writefile{lof}{\contentsline {subfigure}{\numberline{(e)}{\ignorespaces {}}}{3}}
\@writefile{toc}{\contentsline {section}{\numberline {5}f}{4}}
\@writefile{toc}{\contentsline {section}{\numberline {6}h}{4}}
\@writefile{lof}{\contentsline {figure}{\numberline {3}{\ignorespaces Simulation of the nonlinear diffusion with a gaussian function. Three different times $t=0.1$, $t=0.5$ and $t=1.5$. No change with time?!}}{4}}
\@writefile{lof}{\contentsline {subfigure}{\numberline{(a)}{\ignorespaces {}}}{4}}
\@writefile{lof}{\contentsline {subfigure}{\numberline{(b)}{\ignorespaces {}}}{4}}
\@writefile{lof}{\contentsline {subfigure}{\numberline{(c)}{\ignorespaces {}}}{4}}
