%!PS-Adobe-3.0 EPSF-3.0
%%Title: u_plot.eps
%%Creator: matplotlib version 1.1.1rc, http://matplotlib.sourceforge.net/
%%CreationDate: Sat Dec  8 17:44:03 2012
%%Orientation: portrait
%%BoundingBox: 13 175 598 616
%%EndComments
%%BeginProlog
/mpldict 9 dict def
mpldict begin
/m { moveto } bind def
/l { lineto } bind def
/r { rlineto } bind def
/c { curveto } bind def
/cl { closepath } bind def
/box {
m
1 index 0 r
0 exch r
neg 0 r
cl
} bind def
/clipbox {
box
clip
newpath
} bind def
%!PS-Adobe-3.0 Resource-Font
%%Title: DejaVu Sans
%%Copyright: Copyright (c) 2003 by Bitstream, Inc. All Rights Reserved. Copyright (c) 2006 by Tavmjong Bah. All Rights Reserved. DejaVu changes are in public domain 
%%Creator: Converted from TrueType to type 3 by PPR
25 dict begin
/_d{bind def}bind def
/_m{moveto}_d
/_l{lineto}_d
/_cl{closepath eofill}_d
/_c{curveto}_d
/_sc{7 -1 roll{setcachedevice}{pop pop pop pop pop pop}ifelse}_d
/_e{exec}_d
/FontName /DejaVuSans def
/PaintType 0 def
/FontMatrix[.001 0 0 .001 0 0]def
/FontBBox[-1021 -415 1681 1167]def
/FontType 3 def
/Encoding [ /parenleft /parenright /period /zero /one /two /three /four /five /six /seven /eight /equal /T /u /x /minus ] def
/FontInfo 10 dict dup begin
/FamilyName (DejaVu Sans) def
/FullName (DejaVu Sans) def
/Notice (Copyright (c) 2003 by Bitstream, Inc. All Rights Reserved. Copyright (c) 2006 by Tavmjong Bah. All Rights Reserved. DejaVu changes are in public domain ) def
/Weight (Book) def
/Version (Version 2.33) def
/ItalicAngle 0.0 def
/isFixedPitch false def
/UnderlinePosition -130 def
/UnderlineThickness 90 def
end readonly def
/CharStrings 17 dict dup begin
/parenleft{390 0 86 -131 310 759 _sc
310 759 _m
266 683 234 609 213 536 _c
191 463 181 389 181 314 _c
181 238 191 164 213 91 _c
234 17 266 -56 310 -131 _c
232 -131 _l
183 -54 146 20 122 94 _c
98 168 86 241 86 314 _c
86 386 98 459 122 533 _c
146 607 182 682 232 759 _c
310 759 _l
_cl}_d
/parenright{390 0 80 -131 304 759 _sc
80 759 _m
158 759 _l
206 682 243 607 267 533 _c
291 459 304 386 304 314 _c
304 241 291 168 267 94 _c
243 20 206 -54 158 -131 _c
80 -131 _l
123 -56 155 17 177 91 _c
198 164 209 238 209 314 _c
209 389 198 463 177 536 _c
155 609 123 683 80 759 _c
_cl}_d
/period{318 0 107 0 210 124 _sc
107 124 _m
210 124 _l
210 0 _l
107 0 _l
107 124 _l
_cl}_d
/zero{636 0 66 -13 570 742 _sc
318 664 _m
267 664 229 639 203 589 _c
177 539 165 464 165 364 _c
165 264 177 189 203 139 _c
229 89 267 64 318 64 _c
369 64 407 89 433 139 _c
458 189 471 264 471 364 _c
471 464 458 539 433 589 _c
407 639 369 664 318 664 _c
318 742 _m
399 742 461 709 505 645 _c
548 580 570 486 570 364 _c
570 241 548 147 505 83 _c
461 19 399 -13 318 -13 _c
236 -13 173 19 130 83 _c
87 147 66 241 66 364 _c
66 486 87 580 130 645 _c
173 709 236 742 318 742 _c
_cl}_d
/one{636 0 110 0 544 729 _sc
124 83 _m
285 83 _l
285 639 _l
110 604 _l
110 694 _l
284 729 _l
383 729 _l
383 83 _l
544 83 _l
544 0 _l
124 0 _l
124 83 _l
_cl}_d
/two{{636 0 73 0 536 742 _sc
192 83 _m
536 83 _l
536 0 _l
73 0 _l
73 83 _l
110 121 161 173 226 239 _c
290 304 331 346 348 365 _c
380 400 402 430 414 455 _c
426 479 433 504 433 528 _c
433 566 419 598 392 622 _c
365 646 330 659 286 659 _c
255 659 222 653 188 643 _c
154 632 117 616 78 594 _c
78 694 _l
118 710 155 722 189 730 _c
223 738 255 742 284 742 _c
359 742 419 723 464 685 _c
509 647 532 597 532 534 _c
532 504 526 475 515 449 _c
504 422 484 390 454 354 _c
446 344 420 317 376 272 _c
332 227 271 164 192 83 _c
_cl}_e}_d
/three{{636 0 76 -13 556 742 _sc
406 393 _m
453 383 490 362 516 330 _c
542 298 556 258 556 212 _c
556 140 531 84 482 45 _c
432 6 362 -13 271 -13 _c
240 -13 208 -10 176 -4 _c
144 1 110 10 76 22 _c
76 117 _l
103 101 133 89 166 81 _c
198 73 232 69 268 69 _c
330 69 377 81 409 105 _c
441 129 458 165 458 212 _c
458 254 443 288 413 312 _c
383 336 341 349 287 349 _c
202 349 _l
202 430 _l
291 430 _l
339 430 376 439 402 459 _c
428 478 441 506 441 543 _c
441 580 427 609 401 629 _c
374 649 336 659 287 659 _c
260 659 231 656 200 650 _c
169 644 135 635 98 623 _c
98 711 _l
135 721 170 729 203 734 _c
235 739 266 742 296 742 _c
}_e{370 742 429 725 473 691 _c
517 657 539 611 539 553 _c
539 513 527 479 504 451 _c
481 423 448 403 406 393 _c
_cl}_e}_d
/four{636 0 49 0 580 729 _sc
378 643 _m
129 254 _l
378 254 _l
378 643 _l
352 729 _m
476 729 _l
476 254 _l
580 254 _l
580 172 _l
476 172 _l
476 0 _l
378 0 _l
378 172 _l
49 172 _l
49 267 _l
352 729 _l
_cl}_d
/five{{636 0 77 -13 549 729 _sc
108 729 _m
495 729 _l
495 646 _l
198 646 _l
198 467 _l
212 472 227 476 241 478 _c
255 480 270 482 284 482 _c
365 482 429 459 477 415 _c
525 370 549 310 549 234 _c
549 155 524 94 475 51 _c
426 8 357 -13 269 -13 _c
238 -13 207 -10 175 -6 _c
143 -1 111 6 77 17 _c
77 116 _l
106 100 136 88 168 80 _c
199 72 232 69 267 69 _c
323 69 368 83 401 113 _c
433 143 450 183 450 234 _c
450 284 433 324 401 354 _c
368 384 323 399 267 399 _c
241 399 214 396 188 390 _c
162 384 135 375 108 363 _c
108 729 _l
_cl}_e}_d
/six{{636 0 70 -13 573 742 _sc
330 404 _m
286 404 251 388 225 358 _c
199 328 186 286 186 234 _c
186 181 199 139 225 109 _c
251 79 286 64 330 64 _c
374 64 409 79 435 109 _c
461 139 474 181 474 234 _c
474 286 461 328 435 358 _c
409 388 374 404 330 404 _c
526 713 _m
526 623 _l
501 635 476 644 451 650 _c
425 656 400 659 376 659 _c
310 659 260 637 226 593 _c
192 549 172 482 168 394 _c
187 422 211 444 240 459 _c
269 474 301 482 336 482 _c
409 482 467 459 509 415 _c
551 371 573 310 573 234 _c
573 159 550 99 506 54 _c
462 9 403 -13 330 -13 _c
246 -13 181 19 137 83 _c
92 147 70 241 70 364 _c
70 479 97 571 152 639 _c
206 707 280 742 372 742 _c
}_e{396 742 421 739 447 735 _c
472 730 498 723 526 713 _c
_cl}_e}_d
/seven{636 0 82 0 551 729 _sc
82 729 _m
551 729 _l
551 687 _l
286 0 _l
183 0 _l
432 646 _l
82 646 _l
82 729 _l
_cl}_d
/eight{{636 0 68 -13 568 742 _sc
318 346 _m
271 346 234 333 207 308 _c
180 283 167 249 167 205 _c
167 161 180 126 207 101 _c
234 76 271 64 318 64 _c
364 64 401 76 428 102 _c
455 127 469 161 469 205 _c
469 249 455 283 429 308 _c
402 333 365 346 318 346 _c
219 388 _m
177 398 144 418 120 447 _c
96 476 85 511 85 553 _c
85 611 105 657 147 691 _c
188 725 245 742 318 742 _c
390 742 447 725 489 691 _c
530 657 551 611 551 553 _c
551 511 539 476 515 447 _c
491 418 459 398 417 388 _c
464 377 501 355 528 323 _c
554 291 568 251 568 205 _c
568 134 546 80 503 43 _c
459 5 398 -13 318 -13 _c
237 -13 175 5 132 43 _c
89 80 68 134 68 205 _c
68 251 81 291 108 323 _c
134 355 171 377 219 388 _c
}_e{183 544 _m
183 506 194 476 218 455 _c
242 434 275 424 318 424 _c
360 424 393 434 417 455 _c
441 476 453 506 453 544 _c
453 582 441 611 417 632 _c
393 653 360 664 318 664 _c
275 664 242 653 218 632 _c
194 611 183 582 183 544 _c
_cl}_e}_d
/equal{838 0 106 172 732 454 _sc
106 454 _m
732 454 _l
732 372 _l
106 372 _l
106 454 _l
106 255 _m
732 255 _l
732 172 _l
106 172 _l
106 255 _l
_cl}_d
/T{611 0 -2 0 614 729 _sc
-2 729 _m
614 729 _l
614 646 _l
355 646 _l
355 0 _l
256 0 _l
256 646 _l
-2 646 _l
-2 729 _l
_cl}_d
/u{634 0 85 -13 543 560 _sc
85 216 _m
85 547 _l
175 547 _l
175 219 _l
175 167 185 129 205 103 _c
225 77 255 64 296 64 _c
344 64 383 79 411 110 _c
439 141 453 183 453 237 _c
453 547 _l
543 547 _l
543 0 _l
453 0 _l
453 84 _l
431 50 405 26 377 10 _c
348 -5 315 -13 277 -13 _c
214 -13 166 6 134 45 _c
101 83 85 140 85 216 _c
_cl}_d
/x{592 0 29 0 559 547 _sc
549 547 _m
351 281 _l
559 0 _l
453 0 _l
294 215 _l
135 0 _l
29 0 _l
241 286 _l
47 547 _l
153 547 _l
298 352 _l
443 547 _l
549 547 _l
_cl}_d
/minus{838 0 106 272 732 355 _sc
106 355 _m
732 355 _l
732 272 _l
106 272 _l
106 355 _l
_cl}_d
end readonly def

/BuildGlyph
 {exch begin
 CharStrings exch
 2 copy known not{pop /.notdef}if
 true 3 1 roll get exec
 end}_d

/BuildChar {
 1 index /Encoding get exch get
 1 index /BuildGlyph get exec
}_d

FontName currentdict end definefont pop
%!PS-Adobe-3.0 Resource-Font
%%Title: cmmi10
%%Copyright: Copyright (C) 1994, Basil K. Malyshev. All Rights Reserved.012BaKoMa Fonts Collection, Level-B.
%%Creator: Converted from TrueType to type 3 by PPR
25 dict begin
/_d{bind def}bind def
/_m{moveto}_d
/_l{lineto}_d
/_cl{closepath eofill}_d
/_c{curveto}_d
/_sc{7 -1 roll{setcachedevice}{pop pop pop pop pop pop}ifelse}_d
/_e{exec}_d
/FontName /Cmmi10 def
/PaintType 0 def
/FontMatrix[.001 0 0 .001 0 0]def
/FontBBox[-34 -250 1048 750]def
/FontType 3 def
/Encoding [ /e /u ] def
/FontInfo 10 dict dup begin
/FamilyName (cmmi10) def
/FullName (cmmi10) def
/Notice (Copyright (C) 1994, Basil K. Malyshev. All Rights Reserved.012BaKoMa Fonts Collection, Level-B. ) def
/Weight (Regular) def
/Version (1.1/12-Nov-94) def
/ItalicAngle 0.0 def
/isFixedPitch false def
/UnderlinePosition -133 def
/UnderlineThickness 20 def
end readonly def
/CharStrings 2 dict dup begin
/e{{465 0 44 -10 430 442 _sc
201 -10 _m
169 -10 141 -2 117 14 _c
93 30 75 53 63 81 _c
50 109 44 138 44 170 _c
44 217 56 262 80 304 _c
104 346 136 379 177 404 _c
218 429 262 442 309 442 _c
337 442 362 434 384 419 _c
405 404 416 383 416 356 _c
416 317 400 288 370 270 _c
339 251 304 239 266 235 _c
228 231 185 229 139 229 _c
136 229 _l
125 189 120 155 120 127 _c
120 97 126 71 140 49 _c
154 26 175 15 203 15 _c
243 15 281 24 318 42 _c
354 60 384 86 407 118 _c
409 120 411 121 415 121 _c
418 121 421 119 425 115 _c
428 111 430 108 430 105 _c
430 102 429 100 428 99 _c
404 65 371 38 330 19 _c
288 0 245 -10 201 -10 _c
142 255 _m
}_e{180 255 216 256 249 260 _c
282 264 312 273 339 287 _c
365 301 379 324 379 355 _c
379 367 375 378 368 387 _c
361 396 352 403 342 408 _c
331 413 320 416 308 416 _c
280 416 254 408 232 393 _c
209 377 190 357 176 333 _c
161 308 150 282 142 255 _c
_cl}_e}_d
/u{{572 0 27 -10 546 442 _sc
106 109 _m
106 131 109 153 115 176 _c
121 198 129 224 139 252 _c
149 280 159 305 167 326 _c
175 350 180 370 180 386 _c
180 406 172 416 158 416 _c
132 416 110 402 93 375 _c
75 347 63 317 55 284 _c
53 280 51 278 47 278 _c
35 278 _l
29 278 27 281 27 287 _c
27 290 _l
37 330 54 365 76 396 _c
98 426 126 442 160 442 _c
184 442 204 434 220 418 _c
236 402 245 383 245 359 _c
245 346 242 333 237 320 _c
233 312 226 294 216 267 _c
206 239 198 217 193 199 _c
187 181 183 163 179 146 _c
175 128 174 111 174 94 _c
174 72 178 53 188 38 _c
197 22 212 15 234 15 _c
}_e{276 15 314 41 346 94 _c
346 96 347 99 348 101 _c
348 103 349 106 349 109 _c
421 399 _l
423 407 428 415 436 421 _c
444 427 453 431 463 431 _c
471 431 478 428 484 423 _c
490 418 493 411 493 403 _c
493 399 492 396 492 395 _c
420 107 _l
415 87 413 70 413 58 _c
413 29 422 15 442 15 _c
463 15 479 28 490 55 _c
500 81 509 112 517 147 _c
518 151 521 153 525 153 _c
537 153 _l
539 153 541 151 543 149 _c
545 147 546 145 546 143 _c
538 114 531 89 525 69 _c
518 49 507 30 493 14 _c
479 -2 461 -10 440 -10 _c
418 -10 399 -4 383 6 _c
366 17 355 33 349 53 _c
}_e{333 33 316 18 296 7 _c
276 -4 254 -10 232 -10 _c
193 -10 162 0 140 21 _c
117 41 106 71 106 109 _c
_cl}_e}_d
end readonly def

/BuildGlyph
 {exch begin
 CharStrings exch
 2 copy known not{pop /.notdef}if
 true 3 1 roll get exec
 end}_d

/BuildChar {
 1 index /Encoding get exch get
 1 index /BuildGlyph get exec
}_d

FontName currentdict end definefont pop
end
%%EndProlog
mpldict begin
13.5 175.5 translate
585 441 0 0 clipbox
gsave
0 0 m
585 0 l
585 441 l
0 441 l
cl
1.000 setgray
fill
grestore
gsave
73.125 44.1 m
526.5 44.1 l
526.5 396.9 l
73.125 396.9 l
cl
1.000 setgray
fill
grestore
1.000 setlinewidth
1 setlinejoin
2 setlinecap
[] 0 setdash
0.000 0.000 1.000 setrgbcolor
gsave
453.4 352.8 73.12 44.1 clipbox
73.125 352.8 m
82.1925 344.055 l
91.26 335.652 l
100.328 327.581 l
109.395 319.828 l
118.463 312.38 l
127.53 305.224 l
136.597 298.342 l
145.665 291.721 l
154.733 285.344 l
163.8 279.195 l
172.868 273.259 l
181.935 267.519 l
191.002 261.96 l
200.07 256.566 l
209.137 251.321 l
218.205 246.21 l
227.273 241.218 l
236.34 236.33 l
245.407 231.531 l
254.475 226.808 l
263.543 222.147 l
272.61 217.532 l
281.678 212.951 l
290.745 208.39 l
299.812 203.837 l
308.88 199.277 l
317.947 194.698 l
327.015 190.088 l
336.082 185.434 l
345.15 180.723 l
354.217 175.944 l
363.285 171.085 l
372.353 166.134 l
381.42 161.08 l
390.488 155.911 l
399.555 150.618 l
408.623 145.19 l
417.69 139.616 l
426.757 133.889 l
435.825 127.999 l
444.893 121.938 l
453.96 115.699 l
463.027 109.276 l
472.095 102.663 l
481.163 95.8549 l
490.23 88.8484 l
499.298 81.6407 l
508.365 74.2303 l
517.433 66.6165 l
526.5 58.8 l
stroke
grestore
0.000 0.500 0.000 setrgbcolor
gsave
453.4 352.8 73.12 44.1 clipbox
73.125 352.8 m
77.6587 352.8 l
82.1925 352.798 l
86.7262 352.792 l
91.26 352.781 l
95.7938 352.763 l
100.328 352.736 l
104.861 352.699 l
109.395 352.649 l
113.929 352.586 l
118.463 352.506 l
122.996 352.409 l
127.53 352.292 l
132.064 352.154 l
136.597 351.993 l
141.131 351.808 l
145.665 351.596 l
150.199 351.356 l
154.733 351.085 l
159.266 350.783 l
163.8 350.448 l
168.334 350.077 l
172.868 349.669 l
177.401 349.223 l
181.935 348.736 l
186.469 348.206 l
191.002 347.632 l
195.536 347.013 l
200.07 346.346 l
204.604 345.629 l
209.137 344.862 l
213.671 344.041 l
218.205 343.166 l
222.739 342.234 l
227.273 341.244 l
231.806 340.194 l
236.34 339.082 l
240.874 337.907 l
245.407 336.667 l
249.941 335.359 l
254.475 333.983 l
259.009 332.536 l
263.543 331.017 l
268.076 329.424 l
272.61 327.755 l
277.144 326.008 l
281.678 324.182 l
286.211 322.275 l
290.745 320.284 l
295.279 318.209 l
299.812 316.048 l
304.346 313.799 l
308.88 311.459 l
313.414 309.028 l
317.947 306.503 l
322.481 303.883 l
327.015 301.166 l
331.549 298.351 l
336.082 295.434 l
340.616 292.416 l
345.15 289.293 l
349.684 286.064 l
354.217 282.728 l
358.751 279.283 l
363.285 275.726 l
367.819 272.056 l
372.353 268.272 l
376.886 264.371 l
381.42 260.352 l
385.954 256.214 l
390.488 251.953 l
395.021 247.569 l
399.555 243.06 l
404.089 238.423 l
408.623 233.658 l
413.156 228.763 l
417.69 223.735 l
422.224 218.573 l
426.757 213.275 l
431.291 207.839 l
435.825 202.264 l
440.359 196.549 l
444.893 190.69 l
449.426 184.686 l
453.96 178.536 l
458.494 172.238 l
463.027 165.79 l
467.561 159.19 l
472.095 152.437 l
476.629 145.529 l
481.163 138.463 l
485.696 131.239 l
490.23 123.854 l
494.764 116.307 l
499.298 108.596 l
503.831 100.719 l
508.365 92.6746 l
512.899 84.4607 l
517.433 76.0757 l
521.966 67.5178 l
526.5 58.7853 l
stroke
grestore
0.500 setlinewidth
0 setlinecap
0.000 setgray
gsave
/o {
gsave
newpath
translate
0.5 setlinewidth
1 setlinejoin
0 setlinecap
0 0 m
0 4 l
gsave
0.000 setgray
fill
grestore
stroke
grestore
} bind def
73.125 44.1 o
grestore
gsave
/o {
gsave
newpath
translate
0.5 setlinewidth
1 setlinejoin
0 setlinecap
0 0 m
0 -4 l
gsave
0.000 setgray
fill
grestore
stroke
grestore
} bind def
73.125 396.9 o
grestore
/DejaVuSans findfont
12.000 scalefont
setfont
gsave
64.375000 31.021875 translate
0.000000 rotate
0.000000 0.171875 m /zero glyphshow
7.634766 0.171875 m /period glyphshow
11.449219 0.171875 m /zero glyphshow
grestore
gsave
/o {
gsave
newpath
translate
0.5 setlinewidth
1 setlinejoin
0 setlinecap
0 0 m
0 4 l
gsave
0.000 setgray
fill
grestore
stroke
grestore
} bind def
163.8 44.1 o
grestore
gsave
/o {
gsave
newpath
translate
0.5 setlinewidth
1 setlinejoin
0 setlinecap
0 0 m
0 -4 l
gsave
0.000 setgray
fill
grestore
stroke
grestore
} bind def
163.8 396.9 o
grestore
gsave
155.253125 31.021875 translate
0.000000 rotate
0.000000 0.171875 m /zero glyphshow
7.634766 0.171875 m /period glyphshow
11.449219 0.171875 m /two glyphshow
grestore
gsave
/o {
gsave
newpath
translate
0.5 setlinewidth
1 setlinejoin
0 setlinecap
0 0 m
0 4 l
gsave
0.000 setgray
fill
grestore
stroke
grestore
} bind def
254.475 44.1 o
grestore
gsave
/o {
gsave
newpath
translate
0.5 setlinewidth
1 setlinejoin
0 setlinecap
0 0 m
0 -4 l
gsave
0.000 setgray
fill
grestore
stroke
grestore
} bind def
254.475 396.9 o
grestore
gsave
245.662500 31.021875 translate
0.000000 rotate
0.000000 0.171875 m /zero glyphshow
7.634766 0.171875 m /period glyphshow
11.449219 0.171875 m /four glyphshow
grestore
gsave
/o {
gsave
newpath
translate
0.5 setlinewidth
1 setlinejoin
0 setlinecap
0 0 m
0 4 l
gsave
0.000 setgray
fill
grestore
stroke
grestore
} bind def
345.15 44.1 o
grestore
gsave
/o {
gsave
newpath
translate
0.5 setlinewidth
1 setlinejoin
0 setlinecap
0 0 m
0 -4 l
gsave
0.000 setgray
fill
grestore
stroke
grestore
} bind def
345.15 396.9 o
grestore
gsave
336.384375 31.021875 translate
0.000000 rotate
0.000000 0.171875 m /zero glyphshow
7.634766 0.171875 m /period glyphshow
11.449219 0.171875 m /six glyphshow
grestore
gsave
/o {
gsave
newpath
translate
0.5 setlinewidth
1 setlinejoin
0 setlinecap
0 0 m
0 4 l
gsave
0.000 setgray
fill
grestore
stroke
grestore
} bind def
435.825 44.1 o
grestore
gsave
/o {
gsave
newpath
translate
0.5 setlinewidth
1 setlinejoin
0 setlinecap
0 0 m
0 -4 l
gsave
0.000 setgray
fill
grestore
stroke
grestore
} bind def
435.825 396.9 o
grestore
gsave
427.090625 31.021875 translate
0.000000 rotate
0.000000 0.171875 m /zero glyphshow
7.634766 0.171875 m /period glyphshow
11.449219 0.171875 m /eight glyphshow
grestore
gsave
/o {
gsave
newpath
translate
0.5 setlinewidth
1 setlinejoin
0 setlinecap
0 0 m
0 4 l
gsave
0.000 setgray
fill
grestore
stroke
grestore
} bind def
526.5 44.1 o
grestore
gsave
/o {
gsave
newpath
translate
0.5 setlinewidth
1 setlinejoin
0 setlinecap
0 0 m
0 -4 l
gsave
0.000 setgray
fill
grestore
stroke
grestore
} bind def
526.5 396.9 o
grestore
gsave
518.007812 31.021875 translate
0.000000 rotate
0.000000 0.171875 m /one glyphshow
7.634766 0.171875 m /period glyphshow
11.449219 0.171875 m /zero glyphshow
grestore
gsave
296.632812 19.459375 translate
0.000000 rotate
0.000000 0.000000 m /x glyphshow
grestore
gsave
/o {
gsave
newpath
translate
0.5 setlinewidth
1 setlinejoin
0 setlinecap
0 0 m
4 0 l
gsave
0.000 setgray
fill
grestore
stroke
grestore
} bind def
73.125 44.1 o
grestore
gsave
/o {
gsave
newpath
translate
0.5 setlinewidth
1 setlinejoin
0 setlinecap
0 0 m
-4 0 l
gsave
0.000 setgray
fill
grestore
stroke
grestore
} bind def
526.5 44.1 o
grestore
gsave
42.265625 39.560937 translate
0.000000 rotate
0.000000 0.171875 m /minus glyphshow
10.054688 0.171875 m /zero glyphshow
17.689453 0.171875 m /period glyphshow
21.503906 0.171875 m /seven glyphshow
grestore
gsave
/o {
gsave
newpath
translate
0.5 setlinewidth
1 setlinejoin
0 setlinecap
0 0 m
4 0 l
gsave
0.000 setgray
fill
grestore
stroke
grestore
} bind def
73.125 88.2 o
grestore
gsave
/o {
gsave
newpath
translate
0.5 setlinewidth
1 setlinejoin
0 setlinecap
0 0 m
-4 0 l
gsave
0.000 setgray
fill
grestore
stroke
grestore
} bind def
526.5 88.2 o
grestore
gsave
42.000000 83.660937 translate
0.000000 rotate
0.000000 0.171875 m /minus glyphshow
10.054688 0.171875 m /zero glyphshow
17.689453 0.171875 m /period glyphshow
21.503906 0.171875 m /six glyphshow
grestore
gsave
/o {
gsave
newpath
translate
0.5 setlinewidth
1 setlinejoin
0 setlinecap
0 0 m
4 0 l
gsave
0.000 setgray
fill
grestore
stroke
grestore
} bind def
73.125 132.3 o
grestore
gsave
/o {
gsave
newpath
translate
0.5 setlinewidth
1 setlinejoin
0 setlinecap
0 0 m
-4 0 l
gsave
0.000 setgray
fill
grestore
stroke
grestore
} bind def
526.5 132.3 o
grestore
gsave
42.281250 127.760938 translate
0.000000 rotate
0.000000 0.171875 m /minus glyphshow
10.054688 0.171875 m /zero glyphshow
17.689453 0.171875 m /period glyphshow
21.503906 0.171875 m /five glyphshow
grestore
gsave
/o {
gsave
newpath
translate
0.5 setlinewidth
1 setlinejoin
0 setlinecap
0 0 m
4 0 l
gsave
0.000 setgray
fill
grestore
stroke
grestore
} bind def
73.125 176.4 o
grestore
gsave
/o {
gsave
newpath
translate
0.5 setlinewidth
1 setlinejoin
0 setlinecap
0 0 m
-4 0 l
gsave
0.000 setgray
fill
grestore
stroke
grestore
} bind def
526.5 176.4 o
grestore
gsave
41.906250 171.860938 translate
0.000000 rotate
0.000000 0.171875 m /minus glyphshow
10.054688 0.171875 m /zero glyphshow
17.689453 0.171875 m /period glyphshow
21.503906 0.171875 m /four glyphshow
grestore
gsave
/o {
gsave
newpath
translate
0.5 setlinewidth
1 setlinejoin
0 setlinecap
0 0 m
4 0 l
gsave
0.000 setgray
fill
grestore
stroke
grestore
} bind def
73.125 220.5 o
grestore
gsave
/o {
gsave
newpath
translate
0.5 setlinewidth
1 setlinejoin
0 setlinecap
0 0 m
-4 0 l
gsave
0.000 setgray
fill
grestore
stroke
grestore
} bind def
526.5 220.5 o
grestore
gsave
42.203125 215.960938 translate
0.000000 rotate
0.000000 0.171875 m /minus glyphshow
10.054688 0.171875 m /zero glyphshow
17.689453 0.171875 m /period glyphshow
21.503906 0.171875 m /three glyphshow
grestore
gsave
/o {
gsave
newpath
translate
0.5 setlinewidth
1 setlinejoin
0 setlinecap
0 0 m
4 0 l
gsave
0.000 setgray
fill
grestore
stroke
grestore
} bind def
73.125 264.6 o
grestore
gsave
/o {
gsave
newpath
translate
0.5 setlinewidth
1 setlinejoin
0 setlinecap
0 0 m
-4 0 l
gsave
0.000 setgray
fill
grestore
stroke
grestore
} bind def
526.5 264.6 o
grestore
gsave
42.437500 260.060938 translate
0.000000 rotate
0.000000 0.171875 m /minus glyphshow
10.054688 0.171875 m /zero glyphshow
17.689453 0.171875 m /period glyphshow
21.503906 0.171875 m /two glyphshow
grestore
gsave
/o {
gsave
newpath
translate
0.5 setlinewidth
1 setlinejoin
0 setlinecap
0 0 m
4 0 l
gsave
0.000 setgray
fill
grestore
stroke
grestore
} bind def
73.125 308.7 o
grestore
gsave
/o {
gsave
newpath
translate
0.5 setlinewidth
1 setlinejoin
0 setlinecap
0 0 m
-4 0 l
gsave
0.000 setgray
fill
grestore
stroke
grestore
} bind def
526.5 308.7 o
grestore
gsave
42.343750 304.160938 translate
0.000000 rotate
0.000000 0.171875 m /minus glyphshow
10.054688 0.171875 m /zero glyphshow
17.689453 0.171875 m /period glyphshow
21.503906 0.171875 m /one glyphshow
grestore
gsave
/o {
gsave
newpath
translate
0.5 setlinewidth
1 setlinejoin
0 setlinecap
0 0 m
4 0 l
gsave
0.000 setgray
fill
grestore
stroke
grestore
} bind def
73.125 352.8 o
grestore
gsave
/o {
gsave
newpath
translate
0.5 setlinewidth
1 setlinejoin
0 setlinecap
0 0 m
-4 0 l
gsave
0.000 setgray
fill
grestore
stroke
grestore
} bind def
526.5 352.8 o
grestore
gsave
51.625000 348.260938 translate
0.000000 rotate
0.000000 0.171875 m /zero glyphshow
7.634766 0.171875 m /period glyphshow
11.449219 0.171875 m /zero glyphshow
grestore
gsave
/o {
gsave
newpath
translate
0.5 setlinewidth
1 setlinejoin
0 setlinecap
0 0 m
4 0 l
gsave
0.000 setgray
fill
grestore
stroke
grestore
} bind def
73.125 396.9 o
grestore
gsave
/o {
gsave
newpath
translate
0.5 setlinewidth
1 setlinejoin
0 setlinecap
0 0 m
-4 0 l
gsave
0.000 setgray
fill
grestore
stroke
grestore
} bind def
526.5 396.9 o
grestore
gsave
51.937500 392.360938 translate
0.000000 rotate
0.000000 0.171875 m /zero glyphshow
7.634766 0.171875 m /period glyphshow
11.449219 0.171875 m /one glyphshow
grestore
gsave
36.906250 209.476563 translate
90.000000 rotate
0.000000 1.578125 m /u glyphshow
7.605469 1.578125 m /parenleft glyphshow
12.287109 1.578125 m /x glyphshow
19.388672 1.578125 m /parenright glyphshow
grestore
1.000 setlinewidth
2 setlinecap
gsave
73.125 396.9 m
526.5 396.9 l
stroke
grestore
gsave
526.5 44.1 m
526.5 396.9 l
stroke
grestore
gsave
73.125 44.1 m
526.5 44.1 l
stroke
grestore
gsave
73.125 44.1 m
73.125 396.9 l
stroke
grestore
/DejaVuSans findfont
14.400 scalefont
setfont
gsave
269.281250 401.696875 translate
0.000000 rotate
0.000000 0.203125 m /T glyphshow
8.790359 0.203125 m /equal glyphshow
20.848129 0.203125 m /two glyphshow
30.003876 0.203125 m /period glyphshow
34.578232 0.203125 m /zero glyphshow
43.733978 0.203125 m /zero glyphshow
52.889725 0.203125 m /zero glyphshow
grestore
gsave
455.34 342.793 m
516.42 342.793 l
518.34 342.793 519.3 343.752 519.3 345.673 c
519.3 386.82 l
519.3 388.74 518.34 389.7 516.42 389.7 c
455.34 389.7 l
453.42 389.7 452.46 388.74 452.46 386.82 c
452.46 345.673 l
452.46 343.752 453.42 342.793 455.34 342.793 c
cl
gsave
1.000 setgray
fill
grestore
stroke
grestore
0.000 0.000 1.000 setrgbcolor
gsave
462.54 378.339 m
482.7 378.339 l
stroke
grestore
0.000 setgray
gsave
498.540000 373.096250 translate
0.000000 rotate
0.000000 0.203125 m /u glyphshow
grestore
0.000 0.500 0.000 setrgbcolor
gsave
462.54 357.593 m
482.7 357.593 l
stroke
grestore
0.000 setgray
gsave
498.540000 348.552500 translate
0.000000 rotate
/Cmmi10 findfont
14.4 scalefont
setfont
0.000000 4.640625 moveto
/u glyphshow

/Cmmi10 findfont
10.08 scalefont
setfont
8.228226 0.967275 moveto
/e glyphshow


grestore

end
showpage
